\relax 
\providecommand\hyper@newdestlabel[2]{}
\providecommand\HyperFirstAtBeginDocument{\AtBeginDocument}
\HyperFirstAtBeginDocument{\ifx\hyper@anchor\@undefined
\global\let\oldcontentsline\contentsline
\gdef\contentsline#1#2#3#4{\oldcontentsline{#1}{#2}{#3}}
\global\let\oldnewlabel\newlabel
\gdef\newlabel#1#2{\newlabelxx{#1}#2}
\gdef\newlabelxx#1#2#3#4#5#6{\oldnewlabel{#1}{{#2}{#3}}}
\AtEndDocument{\ifx\hyper@anchor\@undefined
\let\contentsline\oldcontentsline
\let\newlabel\oldnewlabel
\fi}
\fi}
\global\let\hyper@last\relax 
\gdef\HyperFirstAtBeginDocument#1{#1}
\providecommand\HyField@AuxAddToFields[1]{}
\providecommand\HyField@AuxAddToCoFields[2]{}
\citation{World2009}
\citation{McMahon2001}
\citation{Aragon2013a}
\citation{Aragon2013}
\citation{Minas2011}
\citation{Cordy2011}
\citation{GUIZA2013}
\citation{Davidson2004}
\citation{ElColombiano2014}
\select@language{english}
\@writefile{toc}{\select@language{english}}
\@writefile{lof}{\select@language{english}}
\@writefile{lot}{\select@language{english}}
\@writefile{toc}{\contentsline {section}{\numberline {1}Research Problem}{1}{section.1}}
\citation{Columbiaguys}
\citation{Aragon2013a}
\citation{Aragon2013}
\citation{Swenson2011}
\citation{Hilson2002}
\citation{Fernandez-Navarro2012}
\citation{Attfield2008}
\citation{Chakraborti2013}
\citation{Mol2001}
\citation{Pfeiffer1993}
\citation{Veiga1997}
\citation{GUIZA2013}
\citation{Pfeiffer1988}
\citation{Morel1998}
\citation{Mol2001}
\citation{GUIZA2013}
\citation{Olivero2002}
\citation{UNEP2013}
\citation{Davidson2004}
\citation{Mergler2007}
\citation{Davidson2004}
\citation{Counter2004}
\citation{Clarkson2003}
\@writefile{toc}{\contentsline {subsection}{\numberline {1.1}Literature review}{3}{subsection.1.1}}
\citation{Davidson2004}
\@writefile{toc}{\contentsline {section}{\numberline {2}Research Objectives}{6}{section.2}}
\@writefile{toc}{\contentsline {section}{\numberline {3}Research Methods}{6}{section.3}}
\citation{OReily}
\@writefile{lot}{\contentsline {table}{\numberline {1}{\ignorespaces }}{8}{table.1}}
\@writefile{toc}{\contentsline {subsection}{\numberline {3.1}Difference in Difference: Upstream vs. Downstream}{8}{subsection.3.1}}
\@writefile{lof}{\contentsline {figure}{\numberline {1}{\ignorespaces Left panel shows an example of mines (in brown) located in municipalities (boundaries in black) and the rivers (in blue) in the area. The right panel shows the diffusion of pollution through rivers (low pollution in green and high pollution in red).}}{9}{figure.1}}
\newlabel{fig:1}{{1}{9}{Left panel shows an example of mines (in brown) located in municipalities (boundaries in black) and the rivers (in blue) in the area. The right panel shows the diffusion of pollution through rivers (low pollution in green and high pollution in red)}{figure.1}{}}
\@writefile{lof}{\contentsline {figure}{\numberline {2}{\ignorespaces Light pink (low) to dark red (High) scale: population density by pixel (left) and resultant exposure (right)}}{10}{figure.2}}
\citation{ElColombiano2014}
\citation{World1990}
\@writefile{toc}{\contentsline {subsection}{\numberline {3.2}Difference in Difference: Gestation and holy week}{11}{subsection.3.2}}
\citation{Ministerio2012}
\citation{Cordy2011}
\citation{World2009}
\citation{TimesIndia2012}
\citation{Morales2013}
\citation{Swenson2011}
\citation{Asner2013}
\citation{PGN2011}
\@writefile{toc}{\contentsline {subsection}{\numberline {3.3}Artisan and illegal mining}{12}{subsection.3.3}}
\@writefile{toc}{\contentsline {section}{\numberline {4}Expected Results and Dissemination}{13}{section.4}}
\@writefile{toc}{\contentsline {section}{\numberline {5}Institution and Personnel}{13}{section.5}}
\@writefile{toc}{\contentsline {section}{\numberline {6}Timetable}{14}{section.6}}
\@writefile{toc}{\contentsline {section}{\numberline {7}Budget}{14}{section.7}}
\@writefile{toc}{\contentsline {subsection}{\numberline {7.1}Direct Research Costs}{14}{subsection.7.1}}
\bibstyle{apacite}
\bibdata{bibmin}
\bibcite{Aragon2013a}{\citeauthoryear {Aragon\ \BBA{} Rud}{Aragon\ \BBA{} Rud}{{\APACyear {2013}}{\APACexlab {{\BCnt {1}}}}}}
\APACbibcite{Aragon2013a}{\citeauthoryear {Aragon\ \BBA{} Rud}{Aragon\ \BBA{} Rud}{{\APACyear {2013}}{\APACexlab {{\BCnt {1}}}}}}
\bibcite{Aragon2013}{\citeauthoryear {Aragon\ \BBA{} Rud}{Aragon\ \BBA{} Rud}{{\APACyear {2013}}{\APACexlab {{\BCnt {2}}}}}}
\APACbibcite{Aragon2013}{\citeauthoryear {Aragon\ \BBA{} Rud}{Aragon\ \BBA{} Rud}{{\APACyear {2013}}{\APACexlab {{\BCnt {2}}}}}}
\bibcite{Asner2013}{\citeauthoryear {Asner, Llactayo, Tupayachi,{}\ \BBA{} Luna}{Asner\ \BOthers {.}}{{\APACyear {2013}}}}
\APACbibcite{Asner2013}{\citeauthoryear {Asner, Llactayo, Tupayachi,{}\ \BBA{} Luna}{Asner\ \BOthers {.}}{{\APACyear {2013}}}}
\bibcite{Attfield2008}{\citeauthoryear {Attfield\ \BBA{} Kuempel}{Attfield\ \BBA{} Kuempel}{{\APACyear {2008}}}}
\APACbibcite{Attfield2008}{\citeauthoryear {Attfield\ \BBA{} Kuempel}{Attfield\ \BBA{} Kuempel}{{\APACyear {2008}}}}
\@writefile{toc}{\contentsline {subsection}{\numberline {7.2}Remuneration}{15}{subsection.7.2}}
\@writefile{toc}{\contentsline {section}{References}{15}{section*.1}}
\bibcite{OReily}{\citeauthoryear {Bose-O'Reilly}{Bose-O'Reilly}{{\APACyear {2010}}}}
\APACbibcite{OReily}{\citeauthoryear {Bose-O'Reilly}{Bose-O'Reilly}{{\APACyear {2010}}}}
\bibcite{Chakraborti2013}{\citeauthoryear {Chakraborti\ \BOthers {.}}{Chakraborti\ \BOthers {.}}{{\APACyear {2013}}}}
\APACbibcite{Chakraborti2013}{\citeauthoryear {Chakraborti\ \BOthers {.}}{Chakraborti\ \BOthers {.}}{{\APACyear {2013}}}}
\bibcite{Clarkson2003}{\citeauthoryear {Clarkson, Magos,{}\ \BBA{} Myers}{Clarkson\ \BOthers {.}}{{\APACyear {2003}}}}
\APACbibcite{Clarkson2003}{\citeauthoryear {Clarkson, Magos,{}\ \BBA{} Myers}{Clarkson\ \BOthers {.}}{{\APACyear {2003}}}}
\bibcite{Cordy2011}{\citeauthoryear {Cordy\ \BOthers {.}}{Cordy\ \BOthers {.}}{{\APACyear {2011}}}}
\APACbibcite{Cordy2011}{\citeauthoryear {Cordy\ \BOthers {.}}{Cordy\ \BOthers {.}}{{\APACyear {2011}}}}
\bibcite{Counter2004}{\citeauthoryear {Counter\ \BBA{} Buchanan}{Counter\ \BBA{} Buchanan}{{\APACyear {2004}}}}
\APACbibcite{Counter2004}{\citeauthoryear {Counter\ \BBA{} Buchanan}{Counter\ \BBA{} Buchanan}{{\APACyear {2004}}}}
\bibcite{Veiga1997}{\citeauthoryear {da Veiga}{da Veiga}{{\APACyear {1997}}}}
\APACbibcite{Veiga1997}{\citeauthoryear {da Veiga}{da Veiga}{{\APACyear {1997}}}}
\bibcite{Davidson2004}{\citeauthoryear {Davidson, Myers,{}\ \BBA{} Weiss}{Davidson\ \BOthers {.}}{{\APACyear {2004}}}}
\APACbibcite{Davidson2004}{\citeauthoryear {Davidson, Myers,{}\ \BBA{} Weiss}{Davidson\ \BOthers {.}}{{\APACyear {2004}}}}
\bibcite{ElColombiano2014}{\citeauthoryear {{El Colombiano}}{{El Colombiano}}{{\APACyear {2014}}}}
\APACbibcite{ElColombiano2014}{\citeauthoryear {{El Colombiano}}{{El Colombiano}}{{\APACyear {2014}}}}
\bibcite{Fernandez-Navarro2012}{\citeauthoryear {Fernandez-Navarro, Garcia-Perez, Ramis, Boldo,{}\ \BBA{} Lopez-Abente}{Fernandez-Navarro\ \BOthers {.}}{{\APACyear {2012}}}}
\APACbibcite{Fernandez-Navarro2012}{\citeauthoryear {Fernandez-Navarro, Garcia-Perez, Ramis, Boldo,{}\ \BBA{} Lopez-Abente}{Fernandez-Navarro\ \BOthers {.}}{{\APACyear {2012}}}}
\bibcite{GUIZA2013}{\citeauthoryear {Guiza\ \BBA{} Aristizabal}{Guiza\ \BBA{} Aristizabal}{{\APACyear {2013}}}}
\APACbibcite{GUIZA2013}{\citeauthoryear {Guiza\ \BBA{} Aristizabal}{Guiza\ \BBA{} Aristizabal}{{\APACyear {2013}}}}
\bibcite{Hilson2002}{\citeauthoryear {Hilson}{Hilson}{{\APACyear {2002}}}}
\APACbibcite{Hilson2002}{\citeauthoryear {Hilson}{Hilson}{{\APACyear {2002}}}}
\bibcite{McMahon2001}{\citeauthoryear {McMahon\ \BBA{} Remy}{McMahon\ \BBA{} Remy}{{\APACyear {2001}}}}
\APACbibcite{McMahon2001}{\citeauthoryear {McMahon\ \BBA{} Remy}{McMahon\ \BBA{} Remy}{{\APACyear {2001}}}}
\bibcite{Mergler2007}{\citeauthoryear {Mergler\ \BOthers {.}}{Mergler\ \BOthers {.}}{{\APACyear {2007}}}}
\APACbibcite{Mergler2007}{\citeauthoryear {Mergler\ \BOthers {.}}{Mergler\ \BOthers {.}}{{\APACyear {2007}}}}
\bibcite{Minas2011}{\citeauthoryear {{Ministerio de Minas y Energia}}{{Ministerio de Minas y Energia}}{{\APACyear {2011}}}}
\APACbibcite{Minas2011}{\citeauthoryear {{Ministerio de Minas y Energia}}{{Ministerio de Minas y Energia}}{{\APACyear {2011}}}}
\bibcite{Ministerio2012}{\citeauthoryear {{Ministerio de Minas y Energia}}{{Ministerio de Minas y Energia}}{{\APACyear {2012}}}}
\APACbibcite{Ministerio2012}{\citeauthoryear {{Ministerio de Minas y Energia}}{{Ministerio de Minas y Energia}}{{\APACyear {2012}}}}
\bibcite{Mol2001}{\citeauthoryear {Mol, Ramlal, Lietar,{}\ \BBA{} Verloo}{Mol\ \BOthers {.}}{{\APACyear {2001}}}}
\APACbibcite{Mol2001}{\citeauthoryear {Mol, Ramlal, Lietar,{}\ \BBA{} Verloo}{Mol\ \BOthers {.}}{{\APACyear {2001}}}}
\bibcite{Morales2013}{\citeauthoryear {Morales}{Morales}{{\APACyear {2013}}}}
\APACbibcite{Morales2013}{\citeauthoryear {Morales}{Morales}{{\APACyear {2013}}}}
\bibcite{Morel1998}{\citeauthoryear {Morel, Kraepiel,{}\ \BBA{} Amyot}{Morel\ \BOthers {.}}{{\APACyear {1998}}}}
\APACbibcite{Morel1998}{\citeauthoryear {Morel, Kraepiel,{}\ \BBA{} Amyot}{Morel\ \BOthers {.}}{{\APACyear {1998}}}}
\bibcite{Olivero2002}{\citeauthoryear {Olivero\ \BBA{} Johnson}{Olivero\ \BBA{} Johnson}{{\APACyear {2002}}}}
\APACbibcite{Olivero2002}{\citeauthoryear {Olivero\ \BBA{} Johnson}{Olivero\ \BBA{} Johnson}{{\APACyear {2002}}}}
\bibcite{Pfeiffer1988}{\citeauthoryear {Pfeiffer\ \BBA{} de Lacerda}{Pfeiffer\ \BBA{} de Lacerda}{{\APACyear {1988}}}}
\APACbibcite{Pfeiffer1988}{\citeauthoryear {Pfeiffer\ \BBA{} de Lacerda}{Pfeiffer\ \BBA{} de Lacerda}{{\APACyear {1988}}}}
\bibcite{Pfeiffer1993}{\citeauthoryear {Pfeiffer, Lacerda, Salomons,{}\ \BBA{} Malm}{Pfeiffer\ \BOthers {.}}{{\APACyear {1993}}}}
\APACbibcite{Pfeiffer1993}{\citeauthoryear {Pfeiffer, Lacerda, Salomons,{}\ \BBA{} Malm}{Pfeiffer\ \BOthers {.}}{{\APACyear {1993}}}}
\bibcite{PGN2011}{\citeauthoryear {{Procuradoria General de la Nacion}}{{Procuradoria General de la Nacion}}{{\APACyear {2011}}}}
\APACbibcite{PGN2011}{\citeauthoryear {{Procuradoria General de la Nacion}}{{Procuradoria General de la Nacion}}{{\APACyear {2011}}}}
\bibcite{Swenson2011}{\citeauthoryear {Swenson, Carter, Domec,{}\ \BBA{} Delgado}{Swenson\ \BOthers {.}}{{\APACyear {2011}}}}
\APACbibcite{Swenson2011}{\citeauthoryear {Swenson, Carter, Domec,{}\ \BBA{} Delgado}{Swenson\ \BOthers {.}}{{\APACyear {2011}}}}
\bibcite{TimesIndia2012}{\citeauthoryear {{The Times of India}}{{The Times of India}}{{\APACyear {2012}}}}
\APACbibcite{TimesIndia2012}{\citeauthoryear {{The Times of India}}{{The Times of India}}{{\APACyear {2012}}}}
\bibcite{UNEP2013}{\citeauthoryear {UNEP}{UNEP}{{\APACyear {2013}}}}
\APACbibcite{UNEP2013}{\citeauthoryear {UNEP}{UNEP}{{\APACyear {2013}}}}
\bibcite{Columbiaguys}{\citeauthoryear {von~der Goltz\ \BBA{} Barnwal}{von~der Goltz\ \BBA{} Barnwal}{{\APACyear {2014}}}}
\APACbibcite{Columbiaguys}{\citeauthoryear {von~der Goltz\ \BBA{} Barnwal}{von~der Goltz\ \BBA{} Barnwal}{{\APACyear {2014}}}}
\bibcite{World2009}{\citeauthoryear {{World Bank}}{{World Bank}}{{\APACyear {2009}}}}
\APACbibcite{World2009}{\citeauthoryear {{World Bank}}{{World Bank}}{{\APACyear {2009}}}}
\bibcite{World1990}{\citeauthoryear {{World Health Organization}}{{World Health Organization}}{{\APACyear {1990}}}}
\APACbibcite{World1990}{\citeauthoryear {{World Health Organization}}{{World Health Organization}}{{\APACyear {1990}}}}
