\relax 
\providecommand\hyper@newdestlabel[2]{}
\providecommand\HyperFirstAtBeginDocument{\AtBeginDocument}
\HyperFirstAtBeginDocument{\ifx\hyper@anchor\@undefined
\global\let\oldcontentsline\contentsline
\gdef\contentsline#1#2#3#4{\oldcontentsline{#1}{#2}{#3}}
\global\let\oldnewlabel\newlabel
\gdef\newlabel#1#2{\newlabelxx{#1}#2}
\gdef\newlabelxx#1#2#3#4#5#6{\oldnewlabel{#1}{{#2}{#3}}}
\AtEndDocument{\ifx\hyper@anchor\@undefined
\let\contentsline\oldcontentsline
\let\newlabel\oldnewlabel
\fi}
\fi}
\global\let\hyper@last\relax 
\gdef\HyperFirstAtBeginDocument#1{#1}
\providecommand\HyField@AuxAddToFields[1]{}
\providecommand\HyField@AuxAddToCoFields[2]{}
\citation{McMahon2014}
\citation{Carson2010}
\citation{Harbaugh2002}
\citation{Almond2006}
\citation{Bharadwaj2013}
\citation{Almond2011}
\citation{Black2007}
\citation{CongresoRepublica2013}
\citation{Moster2001}
\citation{Almond2005}
\citation{Greenstone2015}
\citation{McMahon2001}
\citation{Aragon2015}
\citation{Aragon2013}
\citation{Goltz2014}
\citation{Goltz2014}
\citation{Tolonen2015}
\citation{Goltz2014}
\citation{Tolonen2015}
\citation{Almond2011a}
\citation{Schofield2015}
\select@language{english}
\@writefile{toc}{\select@language{english}}
\@writefile{lof}{\select@language{english}}
\@writefile{lot}{\select@language{english}}
\@writefile{toc}{\contentsline {section}{\numberline {1}Introduction}{1}{section.1}}
\citation{Swenson2011}
\citation{Hilson2002}
\citation{Fernandez-Navarro2012}
\citation{Attfield2008}
\citation{Chakraborti2013}
\citation{Aragon2015}
\citation{Aragon2013}
\citation{Goltz2014}
\citation{Goltz2014}
\@writefile{toc}{\contentsline {section}{\numberline {2}Mercury and human health}{3}{section.2}}
\newlabel{sec:rev}{{2}{3}{Mercury and human health}{section.2}{}}
\citation{Mol2001}
\citation{Pfeiffer1993}
\citation{Veiga1997}
\citation{GUIZA2013}
\citation{Pfeiffer1988}
\citation{Morel1998}
\citation{Mol2001}
\citation{GUIZA2013}
\citation{Olivero2002}
\citation{UNEP2013}
\@writefile{toc}{\contentsline {subsection}{\numberline {2.1}Mercury and amalgamation in gold mining}{4}{subsection.2.1}}
\citation{WHO2013}
\citation{WHO2013}
\citation{Davidson2004}
\citation{Mergler2007}
\citation{Davidson2004}
\citation{Counter2004}
\citation{Clarkson2003}
\citation{Davidson2004}
\citation{EPA2013a}
\citation{Black2013}
\citation{cdc2009}
\citation{Moster2001}
\citation{Almond2005}
\@writefile{toc}{\contentsline {subsection}{\numberline {2.2}Health effects of mercury}{5}{subsection.2.2}}
\@writefile{toc}{\contentsline {section}{\numberline {3}Colombian context and data}{6}{section.3}}
\@writefile{lof}{\contentsline {figure}{\numberline {1}{\ignorespaces }}{6}{figure.1}}
\newlabel{fig:evol_mineria1}{{1}{6}{}{figure.1}{}}
\citation{ElEspectador2015}
\citation{ElEspectador2015a}
\@writefile{toc}{\contentsline {subsection}{\numberline {3.1}Data on mining activity}{7}{subsection.3.1}}
\newlabel{sec:miningdata}{{3.1}{7}{Data on mining activity}{subsection.3.1}{}}
\citation{Cordy2011}
\citation{WorldBank2009}
\citation{Montgomery2000}
\citation{Ehrenstein2009}
\citation{WHO2006}
\@writefile{lof}{\contentsline {figure}{\numberline {2}{\ignorespaces }}{8}{figure.2}}
\newlabel{fig:evol_mineria2}{{2}{8}{}{figure.2}{}}
\@writefile{toc}{\contentsline {subsection}{\numberline {3.2}Data on newborns}{8}{subsection.3.2}}
\citation{WHO2006}
\@writefile{lot}{\contentsline {table}{\numberline {1}{\ignorespaces Summary statistics for births}}{9}{table.1}}
\newlabel{tab:sumBirths}{{1}{9}{Summary statistics for births}{table.1}{}}
\citation{Bose-OReilly2010}
\@writefile{toc}{\contentsline {section}{\numberline {4}Identification strategies}{10}{section.4}}
\newlabel{sec:meth}{{4}{10}{Identification strategies}{section.4}{}}
\@writefile{toc}{\contentsline {subsection}{\numberline {4.1}Spatial exposure to mining}{10}{subsection.4.1}}
\newlabel{sec:upstream_exp}{{4.1}{10}{Spatial exposure to mining}{subsection.4.1}{}}
\citation{Ibanez2014}
\citation{Goltz2014}
\citation{Santos2014}
\newlabel{eq:reg2}{{1}{11}{Spatial exposure to mining}{equation.4.1}{}}
\newlabel{eq:reg_event2}{{2}{11}{Spatial exposure to mining}{equation.4.2}{}}
\citation{ElColombiano2014}
\@writefile{toc}{\contentsline {subsection}{\numberline {4.2}Holy Week}{12}{subsection.4.2}}
\newlabel{sec:HW}{{4.2}{12}{Holy Week}{subsection.4.2}{}}
\newlabel{eq:regHW3d}{{3}{12}{Holy Week}{equation.4.3}{}}
\@writefile{toc}{\contentsline {section}{\numberline {5}Results}{13}{section.5}}
\newlabel{sec:results}{{5}{13}{Results}{section.5}{}}
\@writefile{toc}{\contentsline {subsection}{\numberline {5.1}Spatial exposure}{13}{subsection.5.1}}
\@writefile{lot}{\contentsline {table}{\numberline {2}{\ignorespaces Effect of proximity and river pollution exposure on birth outcomes}}{14}{table.2}}
\newlabel{tab:regTrace}{{2}{14}{Effect of proximity and river pollution exposure on birth outcomes}{table.2}{}}
\@writefile{lof}{\contentsline {figure}{\numberline {3}{\ignorespaces }}{15}{figure.3}}
\newlabel{fig:event_prox}{{3}{15}{}{figure.3}{}}
\@writefile{toc}{\contentsline {subsection}{\numberline {5.2}Holy Week}{15}{subsection.5.2}}
\@writefile{lot}{\contentsline {table}{\numberline {3}{\ignorespaces Increased mercury exposure in-utero due to Holy Week}}{16}{table.3}}
\newlabel{tab:hwreg}{{3}{16}{Increased mercury exposure in-utero due to Holy Week}{table.3}{}}
\@writefile{toc}{\contentsline {section}{\numberline {6}Robustness checks}{17}{section.6}}
\@writefile{toc}{\contentsline {subsection}{\numberline {6.1}Other measures of mining activity}{17}{subsection.6.1}}
\@writefile{toc}{\contentsline {subsection}{\numberline {6.2}Price of gold}{17}{subsection.6.2}}
\@writefile{toc}{\contentsline {subsection}{\numberline {6.3}Fiscal effect on municipalities}{17}{subsection.6.3}}
\@writefile{toc}{\contentsline {subsection}{\numberline {6.4}Birth and mother characteristics}{17}{subsection.6.4}}
\@writefile{toc}{\contentsline {subsection}{\numberline {6.5}Illegal mining}{18}{subsection.6.5}}
\@writefile{toc}{\contentsline {subsection}{\numberline {6.6}Using only the centroids of the mines}{18}{subsection.6.6}}
\bibstyle{apacite}
\bibdata{bibmin}
\bibcite{Almond2006}{\citeauthoryear {Almond}{Almond}{{\APACyear {2006}}}}
\APACbibcite{Almond2006}{\citeauthoryear {Almond}{Almond}{{\APACyear {2006}}}}
\bibcite{Almond2005}{\citeauthoryear {Almond, Chay,{}\ \BBA{} Lee}{Almond\ \BOthers {.}}{{\APACyear {2005}}}}
\APACbibcite{Almond2005}{\citeauthoryear {Almond, Chay,{}\ \BBA{} Lee}{Almond\ \BOthers {.}}{{\APACyear {2005}}}}
\bibcite{Almond2011}{\citeauthoryear {Almond\ \BBA{} Currie}{Almond\ \BBA{} Currie}{{\APACyear {2011}}}}
\APACbibcite{Almond2011}{\citeauthoryear {Almond\ \BBA{} Currie}{Almond\ \BBA{} Currie}{{\APACyear {2011}}}}
\bibcite{Almond2011a}{\citeauthoryear {Almond\ \BBA{} Mazumder}{Almond\ \BBA{} Mazumder}{{\APACyear {2011}}}}
\APACbibcite{Almond2011a}{\citeauthoryear {Almond\ \BBA{} Mazumder}{Almond\ \BBA{} Mazumder}{{\APACyear {2011}}}}
\@writefile{toc}{\contentsline {section}{\numberline {7}Conclusions and future work}{19}{section.7}}
\newlabel{sec:conc}{{7}{19}{Conclusions and future work}{section.7}{}}
\@writefile{toc}{\contentsline {section}{References}{19}{section*.1}}
\bibcite{Aragon2013}{\citeauthoryear {Arag\'{o}n\ \BBA{} Rud}{Arag\'{o}n\ \BBA{} Rud}{{\APACyear {2013}}}}
\APACbibcite{Aragon2013}{\citeauthoryear {Arag\'{o}n\ \BBA{} Rud}{Arag\'{o}n\ \BBA{} Rud}{{\APACyear {2013}}}}
\bibcite{Aragon2015}{\citeauthoryear {Arag\'{o}n\ \BBA{} Rud}{Arag\'{o}n\ \BBA{} Rud}{{\APACyear {2015}}}}
\APACbibcite{Aragon2015}{\citeauthoryear {Arag\'{o}n\ \BBA{} Rud}{Arag\'{o}n\ \BBA{} Rud}{{\APACyear {2015}}}}
\bibcite{Attfield2008}{\citeauthoryear {Attfield\ \BBA{} Kuempel}{Attfield\ \BBA{} Kuempel}{{\APACyear {2008}}}}
\APACbibcite{Attfield2008}{\citeauthoryear {Attfield\ \BBA{} Kuempel}{Attfield\ \BBA{} Kuempel}{{\APACyear {2008}}}}
\bibcite{Bharadwaj2013}{\citeauthoryear {Bharadwaj, L{\o }ken,{}\ \BBA{} Neilson}{Bharadwaj\ \BOthers {.}}{{\APACyear {2013}}}}
\APACbibcite{Bharadwaj2013}{\citeauthoryear {Bharadwaj, L{\o }ken,{}\ \BBA{} Neilson}{Bharadwaj\ \BOthers {.}}{{\APACyear {2013}}}}
\bibcite{Black2013}{\citeauthoryear {Black, B\"{u}tikofer, Devereux,{}\ \BBA{} Salvanes}{Black\ \BOthers {.}}{{\APACyear {2013}}}}
\APACbibcite{Black2013}{\citeauthoryear {Black, B\"{u}tikofer, Devereux,{}\ \BBA{} Salvanes}{Black\ \BOthers {.}}{{\APACyear {2013}}}}
\bibcite{Black2007}{\citeauthoryear {Black, Devereux,{}\ \BBA{} Salvanes}{Black\ \BOthers {.}}{{\APACyear {2007}}}}
\APACbibcite{Black2007}{\citeauthoryear {Black, Devereux,{}\ \BBA{} Salvanes}{Black\ \BOthers {.}}{{\APACyear {2007}}}}
\bibcite{Bose-OReilly2010}{\citeauthoryear {Bose-O'Reilly\ \BOthers {.}}{Bose-O'Reilly\ \BOthers {.}}{{\APACyear {2010}}}}
\APACbibcite{Bose-OReilly2010}{\citeauthoryear {Bose-O'Reilly\ \BOthers {.}}{Bose-O'Reilly\ \BOthers {.}}{{\APACyear {2010}}}}
\bibcite{Carson2010}{\citeauthoryear {Carson}{Carson}{{\APACyear {2010}}}}
\APACbibcite{Carson2010}{\citeauthoryear {Carson}{Carson}{{\APACyear {2010}}}}
\bibcite{cdc2009}{\citeauthoryear {{Center for Disease Control}}{{Center for Disease Control}}{{\APACyear {2009}}}}
\APACbibcite{cdc2009}{\citeauthoryear {{Center for Disease Control}}{{Center for Disease Control}}{{\APACyear {2009}}}}
\bibcite{Chakraborti2013}{\citeauthoryear {Chakraborti\ \BOthers {.}}{Chakraborti\ \BOthers {.}}{{\APACyear {2013}}}}
\APACbibcite{Chakraborti2013}{\citeauthoryear {Chakraborti\ \BOthers {.}}{Chakraborti\ \BOthers {.}}{{\APACyear {2013}}}}
\bibcite{Clarkson2003}{\citeauthoryear {Clarkson, Magos,{}\ \BBA{} Myers}{Clarkson\ \BOthers {.}}{{\APACyear {2003}}}}
\APACbibcite{Clarkson2003}{\citeauthoryear {Clarkson, Magos,{}\ \BBA{} Myers}{Clarkson\ \BOthers {.}}{{\APACyear {2003}}}}
\bibcite{CongresoRepublica2013}{\citeauthoryear {{Congreso de la Republica}}{{Congreso de la Republica}}{{\APACyear {2013}}}}
\APACbibcite{CongresoRepublica2013}{\citeauthoryear {{Congreso de la Republica}}{{Congreso de la Republica}}{{\APACyear {2013}}}}
\bibcite{Cordy2011}{\citeauthoryear {Cordy\ \BOthers {.}}{Cordy\ \BOthers {.}}{{\APACyear {2011}}}}
\APACbibcite{Cordy2011}{\citeauthoryear {Cordy\ \BOthers {.}}{Cordy\ \BOthers {.}}{{\APACyear {2011}}}}
\bibcite{Counter2004}{\citeauthoryear {Counter\ \BBA{} Buchanan}{Counter\ \BBA{} Buchanan}{{\APACyear {2004}}}}
\APACbibcite{Counter2004}{\citeauthoryear {Counter\ \BBA{} Buchanan}{Counter\ \BBA{} Buchanan}{{\APACyear {2004}}}}
\bibcite{Veiga1997}{\citeauthoryear {da Veiga}{da Veiga}{{\APACyear {1997}}}}
\APACbibcite{Veiga1997}{\citeauthoryear {da Veiga}{da Veiga}{{\APACyear {1997}}}}
\bibcite{Davidson2004}{\citeauthoryear {Davidson, Myers,{}\ \BBA{} Weiss}{Davidson\ \BOthers {.}}{{\APACyear {2004}}}}
\APACbibcite{Davidson2004}{\citeauthoryear {Davidson, Myers,{}\ \BBA{} Weiss}{Davidson\ \BOthers {.}}{{\APACyear {2004}}}}
\bibcite{Ehrenstein2009}{\citeauthoryear {Ehrenstein}{Ehrenstein}{{\APACyear {2009}}}}
\APACbibcite{Ehrenstein2009}{\citeauthoryear {Ehrenstein}{Ehrenstein}{{\APACyear {2009}}}}
\bibcite{ElColombiano2014}{\citeauthoryear {{El Colombiano}}{{El Colombiano}}{{\APACyear {2014}}}}
\APACbibcite{ElColombiano2014}{\citeauthoryear {{El Colombiano}}{{El Colombiano}}{{\APACyear {2014}}}}
\bibcite{ElEspectador2015a}{\citeauthoryear {{El Espectador}}{{El Espectador}}{{\APACyear {2015}}{\APACexlab {{\BCnt {1}}}}}}
\APACbibcite{ElEspectador2015a}{\citeauthoryear {{El Espectador}}{{El Espectador}}{{\APACyear {2015}}{\APACexlab {{\BCnt {1}}}}}}
\bibcite{ElEspectador2015}{\citeauthoryear {{El Espectador}}{{El Espectador}}{{\APACyear {2015}}{\APACexlab {{\BCnt {2}}}}}}
\APACbibcite{ElEspectador2015}{\citeauthoryear {{El Espectador}}{{El Espectador}}{{\APACyear {2015}}{\APACexlab {{\BCnt {2}}}}}}
\bibcite{EPA2013a}{\citeauthoryear {{Environmental Protection Agency }}{{Environmental Protection Agency }}{{\APACyear {2013}}}}
\APACbibcite{EPA2013a}{\citeauthoryear {{Environmental Protection Agency }}{{Environmental Protection Agency }}{{\APACyear {2013}}}}
\bibcite{Fernandez-Navarro2012}{\citeauthoryear {Fern{\'a}ndez-Navarro, Garc{\'\i }a-P{\'e}rez, Ramis, Boldo,{}\ \BBA{} L{\'o}pez-Abente}{Fern{\'a}ndez-Navarro\ \BOthers {.}}{{\APACyear {2012}}}}
\APACbibcite{Fernandez-Navarro2012}{\citeauthoryear {Fern{\'a}ndez-Navarro, Garc{\'\i }a-P{\'e}rez, Ramis, Boldo,{}\ \BBA{} L{\'o}pez-Abente}{Fern{\'a}ndez-Navarro\ \BOthers {.}}{{\APACyear {2012}}}}
\bibcite{Greenstone2015}{\citeauthoryear {Greenstone\ \BBA{} Jack}{Greenstone\ \BBA{} Jack}{{\APACyear {2015}}}}
\APACbibcite{Greenstone2015}{\citeauthoryear {Greenstone\ \BBA{} Jack}{Greenstone\ \BBA{} Jack}{{\APACyear {2015}}}}
\bibcite{GUIZA2013}{\citeauthoryear {Guiza\ \BBA{} Aristizabal}{Guiza\ \BBA{} Aristizabal}{{\APACyear {2013}}}}
\APACbibcite{GUIZA2013}{\citeauthoryear {Guiza\ \BBA{} Aristizabal}{Guiza\ \BBA{} Aristizabal}{{\APACyear {2013}}}}
\bibcite{Harbaugh2002}{\citeauthoryear {Harbaugh, Levinson,{}\ \BBA{} Wilson}{Harbaugh\ \BOthers {.}}{{\APACyear {2002}}}}
\APACbibcite{Harbaugh2002}{\citeauthoryear {Harbaugh, Levinson,{}\ \BBA{} Wilson}{Harbaugh\ \BOthers {.}}{{\APACyear {2002}}}}
\bibcite{Hilson2002}{\citeauthoryear {Hilson}{Hilson}{{\APACyear {2002}}}}
\APACbibcite{Hilson2002}{\citeauthoryear {Hilson}{Hilson}{{\APACyear {2002}}}}
\bibcite{Ibanez2014}{\citeauthoryear {Ibanez\ \BBA{} Laverde}{Ibanez\ \BBA{} Laverde}{{\APACyear {2014}}}}
\APACbibcite{Ibanez2014}{\citeauthoryear {Ibanez\ \BBA{} Laverde}{Ibanez\ \BBA{} Laverde}{{\APACyear {2014}}}}
\bibcite{McMahon2014}{\citeauthoryear {McMahon\ \BBA{} Moreira}{McMahon\ \BBA{} Moreira}{{\APACyear {2014}}}}
\APACbibcite{McMahon2014}{\citeauthoryear {McMahon\ \BBA{} Moreira}{McMahon\ \BBA{} Moreira}{{\APACyear {2014}}}}
\bibcite{McMahon2001}{\citeauthoryear {McMahon\ \BBA{} Remy}{McMahon\ \BBA{} Remy}{{\APACyear {2001}}}}
\APACbibcite{McMahon2001}{\citeauthoryear {McMahon\ \BBA{} Remy}{McMahon\ \BBA{} Remy}{{\APACyear {2001}}}}
\bibcite{Mergler2007}{\citeauthoryear {Mergler\ \BOthers {.}}{Mergler\ \BOthers {.}}{{\APACyear {2007}}}}
\APACbibcite{Mergler2007}{\citeauthoryear {Mergler\ \BOthers {.}}{Mergler\ \BOthers {.}}{{\APACyear {2007}}}}
\bibcite{Mol2001}{\citeauthoryear {Mol, Ramlal, Lietar,{}\ \BBA{} Verloo}{Mol\ \BOthers {.}}{{\APACyear {2001}}}}
\APACbibcite{Mol2001}{\citeauthoryear {Mol, Ramlal, Lietar,{}\ \BBA{} Verloo}{Mol\ \BOthers {.}}{{\APACyear {2001}}}}
\bibcite{Montgomery2000}{\citeauthoryear {Montgomery}{Montgomery}{{\APACyear {2000}}}}
\APACbibcite{Montgomery2000}{\citeauthoryear {Montgomery}{Montgomery}{{\APACyear {2000}}}}
\bibcite{Morel1998}{\citeauthoryear {Morel, Kraepiel,{}\ \BBA{} Amyot}{Morel\ \BOthers {.}}{{\APACyear {1998}}}}
\APACbibcite{Morel1998}{\citeauthoryear {Morel, Kraepiel,{}\ \BBA{} Amyot}{Morel\ \BOthers {.}}{{\APACyear {1998}}}}
\bibcite{Moster2001}{\citeauthoryear {Moster, Lie, Irgens, Bjerkedal,{}\ \BBA{} Markestad}{Moster\ \BOthers {.}}{{\APACyear {2001}}}}
\APACbibcite{Moster2001}{\citeauthoryear {Moster, Lie, Irgens, Bjerkedal,{}\ \BBA{} Markestad}{Moster\ \BOthers {.}}{{\APACyear {2001}}}}
\bibcite{Olivero2002}{\citeauthoryear {Olivero\ \BBA{} Johnson}{Olivero\ \BBA{} Johnson}{{\APACyear {2002}}}}
\APACbibcite{Olivero2002}{\citeauthoryear {Olivero\ \BBA{} Johnson}{Olivero\ \BBA{} Johnson}{{\APACyear {2002}}}}
\bibcite{Pfeiffer1988}{\citeauthoryear {Pfeiffer\ \BBA{} de Lacerda}{Pfeiffer\ \BBA{} de Lacerda}{{\APACyear {1988}}}}
\APACbibcite{Pfeiffer1988}{\citeauthoryear {Pfeiffer\ \BBA{} de Lacerda}{Pfeiffer\ \BBA{} de Lacerda}{{\APACyear {1988}}}}
\bibcite{Pfeiffer1993}{\citeauthoryear {Pfeiffer, Lacerda, Salomons,{}\ \BBA{} Malm}{Pfeiffer\ \BOthers {.}}{{\APACyear {1993}}}}
\APACbibcite{Pfeiffer1993}{\citeauthoryear {Pfeiffer, Lacerda, Salomons,{}\ \BBA{} Malm}{Pfeiffer\ \BOthers {.}}{{\APACyear {1993}}}}
\bibcite{Santos2014}{\citeauthoryear {Santos}{Santos}{{\APACyear {2014}}}}
\APACbibcite{Santos2014}{\citeauthoryear {Santos}{Santos}{{\APACyear {2014}}}}
\bibcite{Schofield2015}{\citeauthoryear {Schofield}{Schofield}{{\APACyear {2015}}}}
\APACbibcite{Schofield2015}{\citeauthoryear {Schofield}{Schofield}{{\APACyear {2015}}}}
\bibcite{Swenson2011}{\citeauthoryear {Swenson, Carter, Domec,{}\ \BBA{} Delgado}{Swenson\ \BOthers {.}}{{\APACyear {2011}}}}
\APACbibcite{Swenson2011}{\citeauthoryear {Swenson, Carter, Domec,{}\ \BBA{} Delgado}{Swenson\ \BOthers {.}}{{\APACyear {2011}}}}
\bibcite{Tolonen2015}{\citeauthoryear {Tolonen}{Tolonen}{{\APACyear {2015}}}}
\APACbibcite{Tolonen2015}{\citeauthoryear {Tolonen}{Tolonen}{{\APACyear {2015}}}}
\bibcite{UNEP2013}{\citeauthoryear {{United Nations Environment Programme}}{{United Nations Environment Programme}}{{\APACyear {2013}}}}
\APACbibcite{UNEP2013}{\citeauthoryear {{United Nations Environment Programme}}{{United Nations Environment Programme}}{{\APACyear {2013}}}}
\bibcite{Goltz2014}{\citeauthoryear {von~der Goltz\ \BBA{} Barnwal}{von~der Goltz\ \BBA{} Barnwal}{{\APACyear {2014}}}}
\APACbibcite{Goltz2014}{\citeauthoryear {von~der Goltz\ \BBA{} Barnwal}{von~der Goltz\ \BBA{} Barnwal}{{\APACyear {2014}}}}
\bibcite{WorldBank2009}{\citeauthoryear {{World Bank}}{{World Bank}}{{\APACyear {2009}}}}
\APACbibcite{WorldBank2009}{\citeauthoryear {{World Bank}}{{World Bank}}{{\APACyear {2009}}}}
\bibcite{WHO2006}{\citeauthoryear {{World Health Organization}}{{World Health Organization}}{{\APACyear {2006}}}}
\APACbibcite{WHO2006}{\citeauthoryear {{World Health Organization}}{{World Health Organization}}{{\APACyear {2006}}}}
\bibcite{WHO2013}{\citeauthoryear {{World Health Organization}}{{World Health Organization}}{{\APACyear {2013}}}}
\APACbibcite{WHO2013}{\citeauthoryear {{World Health Organization}}{{World Health Organization}}{{\APACyear {2013}}}}
\@writefile{toc}{\contentsline {section}{\numberline {A}Extra Tables}{23}{appendix.A}}
\newlabel{sec:exttab}{{A}{23}{Extra Tables}{appendix.A}{}}
\@writefile{lot}{\contentsline {table}{\numberline {4}{\ignorespaces Other measures of mining activity on birth outcomes}}{23}{table.4}}
\newlabel{tab:othermeas}{{4}{23}{Other measures of mining activity on birth outcomes}{table.4}{}}
\@writefile{lot}{\contentsline {table}{\numberline {5}{\ignorespaces Net effect of mining on APGAR scores for different measures of mining interacted with gold price}}{24}{table.5}}
\newlabel{tab:regprice}{{5}{24}{Net effect of mining on APGAR scores for different measures of mining interacted with gold price}{table.5}{}}
\@writefile{lot}{\contentsline {table}{\numberline {6}{\ignorespaces Effect of mining on muncipality budget and royaltie's income}}{24}{table.6}}
\newlabel{tab:regfiscal}{{6}{24}{Effect of mining on muncipality budget and royaltie's income}{table.6}{}}
\@writefile{lot}{\contentsline {table}{\numberline {7}{\ignorespaces Effect of mining on mother characteristics}}{25}{table.7}}
\newlabel{tab:mom_char_mining1}{{7}{25}{Effect of mining on mother characteristics}{table.7}{}}
\@writefile{lot}{\contentsline {table}{\numberline {8}{\ignorespaces Effect of mining on birth outcomes by illegal mining}}{26}{table.8}}
\newlabel{tab:illegalmeassure}{{8}{26}{Effect of mining on birth outcomes by illegal mining}{table.8}{}}
\@writefile{lot}{\contentsline {table}{\numberline {9}{\ignorespaces Summary statistics for mines}}{26}{table.9}}
\newlabel{tab:sumMines}{{9}{26}{Summary statistics for mines}{table.9}{}}
\@writefile{lot}{\contentsline {table}{\numberline {10}{\ignorespaces Effect of proximity and river pollution exposure on birth outcomes: Continous outcomes}}{27}{table.10}}
\newlabel{tab:main_cont}{{10}{27}{Effect of proximity and river pollution exposure on birth outcomes: Continous outcomes}{table.10}{}}
\@writefile{lot}{\contentsline {table}{\numberline {11}{\ignorespaces Effect of proximity and river pollution exposure on birth outcomes: Intensive margin}}{27}{table.11}}
\newlabel{tab:regIndividualMeasure}{{11}{27}{Effect of proximity and river pollution exposure on birth outcomes: Intensive margin}{table.11}{}}
\@writefile{lot}{\contentsline {table}{\numberline {12}{\ignorespaces Effect of proximity and river pollution exposure on birth outcomes}}{28}{table.12}}
\newlabel{tab:regTrace_Cent}{{12}{28}{Effect of proximity and river pollution exposure on birth outcomes}{table.12}{}}
\@writefile{toc}{\contentsline {section}{\numberline {B}Extra Figures}{29}{appendix.B}}
\newlabel{sec:extfig}{{B}{29}{Extra Figures}{appendix.B}{}}
\@writefile{lof}{\contentsline {figure}{\numberline {4}{\ignorespaces }}{29}{figure.4}}
\newlabel{fig:evolSalud}{{4}{29}{}{figure.4}{}}
\@writefile{toc}{\contentsline {subsection}{\numberline {B.1}Impacts of different levels of mining}{29}{subsection.B.1}}
\newlabel{eq:regdeciles}{{4}{29}{Impacts of different levels of mining}{equation.B.4}{}}
\@writefile{lof}{\contentsline {figure}{\numberline {5}{\ignorespaces Proportion of births near and downstream from a mine - 5 KM buffer}}{30}{figure.5}}
\newlabel{fig:prop5}{{5}{30}{Proportion of births near and downstream from a mine - 5 KM buffer}{figure.5}{}}
\@writefile{lof}{\contentsline {figure}{\numberline {6}{\ignorespaces Proportion of births near and downstream from a mine - 10 KM buffer}}{30}{figure.6}}
\newlabel{fig:prop10}{{6}{30}{Proportion of births near and downstream from a mine - 10 KM buffer}{figure.6}{}}
\@writefile{lof}{\contentsline {figure}{\numberline {7}{\ignorespaces Proportion of births near and downstream from a mine - 20 KM buffer}}{30}{figure.7}}
\newlabel{fig:prop20}{{7}{30}{Proportion of births near and downstream from a mine - 20 KM buffer}{figure.7}{}}
\@writefile{lof}{\contentsline {figure}{\numberline {8}{\ignorespaces Mined area and APGAR}}{31}{figure.8}}
\newlabel{fig:deciles}{{8}{31}{Mined area and APGAR}{figure.8}{}}
