\relax 
\providecommand\hyper@newdestlabel[2]{}
\providecommand\HyperFirstAtBeginDocument{\AtBeginDocument}
\HyperFirstAtBeginDocument{\ifx\hyper@anchor\@undefined
\global\let\oldcontentsline\contentsline
\gdef\contentsline#1#2#3#4{\oldcontentsline{#1}{#2}{#3}}
\global\let\oldnewlabel\newlabel
\gdef\newlabel#1#2{\newlabelxx{#1}#2}
\gdef\newlabelxx#1#2#3#4#5#6{\oldnewlabel{#1}{{#2}{#3}}}
\AtEndDocument{\ifx\hyper@anchor\@undefined
\let\contentsline\oldcontentsline
\let\newlabel\oldnewlabel
\fi}
\fi}
\global\let\hyper@last\relax 
\gdef\HyperFirstAtBeginDocument#1{#1}
\providecommand\HyField@AuxAddToFields[1]{}
\providecommand\HyField@AuxAddToCoFields[2]{}
\babel@aux{english}{}
\citation{Jayachandran2009}
\citation{Almond2006}
\citation{Bharadwaj2013}
\citation{Almond2011}
\citation{Black2007}
\citation{UNEPINTERPOL(2016)}
\citation{UNEPINTERPOL(2016)}
\citation{CongresoRepublica2013}
\citation{SaavedraRomero2019}
\citation{Moster2001}
\citation{Almond2005}
\citation{Greenstone2015}
\citation{McMahon2001}
\citation{Aragon2015}
\citation{Aragon2013}
\citation{vonBarnwal2019}
\citation{vonBarnwal2019}
\citation{Benshaul-Tolonen2018}
\citation{Almond2011a}
\citation{Schofield2015}
\@writefile{toc}{\contentsline {section}{\numberline {1}Introduction}{1}{section.1}\protected@file@percent }
\citation{Mol2001}
\citation{Pfeiffer1993}
\citation{Veiga1997}
\citation{GUIZA2013}
\citation{Pfeiffer1988}
\citation{Morel1998}
\citation{Mol2001}
\citation{GUIZA2013}
\citation{Olivero2002}
\@writefile{toc}{\contentsline {section}{\numberline {2}Mercury and human health}{3}{section.2}\protected@file@percent }
\newlabel{sec:rev}{{2}{3}{Mercury and human health}{section.2}{}}
\@writefile{toc}{\contentsline {subsection}{\numberline {2.1}Mercury and amalgamation in gold mining}{3}{subsection.2.1}\protected@file@percent }
\citation{WHO2013}
\citation{WHO2013}
\citation{Davidson2004}
\citation{Mergler2007}
\citation{Davidson2004}
\citation{Counter2004}
\citation{Clarkson2003}
\citation{Davidson2004}
\citation{EPA2013a}
\citation{Black2013}
\citation{cdc2009}
\citation{Moster2001}
\citation{Almond2005}
\@writefile{toc}{\contentsline {subsection}{\numberline {2.2}Health effects of mercury}{4}{subsection.2.2}\protected@file@percent }
\@writefile{toc}{\contentsline {section}{\numberline {3}Colombian context and data}{4}{section.3}\protected@file@percent }
\citation{unodc2016}
\citation{unodc2016}
\citation{SaavedraRomero2019}
\citation{unodc2016}
\citation{SaavedraRomero2019}
\citation{Cordy2011}
\citation{WorldBank2009}
\citation{SaavedraRomero2019}
\citation{Montgomery2000}
\citation{Ehrenstein2009}
\citation{WHO2006}
\@writefile{toc}{\contentsline {subsection}{\numberline {3.1}Data on mining activity}{5}{subsection.3.1}\protected@file@percent }
\newlabel{sec:miningdata}{{3.1}{5}{Data on mining activity}{subsection.3.1}{}}
\@writefile{toc}{\contentsline {subsection}{\numberline {3.2}Data on newborns}{5}{subsection.3.2}\protected@file@percent }
\citation{WHO2006}
\@writefile{lot}{\contentsline {table}{\numberline {1}{\ignorespaces Summary statistics for births\relax }}{6}{table.caption.2}\protected@file@percent }
\providecommand*\caption@xref[2]{\@setref\relax\@undefined{#1}}
\newlabel{tab:sumBirths}{{1}{6}{Summary statistics for births\relax }{table.caption.2}{}}
\citation{Ibanez2014}
\@writefile{toc}{\contentsline {section}{\numberline {4}Identification strategies}{7}{section.4}\protected@file@percent }
\newlabel{sec:meth}{{4}{7}{Identification strategies}{section.4}{}}
\@writefile{toc}{\contentsline {subsection}{\numberline {4.1}Spatial exposure to mining}{7}{subsection.4.1}\protected@file@percent }
\newlabel{sec:upstream_exp}{{4.1}{7}{Spatial exposure to mining}{subsection.4.1}{}}
\newlabel{eq:reg2}{{1}{7}{Spatial exposure to mining}{equation.4.1}{}}
\citation{ElColombiano2014}
\newlabel{eq:reg_event2}{{2}{8}{Spatial exposure to mining}{equation.4.2}{}}
\@writefile{toc}{\contentsline {subsection}{\numberline {4.2}Holy Week}{8}{subsection.4.2}\protected@file@percent }
\newlabel{sec:HW}{{4.2}{8}{Holy Week}{subsection.4.2}{}}
\newlabel{eq:regHW3d}{{3}{8}{Holy Week}{equation.4.3}{}}
\@writefile{toc}{\contentsline {section}{\numberline {5}Results}{9}{section.5}\protected@file@percent }
\newlabel{sec:results}{{5}{9}{Results}{section.5}{}}
\@writefile{toc}{\contentsline {subsection}{\numberline {5.1}Spatial exposure}{9}{subsection.5.1}\protected@file@percent }
\@writefile{lot}{\contentsline {table}{\numberline {2}{\ignorespaces Effect of proximity and river pollution exposure on birth outcomes\relax }}{10}{table.caption.4}\protected@file@percent }
\newlabel{tab:regTrace}{{2}{10}{Effect of proximity and river pollution exposure on birth outcomes\relax }{table.caption.4}{}}
\@writefile{lof}{\contentsline {figure}{\numberline {1}{\ignorespaces Treatment effect evolution\relax }}{11}{figure.caption.5}\protected@file@percent }
\newlabel{fig:event_prox}{{1}{11}{Treatment effect evolution\relax }{figure.caption.5}{}}
\@writefile{toc}{\contentsline {subsection}{\numberline {5.2}Holy Week}{11}{subsection.5.2}\protected@file@percent }
\@writefile{lot}{\contentsline {table}{\numberline {3}{\ignorespaces Increased mercury exposure in-utero due to Holy Week fish consumption\relax }}{13}{table.caption.7}\protected@file@percent }
\newlabel{tab:hwreg}{{3}{13}{Increased mercury exposure in-utero due to Holy Week fish consumption\relax }{table.caption.7}{}}
\@writefile{toc}{\contentsline {section}{\numberline {6}Robustness checks}{13}{section.6}\protected@file@percent }
\@writefile{toc}{\contentsline {subsection}{\numberline {6.1}Other measures of mining activity}{14}{subsection.6.1}\protected@file@percent }
\@writefile{toc}{\contentsline {subsection}{\numberline {6.2}Price of gold}{14}{subsection.6.2}\protected@file@percent }
\@writefile{toc}{\contentsline {subsection}{\numberline {6.3}Fiscal effect on municipalities}{14}{subsection.6.3}\protected@file@percent }
\@writefile{toc}{\contentsline {subsection}{\numberline {6.4}Birth and mother characteristics}{14}{subsection.6.4}\protected@file@percent }
\@writefile{toc}{\contentsline {subsection}{\numberline {6.5}Using only the centroids of the mines}{15}{subsection.6.5}\protected@file@percent }
\@writefile{toc}{\contentsline {section}{\numberline {7}Conclusions and future work}{15}{section.7}\protected@file@percent }
\newlabel{sec:conc}{{7}{15}{Conclusions and future work}{section.7}{}}
\bibstyle{apacite}
\bibdata{bibmin}
\bibcite{Almond2006}{\citeauthoryear {Almond}{Almond}{{\APACyear {2006}}}}
\APACbibcite{Almond2006}{\citeauthoryear {Almond}{Almond}{{\APACyear {2006}}}}
\bibcite{Almond2005}{\citeauthoryear {Almond, Chay,{}\ \BBA{} Lee}{Almond\ \BOthers {.}}{{\APACyear {2005}}}}
\APACbibcite{Almond2005}{\citeauthoryear {Almond, Chay,{}\ \BBA{} Lee}{Almond\ \BOthers {.}}{{\APACyear {2005}}}}
\bibcite{Almond2011}{\citeauthoryear {Almond\ \BBA{} Currie}{Almond\ \BBA{} Currie}{{\APACyear {2011}}}}
\APACbibcite{Almond2011}{\citeauthoryear {Almond\ \BBA{} Currie}{Almond\ \BBA{} Currie}{{\APACyear {2011}}}}
\bibcite{Almond2011a}{\citeauthoryear {Almond\ \BBA{} Mazumder}{Almond\ \BBA{} Mazumder}{{\APACyear {2011}}}}
\APACbibcite{Almond2011a}{\citeauthoryear {Almond\ \BBA{} Mazumder}{Almond\ \BBA{} Mazumder}{{\APACyear {2011}}}}
\bibcite{Aragon2013}{\citeauthoryear {Arag\'{o}n\ \BBA{} Rud}{Arag\'{o}n\ \BBA{} Rud}{{\APACyear {2013}}}}
\APACbibcite{Aragon2013}{\citeauthoryear {Arag\'{o}n\ \BBA{} Rud}{Arag\'{o}n\ \BBA{} Rud}{{\APACyear {2013}}}}
\bibcite{Aragon2015}{\citeauthoryear {Arag\'{o}n\ \BBA{} Rud}{Arag\'{o}n\ \BBA{} Rud}{{\APACyear {2015}}}}
\APACbibcite{Aragon2015}{\citeauthoryear {Arag\'{o}n\ \BBA{} Rud}{Arag\'{o}n\ \BBA{} Rud}{{\APACyear {2015}}}}
\bibcite{Benshaul-Tolonen2018}{\citeauthoryear {Benshaul-Tolonen}{Benshaul-Tolonen}{{\APACyear {2018}}}}
\APACbibcite{Benshaul-Tolonen2018}{\citeauthoryear {Benshaul-Tolonen}{Benshaul-Tolonen}{{\APACyear {2018}}}}
\bibcite{Bharadwaj2013}{\citeauthoryear {Bharadwaj, L{\o }ken,{}\ \BBA{} Neilson}{Bharadwaj\ \BOthers {.}}{{\APACyear {2013}}}}
\APACbibcite{Bharadwaj2013}{\citeauthoryear {Bharadwaj, L{\o }ken,{}\ \BBA{} Neilson}{Bharadwaj\ \BOthers {.}}{{\APACyear {2013}}}}
\@writefile{toc}{\contentsline {section}{References}{16}{section*.8}\protected@file@percent }
\bibcite{Black2013}{\citeauthoryear {Black, B\"{u}tikofer, Devereux,{}\ \BBA{} Salvanes}{Black\ \BOthers {.}}{{\APACyear {2013}}}}
\APACbibcite{Black2013}{\citeauthoryear {Black, B\"{u}tikofer, Devereux,{}\ \BBA{} Salvanes}{Black\ \BOthers {.}}{{\APACyear {2013}}}}
\bibcite{Black2007}{\citeauthoryear {Black, Devereux,{}\ \BBA{} Salvanes}{Black\ \BOthers {.}}{{\APACyear {2007}}}}
\APACbibcite{Black2007}{\citeauthoryear {Black, Devereux,{}\ \BBA{} Salvanes}{Black\ \BOthers {.}}{{\APACyear {2007}}}}
\bibcite{Bose-OReilly2010}{\citeauthoryear {Bose-O'Reilly\ \BOthers {.}}{Bose-O'Reilly\ \BOthers {.}}{{\APACyear {2010}}}}
\APACbibcite{Bose-OReilly2010}{\citeauthoryear {Bose-O'Reilly\ \BOthers {.}}{Bose-O'Reilly\ \BOthers {.}}{{\APACyear {2010}}}}
\bibcite{cdc2009}{\citeauthoryear {{Center for Disease Control}}{{Center for Disease Control}}{{\APACyear {2009}}}}
\APACbibcite{cdc2009}{\citeauthoryear {{Center for Disease Control}}{{Center for Disease Control}}{{\APACyear {2009}}}}
\bibcite{Clarkson2003}{\citeauthoryear {Clarkson, Magos,{}\ \BBA{} Myers}{Clarkson\ \BOthers {.}}{{\APACyear {2003}}}}
\APACbibcite{Clarkson2003}{\citeauthoryear {Clarkson, Magos,{}\ \BBA{} Myers}{Clarkson\ \BOthers {.}}{{\APACyear {2003}}}}
\bibcite{CongresoRepublica2013}{\citeauthoryear {{Congreso de la Republica}}{{Congreso de la Republica}}{{\APACyear {2013}}}}
\APACbibcite{CongresoRepublica2013}{\citeauthoryear {{Congreso de la Republica}}{{Congreso de la Republica}}{{\APACyear {2013}}}}
\bibcite{Cordy2011}{\citeauthoryear {Cordy\ \BOthers {.}}{Cordy\ \BOthers {.}}{{\APACyear {2011}}}}
\APACbibcite{Cordy2011}{\citeauthoryear {Cordy\ \BOthers {.}}{Cordy\ \BOthers {.}}{{\APACyear {2011}}}}
\bibcite{Counter2004}{\citeauthoryear {Counter\ \BBA{} Buchanan}{Counter\ \BBA{} Buchanan}{{\APACyear {2004}}}}
\APACbibcite{Counter2004}{\citeauthoryear {Counter\ \BBA{} Buchanan}{Counter\ \BBA{} Buchanan}{{\APACyear {2004}}}}
\bibcite{Veiga1997}{\citeauthoryear {da Veiga}{da Veiga}{{\APACyear {1997}}}}
\APACbibcite{Veiga1997}{\citeauthoryear {da Veiga}{da Veiga}{{\APACyear {1997}}}}
\bibcite{Davidson2004}{\citeauthoryear {Davidson, Myers,{}\ \BBA{} Weiss}{Davidson\ \BOthers {.}}{{\APACyear {2004}}}}
\APACbibcite{Davidson2004}{\citeauthoryear {Davidson, Myers,{}\ \BBA{} Weiss}{Davidson\ \BOthers {.}}{{\APACyear {2004}}}}
\bibcite{Ehrenstein2009}{\citeauthoryear {Ehrenstein}{Ehrenstein}{{\APACyear {2009}}}}
\APACbibcite{Ehrenstein2009}{\citeauthoryear {Ehrenstein}{Ehrenstein}{{\APACyear {2009}}}}
\bibcite{ElColombiano2014}{\citeauthoryear {{El Colombiano}}{{El Colombiano}}{{\APACyear {2014}}}}
\APACbibcite{ElColombiano2014}{\citeauthoryear {{El Colombiano}}{{El Colombiano}}{{\APACyear {2014}}}}
\bibcite{EPA2013a}{\citeauthoryear {{Environmental Protection Agency }}{{Environmental Protection Agency }}{{\APACyear {2013}}}}
\APACbibcite{EPA2013a}{\citeauthoryear {{Environmental Protection Agency }}{{Environmental Protection Agency }}{{\APACyear {2013}}}}
\bibcite{Greenstone2015}{\citeauthoryear {Greenstone\ \BBA{} Jack}{Greenstone\ \BBA{} Jack}{{\APACyear {2015}}}}
\APACbibcite{Greenstone2015}{\citeauthoryear {Greenstone\ \BBA{} Jack}{Greenstone\ \BBA{} Jack}{{\APACyear {2015}}}}
\bibcite{GUIZA2013}{\citeauthoryear {Guiza\ \BBA{} Aristizabal}{Guiza\ \BBA{} Aristizabal}{{\APACyear {2013}}}}
\APACbibcite{GUIZA2013}{\citeauthoryear {Guiza\ \BBA{} Aristizabal}{Guiza\ \BBA{} Aristizabal}{{\APACyear {2013}}}}
\bibcite{Ibanez2014}{\citeauthoryear {Iba\~nez\ \BBA{} Laverde}{Iba\~nez\ \BBA{} Laverde}{{\APACyear {2014}}}}
\APACbibcite{Ibanez2014}{\citeauthoryear {Iba\~nez\ \BBA{} Laverde}{Iba\~nez\ \BBA{} Laverde}{{\APACyear {2014}}}}
\bibcite{Jayachandran2009}{\citeauthoryear {Jayachandran}{Jayachandran}{{\APACyear {2009}}}}
\APACbibcite{Jayachandran2009}{\citeauthoryear {Jayachandran}{Jayachandran}{{\APACyear {2009}}}}
\bibcite{McMahon2001}{\citeauthoryear {McMahon\ \BBA{} Remy}{McMahon\ \BBA{} Remy}{{\APACyear {2001}}}}
\APACbibcite{McMahon2001}{\citeauthoryear {McMahon\ \BBA{} Remy}{McMahon\ \BBA{} Remy}{{\APACyear {2001}}}}
\bibcite{Mergler2007}{\citeauthoryear {Mergler\ \BOthers {.}}{Mergler\ \BOthers {.}}{{\APACyear {2007}}}}
\APACbibcite{Mergler2007}{\citeauthoryear {Mergler\ \BOthers {.}}{Mergler\ \BOthers {.}}{{\APACyear {2007}}}}
\bibcite{Mol2001}{\citeauthoryear {Mol, Ramlal, Lietar,{}\ \BBA{} Verloo}{Mol\ \BOthers {.}}{{\APACyear {2001}}}}
\APACbibcite{Mol2001}{\citeauthoryear {Mol, Ramlal, Lietar,{}\ \BBA{} Verloo}{Mol\ \BOthers {.}}{{\APACyear {2001}}}}
\bibcite{Montgomery2000}{\citeauthoryear {Montgomery}{Montgomery}{{\APACyear {2000}}}}
\APACbibcite{Montgomery2000}{\citeauthoryear {Montgomery}{Montgomery}{{\APACyear {2000}}}}
\bibcite{Morel1998}{\citeauthoryear {Morel, Kraepiel,{}\ \BBA{} Amyot}{Morel\ \BOthers {.}}{{\APACyear {1998}}}}
\APACbibcite{Morel1998}{\citeauthoryear {Morel, Kraepiel,{}\ \BBA{} Amyot}{Morel\ \BOthers {.}}{{\APACyear {1998}}}}
\bibcite{Moster2001}{\citeauthoryear {Moster, Lie, Irgens, Bjerkedal,{}\ \BBA{} Markestad}{Moster\ \BOthers {.}}{{\APACyear {2001}}}}
\APACbibcite{Moster2001}{\citeauthoryear {Moster, Lie, Irgens, Bjerkedal,{}\ \BBA{} Markestad}{Moster\ \BOthers {.}}{{\APACyear {2001}}}}
\bibcite{Olivero2002}{\citeauthoryear {Olivero\ \BBA{} Johnson}{Olivero\ \BBA{} Johnson}{{\APACyear {2002}}}}
\APACbibcite{Olivero2002}{\citeauthoryear {Olivero\ \BBA{} Johnson}{Olivero\ \BBA{} Johnson}{{\APACyear {2002}}}}
\bibcite{Pfeiffer1988}{\citeauthoryear {Pfeiffer\ \BBA{} de Lacerda}{Pfeiffer\ \BBA{} de Lacerda}{{\APACyear {1988}}}}
\APACbibcite{Pfeiffer1988}{\citeauthoryear {Pfeiffer\ \BBA{} de Lacerda}{Pfeiffer\ \BBA{} de Lacerda}{{\APACyear {1988}}}}
\bibcite{Pfeiffer1993}{\citeauthoryear {Pfeiffer, Lacerda, Salomons,{}\ \BBA{} Malm}{Pfeiffer\ \BOthers {.}}{{\APACyear {1993}}}}
\APACbibcite{Pfeiffer1993}{\citeauthoryear {Pfeiffer, Lacerda, Salomons,{}\ \BBA{} Malm}{Pfeiffer\ \BOthers {.}}{{\APACyear {1993}}}}
\bibcite{SaavedraRomero2019}{\citeauthoryear {Saavedra\ \BBA{} Romero}{Saavedra\ \BBA{} Romero}{{\APACyear {2019}}}}
\APACbibcite{SaavedraRomero2019}{\citeauthoryear {Saavedra\ \BBA{} Romero}{Saavedra\ \BBA{} Romero}{{\APACyear {2019}}}}
\bibcite{Schofield2015}{\citeauthoryear {Schofield}{Schofield}{{\APACyear {2015}}}}
\APACbibcite{Schofield2015}{\citeauthoryear {Schofield}{Schofield}{{\APACyear {2015}}}}
\bibcite{UNEPINTERPOL(2016)}{\citeauthoryear {{UNEP-INTERPOL}}{{UNEP-INTERPOL}}{{\APACyear {2016}}}}
\APACbibcite{UNEPINTERPOL(2016)}{\citeauthoryear {{UNEP-INTERPOL}}{{UNEP-INTERPOL}}{{\APACyear {2016}}}}
\bibcite{unodc2016}{\citeauthoryear {UNODC}{UNODC}{{\APACyear {2016}}}}
\APACbibcite{unodc2016}{\citeauthoryear {UNODC}{UNODC}{{\APACyear {2016}}}}
\bibcite{vonBarnwal2019}{\citeauthoryear {von~der Goltz\ \BBA{} Barnwal}{von~der Goltz\ \BBA{} Barnwal}{{\APACyear {2019}}}}
\APACbibcite{vonBarnwal2019}{\citeauthoryear {von~der Goltz\ \BBA{} Barnwal}{von~der Goltz\ \BBA{} Barnwal}{{\APACyear {2019}}}}
\bibcite{WorldBank2009}{\citeauthoryear {{World Bank}}{{World Bank}}{{\APACyear {2009}}}}
\APACbibcite{WorldBank2009}{\citeauthoryear {{World Bank}}{{World Bank}}{{\APACyear {2009}}}}
\bibcite{WHO2006}{\citeauthoryear {{World Health Organization}}{{World Health Organization}}{{\APACyear {2006}}}}
\APACbibcite{WHO2006}{\citeauthoryear {{World Health Organization}}{{World Health Organization}}{{\APACyear {2006}}}}
\bibcite{WHO2013}{\citeauthoryear {{World Health Organization}}{{World Health Organization}}{{\APACyear {2013}}}}
\APACbibcite{WHO2013}{\citeauthoryear {{World Health Organization}}{{World Health Organization}}{{\APACyear {2013}}}}
\citation{Bose-OReilly2010}
\@writefile{toc}{\contentsline {section}{\numberline {A}Continuous measures of pollution}{19}{appendix.A}\protected@file@percent }
\@writefile{toc}{\contentsline {section}{\numberline {B}Extra Tables}{20}{appendix.B}\protected@file@percent }
\newlabel{sec:exttab}{{B}{20}{Extra Tables}{appendix.B}{}}
\@writefile{lot}{\contentsline {table}{\numberline {4}{\ignorespaces Other measures of mining activity on birth outcomes\relax }}{20}{table.caption.10}\protected@file@percent }
\newlabel{tab:othermeas}{{4}{20}{Other measures of mining activity on birth outcomes\relax }{table.caption.10}{}}
\@writefile{lot}{\contentsline {table}{\numberline {5}{\ignorespaces Net effect of mining on APGAR scores for different measures of mining interacted with gold price\relax }}{21}{table.caption.12}\protected@file@percent }
\newlabel{tab:regprice}{{5}{21}{Net effect of mining on APGAR scores for different measures of mining interacted with gold price\relax }{table.caption.12}{}}
\@writefile{lot}{\contentsline {table}{\numberline {6}{\ignorespaces Effect of mining on muncipality budget and royaltie's income\relax }}{21}{table.caption.14}\protected@file@percent }
\newlabel{tab:regfiscal}{{6}{21}{Effect of mining on muncipality budget and royaltie's income\relax }{table.caption.14}{}}
\@writefile{lot}{\contentsline {table}{\numberline {7}{\ignorespaces Effect of mining on mother characteristics\relax }}{22}{table.caption.16}\protected@file@percent }
\newlabel{tab:mom_char_mining1}{{7}{22}{Effect of mining on mother characteristics\relax }{table.caption.16}{}}
\@writefile{lot}{\contentsline {table}{\numberline {8}{\ignorespaces Effect of mining on birth outcomes by illegal mining\relax }}{23}{table.caption.18}\protected@file@percent }
\newlabel{tab:illegalmeassure}{{8}{23}{Effect of mining on birth outcomes by illegal mining\relax }{table.caption.18}{}}
\@writefile{lot}{\contentsline {table}{\numberline {9}{\ignorespaces Summary statistics for mines\relax }}{23}{table.caption.20}\protected@file@percent }
\newlabel{tab:sumMines}{{9}{23}{Summary statistics for mines\relax }{table.caption.20}{}}
\@writefile{lot}{\contentsline {table}{\numberline {10}{\ignorespaces Effect of proximity and river pollution exposure on birth outcomes: Continous outcomes\relax }}{23}{table.caption.22}\protected@file@percent }
\newlabel{tab:main_cont}{{10}{23}{Extra Tables}{table.caption.22}{}}
\@writefile{lot}{\contentsline {table}{\numberline {11}{\ignorespaces Effect of proximity and river pollution exposure on birth outcomes: Intensive margin\relax }}{24}{table.caption.24}\protected@file@percent }
\newlabel{tab:regIndividualMeasure}{{11}{24}{Effect of proximity and river pollution exposure on birth outcomes: Intensive margin\relax }{table.caption.24}{}}
\@writefile{lot}{\contentsline {table}{\numberline {12}{\ignorespaces Effect of proximity and river pollution exposure on birth outcomes\relax }}{25}{table.caption.26}\protected@file@percent }
\newlabel{tab:regTrace_Cent}{{12}{25}{Effect of proximity and river pollution exposure on birth outcomes\relax }{table.caption.26}{}}
\@writefile{toc}{\contentsline {section}{\numberline {C}Extra Figures}{26}{appendix.C}\protected@file@percent }
\newlabel{sec:extfig}{{C}{26}{Extra Figures}{appendix.C}{}}
\@writefile{lof}{\contentsline {figure}{\numberline {2}{\ignorespaces Mercury-related health events and gold mining in Colombia \relax }}{26}{figure.caption.27}\protected@file@percent }
\newlabel{fig:evolSalud}{{2}{26}{Mercury-related health events and gold mining in Colombia \relax }{figure.caption.27}{}}
\@writefile{lof}{\contentsline {figure}{\numberline {3}{\ignorespaces Gold production and mined area in Colombia\relax }}{27}{figure.caption.28}\protected@file@percent }
\newlabel{fig:evol_mineria1}{{3}{27}{Gold production and mined area in Colombia\relax }{figure.caption.28}{}}
\@writefile{lof}{\contentsline {figure}{\numberline {5}{\ignorespaces Proportion of births near and downstream from a mine - 5 KM buffer\relax }}{28}{figure.caption.30}\protected@file@percent }
\newlabel{fig:prop5}{{5}{28}{Proportion of births near and downstream from a mine - 5 KM buffer\relax }{figure.caption.30}{}}
\@writefile{lof}{\contentsline {figure}{\numberline {4}{\ignorespaces Mining municipalities\relax }}{28}{figure.caption.29}\protected@file@percent }
\newlabel{fig:evol_mineria2}{{4}{28}{Mining municipalities\relax }{figure.caption.29}{}}
\@writefile{lof}{\contentsline {figure}{\numberline {6}{\ignorespaces Proportion of births near and downstream from a mine - 10 KM buffer\relax }}{29}{figure.caption.31}\protected@file@percent }
\newlabel{fig:prop10}{{6}{29}{Proportion of births near and downstream from a mine - 10 KM buffer\relax }{figure.caption.31}{}}
\@writefile{lof}{\contentsline {figure}{\numberline {7}{\ignorespaces Proportion of births near and downstream from a mine - 20 KM buffer\relax }}{29}{figure.caption.32}\protected@file@percent }
\newlabel{fig:prop20}{{7}{29}{Proportion of births near and downstream from a mine - 20 KM buffer\relax }{figure.caption.32}{}}
\@writefile{toc}{\contentsline {subsection}{\numberline {C.1}Impacts of different levels of mining}{30}{subsection.C.1}\protected@file@percent }
\newlabel{eq:regdeciles}{{4}{30}{Impacts of different levels of mining}{equation.C.4}{}}
\@writefile{lof}{\contentsline {figure}{\numberline {8}{\ignorespaces Mined area and APGAR\relax }}{31}{figure.caption.33}\protected@file@percent }
\newlabel{fig:deciles}{{8}{31}{Mined area and APGAR\relax }{figure.caption.33}{}}
