\BOOKMARK [1][-]{section.1}{Introduction}{}% 1
\BOOKMARK [1][-]{section.2}{Methods}{}% 2
\BOOKMARK [2][-]{subsection.2.1}{Theoretical model}{section.2}% 3
\BOOKMARK [3][-]{subsubsection.2.1.1}{Mercury, mining and health}{subsection.2.1}% 4
\BOOKMARK [2][-]{subsection.2.2}{Empirical Model}{section.2}% 5
\BOOKMARK [3][-]{subsubsection.2.2.1}{Constructing river pollution exposure and proximity exposure}{subsection.2.2}% 6
\BOOKMARK [3][-]{subsubsection.2.2.2}{Holy Week}{subsection.2.2}% 7
\BOOKMARK [3][-]{subsubsection.2.2.3}{Other strategies}{subsection.2.2}% 8
\BOOKMARK [1][-]{section.3}{Results}{}% 9
\BOOKMARK [2][-]{subsection.3.1}{Net effect of gold mining on the health of newborns}{section.3}% 10
\BOOKMARK [2][-]{subsection.3.2}{River exposure}{section.3}% 11
\BOOKMARK [2][-]{subsection.3.3}{Holy Week}{section.3}% 12
\BOOKMARK [1][-]{section.4}{Conclusions and future work}{}% 13
\BOOKMARK [1][-]{section.5}{Policy implications and recommendations}{}% 14
\BOOKMARK [1][-]{section.6}{Impact on my professional career}{}% 15
\BOOKMARK [1][-]{section*.1}{References}{}% 16
\BOOKMARK [1][-]{appendix.A}{Extra Tables}{}% 17
