This is BibTeX, Version 0.99dThe top-level auxiliary file: TechnichalReport.aux
The style file: apacite.bst
Database file #1: bibmin.bib
apacite.bst [2013/07/21 v6.03 APA bibliography style]
Warning--No address in Black2013
Warning--No journal in Veiga1997
Warning--No institution in EPA2013a
Warning--No address in EPA2013a
Warning--No address in UNEP2013
Warning--No institution in WHO2013
Warning--No address in WHO2013
(There were 7 warnings)
