\relax 
\providecommand\hyper@newdestlabel[2]{}
\providecommand\HyperFirstAtBeginDocument{\AtBeginDocument}
\HyperFirstAtBeginDocument{\ifx\hyper@anchor\@undefined
\global\let\oldcontentsline\contentsline
\gdef\contentsline#1#2#3#4{\oldcontentsline{#1}{#2}{#3}}
\global\let\oldnewlabel\newlabel
\gdef\newlabel#1#2{\newlabelxx{#1}#2}
\gdef\newlabelxx#1#2#3#4#5#6{\oldnewlabel{#1}{{#2}{#3}}}
\AtEndDocument{\ifx\hyper@anchor\@undefined
\let\contentsline\oldcontentsline
\let\newlabel\oldnewlabel
\fi}
\fi}
\global\let\hyper@last\relax 
\gdef\HyperFirstAtBeginDocument#1{#1}
\providecommand\HyField@AuxAddToFields[1]{}
\providecommand\HyField@AuxAddToCoFields[2]{}
\citation{McMahon2014}
\citation{Almond2005}
\citation{Mol2001}
\citation{Pfeiffer1993}
\citation{Veiga1997}
\citation{GUIZA2013}
\citation{GUIZA2013}
\citation{Olivero2002}
\select@language{english}
\@writefile{toc}{\select@language{english}}
\@writefile{lof}{\select@language{english}}
\@writefile{lot}{\select@language{english}}
\@writefile{toc}{\contentsline {section}{\numberline {1}Introduction}{1}{section.1}}
\@writefile{toc}{\contentsline {section}{\numberline {2}Methods}{1}{section.2}}
\@writefile{toc}{\contentsline {subsection}{\numberline {2.1}Theoretical model}{1}{subsection.2.1}}
\@writefile{toc}{\contentsline {subsubsection}{\numberline {2.1.1}Mercury, mining and health}{1}{subsubsection.2.1.1}}
\citation{UNEP2013}
\citation{WHO2013}
\citation{WHO2013}
\citation{Davidson2004}
\citation{Davidson2004}
\citation{EPA2013a}
\@writefile{toc}{\contentsline {subsection}{\numberline {2.2}Empirical Model}{2}{subsection.2.2}}
\newlabel{eq:reg1}{{1}{2}{Empirical Model}{equation.2.1}{}}
\citation{ElColombiano2014}
\@writefile{toc}{\contentsline {subsubsection}{\numberline {2.2.1}Constructing river pollution exposure and proximity exposure}{3}{subsubsection.2.2.1}}
\newlabel{sec:upstream_exp}{{2.2.1}{3}{Constructing river pollution exposure and proximity exposure}{subsubsection.2.2.1}{}}
\newlabel{eq:reg2}{{2}{3}{Constructing river pollution exposure and proximity exposure}{equation.2.2}{}}
\@writefile{toc}{\contentsline {subsubsection}{\numberline {2.2.2}Holy Week}{3}{subsubsection.2.2.2}}
\newlabel{sec:HW}{{2.2.2}{3}{Holy Week}{subsubsection.2.2.2}{}}
\newlabel{eq:regHW3d}{{3}{4}{Holy Week}{equation.2.3}{}}
\@writefile{toc}{\contentsline {subsubsection}{\numberline {2.2.3}Other strategies}{4}{subsubsection.2.2.3}}
\@writefile{toc}{\contentsline {section}{\numberline {3}Results}{6}{section.3}}
\newlabel{sec:results}{{3}{6}{Results}{section.3}{}}
\@writefile{toc}{\contentsline {subsection}{\numberline {3.1}Net effect of gold mining on the health of newborns}{6}{subsection.3.1}}
\@writefile{lot}{\contentsline {table}{\numberline {1}{\ignorespaces Net effect of mining on APGAR, for different measurements of mining}}{6}{table.1}}
\newlabel{tab:mainreg}{{1}{6}{Net effect of mining on APGAR, for different measurements of mining}{table.1}{}}
\@writefile{toc}{\contentsline {subsection}{\numberline {3.2}River exposure}{7}{subsection.3.2}}
\citation{Black2013}
\@writefile{lot}{\contentsline {table}{\numberline {2}{\ignorespaces Effect of proximity and river pollution exposure }}{8}{table.2}}
\newlabel{tab:regTrace}{{2}{8}{Effect of proximity and river pollution exposure}{table.2}{}}
\@writefile{toc}{\contentsline {subsection}{\numberline {3.3}Holy Week}{8}{subsection.3.3}}
\@writefile{toc}{\contentsline {section}{\numberline {4}Conclusions and future work}{9}{section.4}}
\newlabel{sec:conc}{{4}{9}{Conclusions and future work}{section.4}{}}
\@writefile{toc}{\contentsline {section}{\numberline {5}Policy implications and recommendations}{9}{section.5}}
\@writefile{toc}{\contentsline {section}{\numberline {6}Impact on my professional career}{9}{section.6}}
\bibstyle{apacite}
\bibdata{bibmin}
\bibcite{Almond2005}{\citeauthoryear {Almond, Chay,{}\ \BBA{} Lee}{Almond\ \BOthers {.}}{{\APACyear {2005}}}}
\APACbibcite{Almond2005}{\citeauthoryear {Almond, Chay,{}\ \BBA{} Lee}{Almond\ \BOthers {.}}{{\APACyear {2005}}}}
\bibcite{Black2013}{\citeauthoryear {Black, B\"{u}tikofer, Devereux,{}\ \BBA{} Salvanes}{Black\ \BOthers {.}}{{\APACyear {2013}}}}
\APACbibcite{Black2013}{\citeauthoryear {Black, B\"{u}tikofer, Devereux,{}\ \BBA{} Salvanes}{Black\ \BOthers {.}}{{\APACyear {2013}}}}
\bibcite{Veiga1997}{\citeauthoryear {da Veiga}{da Veiga}{{\APACyear {1997}}}}
\APACbibcite{Veiga1997}{\citeauthoryear {da Veiga}{da Veiga}{{\APACyear {1997}}}}
\bibcite{Davidson2004}{\citeauthoryear {Davidson, Myers,{}\ \BBA{} Weiss}{Davidson\ \BOthers {.}}{{\APACyear {2004}}}}
\APACbibcite{Davidson2004}{\citeauthoryear {Davidson, Myers,{}\ \BBA{} Weiss}{Davidson\ \BOthers {.}}{{\APACyear {2004}}}}
\bibcite{ElColombiano2014}{\citeauthoryear {{El Colombiano}}{{El Colombiano}}{{\APACyear {2014}}}}
\APACbibcite{ElColombiano2014}{\citeauthoryear {{El Colombiano}}{{El Colombiano}}{{\APACyear {2014}}}}
\bibcite{EPA2013a}{\citeauthoryear {{Environmental Protection Agency }}{{Environmental Protection Agency }}{{\APACyear {2013}}}}
\APACbibcite{EPA2013a}{\citeauthoryear {{Environmental Protection Agency }}{{Environmental Protection Agency }}{{\APACyear {2013}}}}
\bibcite{GUIZA2013}{\citeauthoryear {Guiza\ \BBA{} Aristizabal}{Guiza\ \BBA{} Aristizabal}{{\APACyear {2013}}}}
\APACbibcite{GUIZA2013}{\citeauthoryear {Guiza\ \BBA{} Aristizabal}{Guiza\ \BBA{} Aristizabal}{{\APACyear {2013}}}}
\bibcite{McMahon2014}{\citeauthoryear {McMahon\ \BBA{} Moreira}{McMahon\ \BBA{} Moreira}{{\APACyear {2014}}}}
\APACbibcite{McMahon2014}{\citeauthoryear {McMahon\ \BBA{} Moreira}{McMahon\ \BBA{} Moreira}{{\APACyear {2014}}}}
\bibcite{Mol2001}{\citeauthoryear {Mol, Ramlal, Lietar,{}\ \BBA{} Verloo}{Mol\ \BOthers {.}}{{\APACyear {2001}}}}
\APACbibcite{Mol2001}{\citeauthoryear {Mol, Ramlal, Lietar,{}\ \BBA{} Verloo}{Mol\ \BOthers {.}}{{\APACyear {2001}}}}
\bibcite{Olivero2002}{\citeauthoryear {Olivero\ \BBA{} Johnson}{Olivero\ \BBA{} Johnson}{{\APACyear {2002}}}}
\APACbibcite{Olivero2002}{\citeauthoryear {Olivero\ \BBA{} Johnson}{Olivero\ \BBA{} Johnson}{{\APACyear {2002}}}}
\bibcite{Pfeiffer1993}{\citeauthoryear {Pfeiffer, Lacerda, Salomons,{}\ \BBA{} Malm}{Pfeiffer\ \BOthers {.}}{{\APACyear {1993}}}}
\APACbibcite{Pfeiffer1993}{\citeauthoryear {Pfeiffer, Lacerda, Salomons,{}\ \BBA{} Malm}{Pfeiffer\ \BOthers {.}}{{\APACyear {1993}}}}
\@writefile{toc}{\contentsline {section}{References}{10}{section*.1}}
\bibcite{UNEP2013}{\citeauthoryear {{United Nations Environment Programme}}{{United Nations Environment Programme}}{{\APACyear {2013}}}}
\APACbibcite{UNEP2013}{\citeauthoryear {{United Nations Environment Programme}}{{United Nations Environment Programme}}{{\APACyear {2013}}}}
\bibcite{WHO2013}{\citeauthoryear {{World Health Organization}}{{World Health Organization}}{{\APACyear {2013}}}}
\APACbibcite{WHO2013}{\citeauthoryear {{World Health Organization}}{{World Health Organization}}{{\APACyear {2013}}}}
\@writefile{toc}{\contentsline {section}{\numberline {A}Extra Tables}{12}{appendix.A}}
\newlabel{sec:extfig}{{A}{12}{Extra Tables}{appendix.A}{}}
\@writefile{lot}{\contentsline {table}{\numberline {3}{\ignorespaces Increased mercury exposure in-utero due to Holy Week}}{12}{table.3}}
\newlabel{tab:hwreg}{{3}{12}{Increased mercury exposure in-utero due to Holy Week}{table.3}{}}
