\beamer@endinputifotherversion {3.26pt}
\beamer@sectionintoc {1}{Motivation}{2}{0}{1}
\beamer@sectionintoc {2}{Brief Literature Review}{6}{0}{2}
\beamer@sectionintoc {3}{Data and Research Design}{8}{0}{3}
\beamer@sectionintoc {4}{Preliminary Results}{13}{0}{4}
