\relax 
\providecommand\hyper@newdestlabel[2]{}
\providecommand\HyperFirstAtBeginDocument{\AtBeginDocument}
\HyperFirstAtBeginDocument{\ifx\hyper@anchor\@undefined
\global\let\oldcontentsline\contentsline
\gdef\contentsline#1#2#3#4{\oldcontentsline{#1}{#2}{#3}}
\global\let\oldnewlabel\newlabel
\gdef\newlabel#1#2{\newlabelxx{#1}#2}
\gdef\newlabelxx#1#2#3#4#5#6{\oldnewlabel{#1}{{#2}{#3}}}
\AtEndDocument{\ifx\hyper@anchor\@undefined
\let\contentsline\oldcontentsline
\let\newlabel\oldnewlabel
\fi}
\fi}
\global\let\hyper@last\relax 
\gdef\HyperFirstAtBeginDocument#1{#1}
\providecommand\HyField@AuxAddToFields[1]{}
\providecommand\HyField@AuxAddToCoFields[2]{}
\providecommand \oddpage@label [2]{}
\@writefile{toc}{\beamer@endinputifotherversion {3.33pt}}
\@writefile{nav}{\beamer@endinputifotherversion {3.33pt}}
\select@language{english}
\@writefile{toc}{\select@language{english}}
\@writefile{lof}{\select@language{english}}
\@writefile{lot}{\select@language{english}}
\@writefile{nav}{\headcommand {\slideentry {0}{0}{1}{1/1}{}{0}}}
\@writefile{nav}{\headcommand {\beamer@framepages {1}{1}}}
\@writefile{toc}{\beamer@sectionintoc {1}{Motivation and context}{2}{0}{1}}
\@writefile{nav}{\headcommand {\sectionentry {1}{Motivation and context}{2}{Motivation and context}{0}}}
\@writefile{nav}{\headcommand {\beamer@sectionpages {1}{1}}}
\@writefile{nav}{\headcommand {\beamer@subsectionpages {1}{1}}}
\@writefile{nav}{\headcommand {\slideentry {1}{0}{2}{2/2}{}{0}}}
\@writefile{nav}{\headcommand {\beamer@framepages {2}{2}}}
\newlabel{fig:evol_mineria}{{1}{3}{Motivation and context}{Doc-Start}{}}
\@writefile{snm}{\beamer@slide {fig:evol_mineria}{3}}
\@writefile{nav}{\headcommand {\slideentry {1}{0}{3}{3/3}{}{0}}}
\@writefile{nav}{\headcommand {\beamer@framepages {3}{3}}}
\citation{GUIZA2013}
\citation{Olivero2002}
\citation{Davidson2004}
\citation{Ehrenstein2009}
\@writefile{nav}{\headcommand {\slideentry {1}{0}{4}{4/4}{}{0}}}
\@writefile{nav}{\headcommand {\beamer@framepages {4}{4}}}
\@writefile{nav}{\headcommand {\slideentry {1}{0}{5}{5/5}{}{0}}}
\@writefile{nav}{\headcommand {\beamer@framepages {5}{5}}}
\@writefile{nav}{\headcommand {\slideentry {1}{0}{6}{6/6}{}{0}}}
\@writefile{nav}{\headcommand {\beamer@framepages {6}{6}}}
\@writefile{nav}{\headcommand {\slideentry {1}{0}{7}{7/7}{}{0}}}
\@writefile{nav}{\headcommand {\beamer@framepages {7}{7}}}
\@writefile{toc}{\beamer@sectionintoc {2}{Brief Literature Review}{8}{0}{2}}
\@writefile{nav}{\headcommand {\sectionentry {2}{Brief Literature Review}{8}{Brief Literature Review}{0}}}
\@writefile{nav}{\headcommand {\beamer@sectionpages {2}{7}}}
\@writefile{nav}{\headcommand {\beamer@subsectionpages {2}{7}}}
\@writefile{nav}{\headcommand {\slideentry {2}{0}{8}{8/8}{}{0}}}
\@writefile{nav}{\headcommand {\beamer@framepages {8}{8}}}
\citation{UNEP2013}
\citation{UNEP2013}
\@writefile{nav}{\headcommand {\slideentry {2}{0}{9}{9/9}{}{0}}}
\@writefile{nav}{\headcommand {\beamer@framepages {9}{9}}}
\citation{Aragon2013a}
\citation{Aragon2013}
\citation{Goltz2014}
\@writefile{nav}{\headcommand {\slideentry {2}{0}{10}{10/10}{}{0}}}
\@writefile{nav}{\headcommand {\beamer@framepages {10}{10}}}
\@writefile{toc}{\beamer@sectionintoc {3}{Data}{11}{0}{3}}
\@writefile{nav}{\headcommand {\sectionentry {3}{Data}{11}{Data}{0}}}
\@writefile{nav}{\headcommand {\beamer@sectionpages {8}{10}}}
\@writefile{nav}{\headcommand {\beamer@subsectionpages {8}{10}}}
\@writefile{nav}{\headcommand {\slideentry {3}{0}{11}{11/11}{}{0}}}
\@writefile{nav}{\headcommand {\beamer@framepages {11}{11}}}
\newlabel{dat2<1>}{{12}{12}{Data}{Doc-Start}{}}
\@writefile{snm}{\beamer@slide {dat2<1>}{12}}
\newlabel{dat2}{{12}{12}{Data}{Doc-Start}{}}
\@writefile{snm}{\beamer@slide {dat2}{12}}
\@writefile{nav}{\headcommand {\slideentry {3}{0}{12}{12/12}{}{0}}}
\@writefile{nav}{\headcommand {\beamer@framepages {12}{12}}}
\newlabel{sumstat2<1>}{{13}{13}{Data}{Doc-Start}{}}
\@writefile{snm}{\beamer@slide {sumstat2<1>}{13}}
\newlabel{sumstat2}{{13}{13}{Data}{Doc-Start}{}}
\@writefile{snm}{\beamer@slide {sumstat2}{13}}
\newlabel{tab:sumMines}{{1}{13}{Data}{Doc-Start}{}}
\@writefile{snm}{\beamer@slide {tab:sumMines}{13}}
\@writefile{nav}{\headcommand {\slideentry {3}{0}{13}{13/13}{}{0}}}
\@writefile{nav}{\headcommand {\beamer@framepages {13}{13}}}
\newlabel{fig:evol_mineria}{{2}{14}{Data}{Doc-Start}{}}
\@writefile{snm}{\beamer@slide {fig:evol_mineria}{14}}
\@writefile{nav}{\headcommand {\slideentry {3}{0}{14}{14/14}{}{0}}}
\@writefile{nav}{\headcommand {\beamer@framepages {14}{14}}}
\newlabel{dat1<1>}{{15}{15}{Data}{Doc-Start}{}}
\@writefile{snm}{\beamer@slide {dat1<1>}{15}}
\newlabel{dat1}{{15}{15}{Data}{Doc-Start}{}}
\@writefile{snm}{\beamer@slide {dat1}{15}}
\@writefile{nav}{\headcommand {\slideentry {3}{0}{15}{15/15}{}{0}}}
\@writefile{nav}{\headcommand {\beamer@framepages {15}{15}}}
\newlabel{sumstat1<1>}{{16}{16}{Data}{Doc-Start}{}}
\@writefile{snm}{\beamer@slide {sumstat1<1>}{16}}
\newlabel{sumstat1}{{16}{16}{Data}{Doc-Start}{}}
\@writefile{snm}{\beamer@slide {sumstat1}{16}}
\newlabel{tab:sumBirths}{{2}{16}{Data}{Doc-Start}{}}
\@writefile{snm}{\beamer@slide {tab:sumBirths}{16}}
\@writefile{nav}{\headcommand {\slideentry {3}{0}{16}{16/16}{}{0}}}
\@writefile{nav}{\headcommand {\beamer@framepages {16}{16}}}
\newlabel{fig:evol_apgar}{{3}{17}{Data}{Doc-Start}{}}
\@writefile{snm}{\beamer@slide {fig:evol_apgar}{17}}
\@writefile{nav}{\headcommand {\slideentry {3}{0}{17}{17/17}{}{0}}}
\@writefile{nav}{\headcommand {\beamer@framepages {17}{17}}}
\@writefile{toc}{\beamer@sectionintoc {4}{Identification Strategy and Results}{18}{0}{4}}
\@writefile{nav}{\headcommand {\sectionentry {4}{Identification Strategy and Results}{18}{Identification Strategy and Results}{0}}}
\@writefile{nav}{\headcommand {\beamer@sectionpages {11}{17}}}
\@writefile{nav}{\headcommand {\beamer@subsectionpages {11}{17}}}
\@writefile{nav}{\headcommand {\slideentry {4}{0}{18}{18/18}{}{0}}}
\@writefile{nav}{\headcommand {\beamer@framepages {18}{18}}}
\@writefile{nav}{\headcommand {\slideentry {4}{0}{19}{19/19}{}{0}}}
\@writefile{nav}{\headcommand {\beamer@framepages {19}{19}}}
\@writefile{nav}{\headcommand {\slideentry {4}{0}{20}{20/20}{}{0}}}
\@writefile{nav}{\headcommand {\beamer@framepages {20}{20}}}
\newlabel{tab:regIndividualMeasure}{{3}{21}{Identification Strategy and Results}{Doc-Start}{}}
\@writefile{snm}{\beamer@slide {tab:regIndividualMeasure}{21}}
\@writefile{nav}{\headcommand {\slideentry {4}{0}{21}{21/21}{}{0}}}
\@writefile{nav}{\headcommand {\beamer@framepages {21}{21}}}
\@writefile{nav}{\headcommand {\slideentry {4}{0}{22}{22/22}{}{0}}}
\@writefile{nav}{\headcommand {\beamer@framepages {22}{22}}}
\newlabel{tab:dummies}{{4}{23}{Identification Strategy and Results}{Doc-Start}{}}
\@writefile{snm}{\beamer@slide {tab:dummies}{23}}
\@writefile{nav}{\headcommand {\slideentry {4}{0}{23}{23/23}{}{0}}}
\@writefile{nav}{\headcommand {\beamer@framepages {23}{23}}}
\@writefile{nav}{\headcommand {\slideentry {4}{0}{24}{24/24}{}{0}}}
\@writefile{nav}{\headcommand {\beamer@framepages {24}{24}}}
\newlabel{fig:1}{{4}{25}{Identification Strategy and Results}{Doc-Start}{}}
\@writefile{snm}{\beamer@slide {fig:1}{25}}
\@writefile{nav}{\headcommand {\slideentry {4}{0}{25}{25/25}{}{0}}}
\@writefile{nav}{\headcommand {\beamer@framepages {25}{25}}}
\@writefile{nav}{\headcommand {\slideentry {4}{0}{26}{26/26}{}{0}}}
\@writefile{nav}{\headcommand {\beamer@framepages {26}{26}}}
\newlabel{tab:regIndividualMeasure}{{5}{27}{Identification Strategy and Results}{Doc-Start}{}}
\@writefile{snm}{\beamer@slide {tab:regIndividualMeasure}{27}}
\@writefile{nav}{\headcommand {\slideentry {4}{0}{27}{27/27}{}{0}}}
\@writefile{nav}{\headcommand {\beamer@framepages {27}{27}}}
\newlabel{tab:dummies}{{6}{28}{Identification Strategy and Results}{Doc-Start}{}}
\@writefile{snm}{\beamer@slide {tab:dummies}{28}}
\@writefile{nav}{\headcommand {\slideentry {4}{0}{28}{28/28}{}{0}}}
\@writefile{nav}{\headcommand {\beamer@framepages {28}{28}}}
\citation{ElColombiano2014}
\@writefile{nav}{\headcommand {\slideentry {4}{0}{29}{29/29}{}{0}}}
\@writefile{nav}{\headcommand {\beamer@framepages {29}{29}}}
\@writefile{snm}{\beamer@slide {eq:regHW}{30}}
\@writefile{nav}{\headcommand {\slideentry {4}{0}{30}{30/30}{}{0}}}
\@writefile{nav}{\headcommand {\beamer@framepages {30}{30}}}
\@writefile{nav}{\headcommand {\slideentry {4}{0}{31}{31/31}{}{0}}}
\@writefile{nav}{\headcommand {\beamer@framepages {31}{31}}}
\@writefile{nav}{\headcommand {\slideentry {4}{0}{32}{32/32}{}{0}}}
\@writefile{nav}{\headcommand {\beamer@framepages {32}{32}}}
\@writefile{nav}{\headcommand {\slideentry {4}{0}{33}{33/33}{}{0}}}
\@writefile{nav}{\headcommand {\beamer@framepages {33}{33}}}
\@writefile{nav}{\headcommand {\slideentry {4}{0}{34}{34/34}{}{0}}}
\@writefile{nav}{\headcommand {\beamer@framepages {34}{34}}}
\citation{Ministerio2012}
\newlabel{ilegal<1>}{{35}{35}{Identification Strategy and Results}{Doc-Start}{}}
\@writefile{snm}{\beamer@slide {ilegal<1>}{35}}
\newlabel{ilegal}{{35}{35}{Identification Strategy and Results}{Doc-Start}{}}
\@writefile{snm}{\beamer@slide {ilegal}{35}}
\@writefile{nav}{\headcommand {\slideentry {4}{0}{35}{35/35}{}{0}}}
\@writefile{nav}{\headcommand {\beamer@framepages {35}{35}}}
\newlabel{tab:illegalmeassure}{{7}{36}{Identification Strategy and Results}{Doc-Start}{}}
\@writefile{snm}{\beamer@slide {tab:illegalmeassure}{36}}
\@writefile{nav}{\headcommand {\slideentry {4}{0}{36}{36/36}{}{0}}}
\@writefile{nav}{\headcommand {\beamer@framepages {36}{36}}}
\newlabel{migration<1>}{{37}{37}{Identification Strategy and Results}{Doc-Start}{}}
\@writefile{snm}{\beamer@slide {migration<1>}{37}}
\newlabel{migration}{{37}{37}{Identification Strategy and Results}{Doc-Start}{}}
\@writefile{snm}{\beamer@slide {migration}{37}}
\newlabel{tab:birth_measure}{{8}{37}{Identification Strategy and Results}{Doc-Start}{}}
\@writefile{snm}{\beamer@slide {tab:birth_measure}{37}}
\@writefile{nav}{\headcommand {\slideentry {4}{0}{37}{37/37}{}{0}}}
\@writefile{nav}{\headcommand {\beamer@framepages {37}{37}}}
\newlabel{tab:birth_dummies}{{9}{38}{Identification Strategy and Results}{Doc-Start}{}}
\@writefile{snm}{\beamer@slide {tab:birth_dummies}{38}}
\@writefile{nav}{\headcommand {\slideentry {4}{0}{38}{38/38}{}{0}}}
\@writefile{nav}{\headcommand {\beamer@framepages {38}{38}}}
\newlabel{poison<1>}{{39}{39}{Identification Strategy and Results}{Doc-Start}{}}
\@writefile{snm}{\beamer@slide {poison<1>}{39}}
\newlabel{poison}{{39}{39}{Identification Strategy and Results}{Doc-Start}{}}
\@writefile{snm}{\beamer@slide {poison}{39}}
\newlabel{tab:salud_measure}{{10}{39}{Identification Strategy and Results}{Doc-Start}{}}
\@writefile{snm}{\beamer@slide {tab:salud_measure}{39}}
\@writefile{nav}{\headcommand {\slideentry {4}{0}{39}{39/39}{}{0}}}
\@writefile{nav}{\headcommand {\beamer@framepages {39}{39}}}
\bibstyle{apacite}
\bibdata{bibmin}
\bibcite{Aragon2013a}{\citeauthoryear {Aragon\ \BBA{} Rud}{Aragon\ \BBA{} Rud}{{\APACyear {2013}}{\APACexlab {{\BCnt {1}}}}}}
\APACbibcite{Aragon2013a}{\citeauthoryear {Aragon\ \BBA{} Rud}{Aragon\ \BBA{} Rud}{{\APACyear {2013}}{\APACexlab {{\BCnt {1}}}}}}
\bibcite{Aragon2013}{\citeauthoryear {Aragon\ \BBA{} Rud}{Aragon\ \BBA{} Rud}{{\APACyear {2013}}{\APACexlab {{\BCnt {2}}}}}}
\APACbibcite{Aragon2013}{\citeauthoryear {Aragon\ \BBA{} Rud}{Aragon\ \BBA{} Rud}{{\APACyear {2013}}{\APACexlab {{\BCnt {2}}}}}}
\bibcite{Davidson2004}{\citeauthoryear {Davidson, Myers,{}\ \BBA{} Weiss}{Davidson\ \BOthers {.}}{{\APACyear {2004}}}}
\APACbibcite{Davidson2004}{\citeauthoryear {Davidson, Myers,{}\ \BBA{} Weiss}{Davidson\ \BOthers {.}}{{\APACyear {2004}}}}
\bibcite{Ehrenstein2009}{\citeauthoryear {Ehrenstein\ \BOthers {.}}{Ehrenstein\ \BOthers {.}}{{\APACyear {2009}}}}
\APACbibcite{Ehrenstein2009}{\citeauthoryear {Ehrenstein\ \BOthers {.}}{Ehrenstein\ \BOthers {.}}{{\APACyear {2009}}}}
\bibcite{ElColombiano2014}{\citeauthoryear {{El Colombiano}}{{El Colombiano}}{{\APACyear {2014}}}}
\APACbibcite{ElColombiano2014}{\citeauthoryear {{El Colombiano}}{{El Colombiano}}{{\APACyear {2014}}}}
\bibcite{GUIZA2013}{\citeauthoryear {Guiza\ \BBA{} Aristizabal}{Guiza\ \BBA{} Aristizabal}{{\APACyear {2013}}}}
\APACbibcite{GUIZA2013}{\citeauthoryear {Guiza\ \BBA{} Aristizabal}{Guiza\ \BBA{} Aristizabal}{{\APACyear {2013}}}}
\bibcite{Ministerio2012}{\citeauthoryear {{Ministerio de Minas y Energia}}{{Ministerio de Minas y Energia}}{{\APACyear {2012}}}}
\APACbibcite{Ministerio2012}{\citeauthoryear {{Ministerio de Minas y Energia}}{{Ministerio de Minas y Energia}}{{\APACyear {2012}}}}
\bibcite{Olivero2002}{\citeauthoryear {Olivero\ \BBA{} Johnson}{Olivero\ \BBA{} Johnson}{{\APACyear {2002}}}}
\APACbibcite{Olivero2002}{\citeauthoryear {Olivero\ \BBA{} Johnson}{Olivero\ \BBA{} Johnson}{{\APACyear {2002}}}}
\bibcite{UNEP2013}{\citeauthoryear {UNEP}{UNEP}{{\APACyear {2013}}}}
\APACbibcite{UNEP2013}{\citeauthoryear {UNEP}{UNEP}{{\APACyear {2013}}}}
\bibcite{Goltz2014}{\citeauthoryear {von~der Goltz\ \BBA{} Barnwal}{von~der Goltz\ \BBA{} Barnwal}{{\APACyear {2014}}}}
\APACbibcite{Goltz2014}{\citeauthoryear {von~der Goltz\ \BBA{} Barnwal}{von~der Goltz\ \BBA{} Barnwal}{{\APACyear {2014}}}}
\@writefile{nav}{\headcommand {\sectionentry {5}{}{40}{}{0}}}
\@writefile{nav}{\headcommand {\beamer@sectionpages {18}{39}}}
\@writefile{nav}{\headcommand {\beamer@subsectionpages {18}{39}}}
\@writefile{toc}{\contentsline {section}{}}
\@writefile{nav}{\headcommand {\slideentry {5}{0}{40}{40/40}{}{0}}}
\@writefile{nav}{\headcommand {\beamer@framepages {40}{40}}}
\@writefile{nav}{\headcommand {\slideentry {5}{0}{40}{40/41}{}{0}}}
\@writefile{nav}{\headcommand {\beamer@framepages {40}{41}}}
\@writefile{nav}{\headcommand {\slideentry {5}{0}{40}{40/42}{}{0}}}
\@writefile{nav}{\headcommand {\beamer@framepages {40}{42}}}
\@writefile{nav}{\headcommand {\slideentry {5}{0}{40}{40/43}{}{0}}}
\@writefile{nav}{\headcommand {\beamer@framepages {40}{43}}}
\@writefile{nav}{\headcommand {\beamer@partpages {1}{43}}}
\@writefile{nav}{\headcommand {\beamer@subsectionpages {18}{43}}}
\@writefile{nav}{\headcommand {\beamer@sectionpages {18}{43}}}
\@writefile{nav}{\headcommand {\beamer@documentpages {43}}}
\@writefile{nav}{\headcommand {\def \inserttotalframenumber {43}}}
