This is BibTeX, Version 0.99dThe top-level auxiliary file: SEEPAC_112014.aux
The style file: apacite.bst
Database file #1: bibmin.bib
apacite.bst [2012/02/25 v6.01 APA bibliography style]
Warning--No institution in Ministerio2012
Warning--No address in Ministerio2012
(There were 2 warnings)
