\relax 
\providecommand\hyper@newdestlabel[2]{}
\providecommand\HyperFirstAtBeginDocument{\AtBeginDocument}
\HyperFirstAtBeginDocument{\ifx\hyper@anchor\@undefined
\global\let\oldcontentsline\contentsline
\gdef\contentsline#1#2#3#4{\oldcontentsline{#1}{#2}{#3}}
\global\let\oldnewlabel\newlabel
\gdef\newlabel#1#2{\newlabelxx{#1}#2}
\gdef\newlabelxx#1#2#3#4#5#6{\oldnewlabel{#1}{{#2}{#3}}}
\AtEndDocument{\ifx\hyper@anchor\@undefined
\let\contentsline\oldcontentsline
\let\newlabel\oldnewlabel
\fi}
\fi}
\global\let\hyper@last\relax 
\gdef\HyperFirstAtBeginDocument#1{#1}
\providecommand\HyField@AuxAddToFields[1]{}
\providecommand\HyField@AuxAddToCoFields[2]{}
\citation{McMahon2014}
\citation{Carson2010}
\citation{Harbaugh2002}
\citation{Almond2006}
\citation{Bharadwaj2013}
\citation{Almond2011}
\citation{Black2007}
\citation{Almond2005}
\citation{McMahon2001}
\citation{Aragon2013a}
\citation{Aragon2013}
\citation{Goltz2014}
\citation{Goltz2014}
\select@language{english}
\@writefile{toc}{\select@language{english}}
\@writefile{lof}{\select@language{english}}
\@writefile{lot}{\select@language{english}}
\@writefile{toc}{\contentsline {section}{\numberline {1}Introduction}{1}{section.1}}
\citation{Swenson2011}
\citation{Hilson2002}
\citation{Fernandez-Navarro2012}
\citation{Attfield2008}
\citation{Chakraborti2013}
\citation{Aragon2013a}
\citation{Aragon2013}
\citation{Goltz2014}
\citation{Goltz2014}
\@writefile{toc}{\contentsline {section}{\numberline {2}Literature review}{3}{section.2}}
\newlabel{sec:rev}{{2}{3}{Literature review}{section.2}{}}
\citation{Mol2001}
\citation{Pfeiffer1993}
\citation{Veiga1997}
\citation{GUIZA2013}
\citation{Pfeiffer1988}
\citation{Morel1998}
\citation{Mol2001}
\citation{Haganetal}
\citation{GUIZA2013}
\citation{Olivero2002}
\citation{UNEP2013}
\@writefile{toc}{\contentsline {subsection}{\numberline {2.1}Mercury and amalgamation in gold mining}{4}{subsection.2.1}}
\citation{Davidson2004}
\citation{Davidson2004}
\citation{Mergler2007}
\citation{Davidson2004}
\citation{Counter2004}
\citation{Clarkson2003}
\citation{Minas2011}
\@writefile{toc}{\contentsline {subsection}{\numberline {2.2}Health effects of mercury}{5}{subsection.2.2}}
\@writefile{toc}{\contentsline {section}{\numberline {3}Colombian context and data}{5}{section.3}}
\citation{PGN2011}
\@writefile{toc}{\contentsline {subsection}{\numberline {3.1}Data on mining activity}{6}{subsection.3.1}}
\newlabel{sec:miningdata}{{3.1}{6}{Data on mining activity}{subsection.3.1}{}}
\citation{Ministerio2012}
\citation{Cordy2011}
\citation{World2009}
\citation{Montgomery2000}
\citation{Davidson2004}
\citation{Almond2005}
\citation{WHO2006}
\@writefile{lof}{\contentsline {figure}{\numberline {1}{\ignorespaces }}{7}{figure.1}}
\newlabel{fig:evol_mineria}{{1}{7}{}{figure.1}{}}
\@writefile{toc}{\contentsline {subsection}{\numberline {3.2}Data on newborns}{7}{subsection.3.2}}
\@writefile{lot}{\contentsline {table}{\numberline {1}{\ignorespaces Summary statistics for births}}{8}{table.1}}
\newlabel{tab:sumBirths}{{1}{8}{Summary statistics for births}{table.1}{}}
\@writefile{toc}{\contentsline {section}{\numberline {4}Identification strategies}{8}{section.4}}
\newlabel{sec:meth}{{4}{8}{Identification strategies}{section.4}{}}
\@writefile{toc}{\contentsline {subsection}{\numberline {4.1}Main specification}{8}{subsection.4.1}}
\citation{Simeonova}
\@writefile{lof}{\contentsline {figure}{\numberline {2}{\ignorespaces }}{9}{figure.2}}
\newlabel{fig:evol_apgar}{{2}{9}{}{figure.2}{}}
\newlabel{eq:reg1}{{1}{9}{Main specification}{equation.4.1}{}}
\citation{OReily}
\@writefile{toc}{\contentsline {subsection}{\numberline {4.2}Constructing river pollution exposure and proximity exposure}{10}{subsection.4.2}}
\newlabel{sec:upstream_exp}{{4.2}{10}{Constructing river pollution exposure and proximity exposure}{subsection.4.2}{}}
\@writefile{lof}{\contentsline {figure}{\numberline {3}{\ignorespaces }}{11}{figure.3}}
\newlabel{fig:1}{{3}{11}{}{figure.3}{}}
\@writefile{lof}{\contentsline {figure}{\numberline {4}{\ignorespaces }}{12}{figure.4}}
\citation{ElColombiano2014}
\newlabel{eq:reg2}{{2}{13}{Constructing river pollution exposure and proximity exposure}{equation.4.2}{}}
\@writefile{toc}{\contentsline {subsection}{\numberline {4.3}Holy Week}{13}{subsection.4.3}}
\newlabel{sec:HW}{{4.3}{13}{Holy Week}{subsection.4.3}{}}
\newlabel{eq:regHW3d}{{3}{13}{Holy Week}{equation.4.3}{}}
\citation{Goltz2014}
\citation{Santos2014}
\@writefile{toc}{\contentsline {subsection}{\numberline {4.4}Using dummy indicators of mining}{14}{subsection.4.4}}
\@writefile{toc}{\contentsline {section}{\numberline {5}Results}{14}{section.5}}
\newlabel{sec:results}{{5}{14}{Results}{section.5}{}}
\@writefile{toc}{\contentsline {subsection}{\numberline {5.1}Net effect of gold mining on the health of newborns}{14}{subsection.5.1}}
\@writefile{toc}{\contentsline {subsection}{\numberline {5.2}Impacts of different levels of mining}{15}{subsection.5.2}}
\newlabel{eq:regdeciles}{{4}{15}{Impacts of different levels of mining}{equation.5.4}{}}
\@writefile{toc}{\contentsline {subsection}{\numberline {5.3}River exposure}{15}{subsection.5.3}}
\@writefile{lot}{\contentsline {table}{\numberline {2}{\ignorespaces Net effect of mining on APGAR, for different measurements of mining}}{16}{table.2}}
\newlabel{tab:regIndividualMeasure}{{2}{16}{Net effect of mining on APGAR, for different measurements of mining}{table.2}{}}
\@writefile{lof}{\contentsline {figure}{\numberline {5}{\ignorespaces }}{17}{figure.5}}
\newlabel{fig:deciles}{{5}{17}{}{figure.5}{}}
\citation{Black2013}
\@writefile{lot}{\contentsline {table}{\numberline {3}{\ignorespaces Effect of proximity and river pollution exposure to gold mining}}{18}{table.3}}
\newlabel{tab:regIndividualExpsoure}{{3}{18}{Effect of proximity and river pollution exposure to gold mining}{table.3}{}}
\citation{WHO2006}
\@writefile{toc}{\contentsline {subsection}{\numberline {5.4}Holy Week}{19}{subsection.5.4}}
\@writefile{toc}{\contentsline {section}{\numberline {6}Robustness checks}{19}{section.6}}
\@writefile{toc}{\contentsline {subsection}{\numberline {6.1}Price of gold}{19}{subsection.6.1}}
\@writefile{toc}{\contentsline {subsection}{\numberline {6.2}Other newborn outcomes}{19}{subsection.6.2}}
\@writefile{lot}{\contentsline {table}{\numberline {4}{\ignorespaces Increased mercury exposure in-utero due to Holy Week}}{20}{table.4}}
\newlabel{tab:hwreg}{{4}{20}{Increased mercury exposure in-utero due to Holy Week}{table.4}{}}
\@writefile{lot}{\contentsline {table}{\numberline {5}{\ignorespaces Net effect of mining on APGAR scores for different measures of mining interacted with gold price}}{21}{table.5}}
\newlabel{tab:regprice}{{5}{21}{Net effect of mining on APGAR scores for different measures of mining interacted with gold price}{table.5}{}}
\@writefile{toc}{\contentsline {subsection}{\numberline {6.3}Migration}{22}{subsection.6.3}}
\newlabel{eq:reg_nb}{{5}{22}{Migration}{equation.6.5}{}}
\@writefile{toc}{\contentsline {subsection}{\numberline {6.4}Illegal mining}{22}{subsection.6.4}}
\@writefile{toc}{\contentsline {section}{\numberline {7}Conclusions and future work}{22}{section.7}}
\newlabel{sec:conc}{{7}{22}{Conclusions and future work}{section.7}{}}
\@writefile{lot}{\contentsline {table}{\numberline {6}{\ignorespaces Net effect of mining on different newborn outcomes}}{23}{table.6}}
\newlabel{tab:reglbwhz}{{6}{23}{Net effect of mining on different newborn outcomes}{table.6}{}}
\@writefile{lot}{\contentsline {table}{\numberline {7}{\ignorespaces Effect of mining on fertility}}{24}{table.7}}
\newlabel{tab:birth_measure}{{7}{24}{Effect of mining on fertility}{table.7}{}}
\@writefile{lot}{\contentsline {table}{\numberline {8}{\ignorespaces Effect of mining on birth outcomes by illegal mining}}{25}{table.8}}
\newlabel{tab:illegalmeassure}{{8}{25}{Effect of mining on birth outcomes by illegal mining}{table.8}{}}
\bibstyle{apacite}
\bibdata{bibmin}
\bibcite{Almond2006}{\citeauthoryear {Almond}{Almond}{{\APACyear {2006}}}}
\APACbibcite{Almond2006}{\citeauthoryear {Almond}{Almond}{{\APACyear {2006}}}}
\bibcite{Almond2005}{\citeauthoryear {Almond, Chay,{}\ \BBA{} Lee}{Almond\ \BOthers {.}}{{\APACyear {2005}}}}
\APACbibcite{Almond2005}{\citeauthoryear {Almond, Chay,{}\ \BBA{} Lee}{Almond\ \BOthers {.}}{{\APACyear {2005}}}}
\bibcite{Almond2011}{\citeauthoryear {Almond\ \BBA{} Mazumder}{Almond\ \BBA{} Mazumder}{{\APACyear {2011}}}}
\APACbibcite{Almond2011}{\citeauthoryear {Almond\ \BBA{} Mazumder}{Almond\ \BBA{} Mazumder}{{\APACyear {2011}}}}
\bibcite{Aragon2013a}{\citeauthoryear {Aragon\ \BBA{} Rud}{Aragon\ \BBA{} Rud}{{\APACyear {2013}}{\APACexlab {{\BCnt {1}}}}}}
\APACbibcite{Aragon2013a}{\citeauthoryear {Aragon\ \BBA{} Rud}{Aragon\ \BBA{} Rud}{{\APACyear {2013}}{\APACexlab {{\BCnt {1}}}}}}
\bibcite{Aragon2013}{\citeauthoryear {Aragon\ \BBA{} Rud}{Aragon\ \BBA{} Rud}{{\APACyear {2013}}{\APACexlab {{\BCnt {2}}}}}}
\APACbibcite{Aragon2013}{\citeauthoryear {Aragon\ \BBA{} Rud}{Aragon\ \BBA{} Rud}{{\APACyear {2013}}{\APACexlab {{\BCnt {2}}}}}}
\@writefile{toc}{\contentsline {section}{References}{26}{section*.1}}
\bibcite{Attfield2008}{\citeauthoryear {Attfield\ \BBA{} Kuempel}{Attfield\ \BBA{} Kuempel}{{\APACyear {2008}}}}
\APACbibcite{Attfield2008}{\citeauthoryear {Attfield\ \BBA{} Kuempel}{Attfield\ \BBA{} Kuempel}{{\APACyear {2008}}}}
\bibcite{Bharadwaj2013}{\citeauthoryear {Bharadwaj, L{\o }ken,{}\ \BBA{} Neilson}{Bharadwaj\ \BOthers {.}}{{\APACyear {2013}}}}
\APACbibcite{Bharadwaj2013}{\citeauthoryear {Bharadwaj, L{\o }ken,{}\ \BBA{} Neilson}{Bharadwaj\ \BOthers {.}}{{\APACyear {2013}}}}
\bibcite{Black2013}{\citeauthoryear {Black, B\"{u}tikofer, Devereux,{}\ \BBA{} Salvanes}{Black\ \BOthers {.}}{{\APACyear {2013}}}}
\APACbibcite{Black2013}{\citeauthoryear {Black, B\"{u}tikofer, Devereux,{}\ \BBA{} Salvanes}{Black\ \BOthers {.}}{{\APACyear {2013}}}}
\bibcite{Black2007}{\citeauthoryear {Black, Devereux,{}\ \BBA{} Salvanes}{Black\ \BOthers {.}}{{\APACyear {2007}}}}
\APACbibcite{Black2007}{\citeauthoryear {Black, Devereux,{}\ \BBA{} Salvanes}{Black\ \BOthers {.}}{{\APACyear {2007}}}}
\bibcite{OReily}{\citeauthoryear {Bose-O'Reilly}{Bose-O'Reilly}{{\APACyear {2010}}}}
\APACbibcite{OReily}{\citeauthoryear {Bose-O'Reilly}{Bose-O'Reilly}{{\APACyear {2010}}}}
\bibcite{Carson2010}{\citeauthoryear {Carson}{Carson}{{\APACyear {2010}}}}
\APACbibcite{Carson2010}{\citeauthoryear {Carson}{Carson}{{\APACyear {2010}}}}
\bibcite{Chakraborti2013}{\citeauthoryear {Chakraborti\ \BOthers {.}}{Chakraborti\ \BOthers {.}}{{\APACyear {2013}}}}
\APACbibcite{Chakraborti2013}{\citeauthoryear {Chakraborti\ \BOthers {.}}{Chakraborti\ \BOthers {.}}{{\APACyear {2013}}}}
\bibcite{Clarkson2003}{\citeauthoryear {Clarkson, Magos,{}\ \BBA{} Myers}{Clarkson\ \BOthers {.}}{{\APACyear {2003}}}}
\APACbibcite{Clarkson2003}{\citeauthoryear {Clarkson, Magos,{}\ \BBA{} Myers}{Clarkson\ \BOthers {.}}{{\APACyear {2003}}}}
\bibcite{Cordy2011}{\citeauthoryear {Cordy\ \BOthers {.}}{Cordy\ \BOthers {.}}{{\APACyear {2011}}}}
\APACbibcite{Cordy2011}{\citeauthoryear {Cordy\ \BOthers {.}}{Cordy\ \BOthers {.}}{{\APACyear {2011}}}}
\bibcite{Counter2004}{\citeauthoryear {Counter\ \BBA{} Buchanan}{Counter\ \BBA{} Buchanan}{{\APACyear {2004}}}}
\APACbibcite{Counter2004}{\citeauthoryear {Counter\ \BBA{} Buchanan}{Counter\ \BBA{} Buchanan}{{\APACyear {2004}}}}
\bibcite{Veiga1997}{\citeauthoryear {da Veiga}{da Veiga}{{\APACyear {1997}}}}
\APACbibcite{Veiga1997}{\citeauthoryear {da Veiga}{da Veiga}{{\APACyear {1997}}}}
\bibcite{Davidson2004}{\citeauthoryear {Davidson, Myers,{}\ \BBA{} Weiss}{Davidson\ \BOthers {.}}{{\APACyear {2004}}}}
\APACbibcite{Davidson2004}{\citeauthoryear {Davidson, Myers,{}\ \BBA{} Weiss}{Davidson\ \BOthers {.}}{{\APACyear {2004}}}}
\bibcite{ElColombiano2014}{\citeauthoryear {{El Colombiano}}{{El Colombiano}}{{\APACyear {2014}}}}
\APACbibcite{ElColombiano2014}{\citeauthoryear {{El Colombiano}}{{El Colombiano}}{{\APACyear {2014}}}}
\bibcite{Fernandez-Navarro2012}{\citeauthoryear {Fernandez-Navarro, Garcia-Perez, Ramis, Boldo,{}\ \BBA{} Lopez-Abente}{Fernandez-Navarro\ \BOthers {.}}{{\APACyear {2012}}}}
\APACbibcite{Fernandez-Navarro2012}{\citeauthoryear {Fernandez-Navarro, Garcia-Perez, Ramis, Boldo,{}\ \BBA{} Lopez-Abente}{Fernandez-Navarro\ \BOthers {.}}{{\APACyear {2012}}}}
\bibcite{GUIZA2013}{\citeauthoryear {Guiza\ \BBA{} Aristizabal}{Guiza\ \BBA{} Aristizabal}{{\APACyear {2013}}}}
\APACbibcite{GUIZA2013}{\citeauthoryear {Guiza\ \BBA{} Aristizabal}{Guiza\ \BBA{} Aristizabal}{{\APACyear {2013}}}}
\bibcite{Haganetal}{\citeauthoryear {Hagan\ \BOthers {.}}{Hagan\ \BOthers {.}}{{\APACyear {2014}}}}
\APACbibcite{Haganetal}{\citeauthoryear {Hagan\ \BOthers {.}}{Hagan\ \BOthers {.}}{{\APACyear {2014}}}}
\bibcite{Harbaugh2002}{\citeauthoryear {Harbaugh, Levinson,{}\ \BBA{} Wilson}{Harbaugh\ \BOthers {.}}{{\APACyear {2002}}}}
\APACbibcite{Harbaugh2002}{\citeauthoryear {Harbaugh, Levinson,{}\ \BBA{} Wilson}{Harbaugh\ \BOthers {.}}{{\APACyear {2002}}}}
\bibcite{Hilson2002}{\citeauthoryear {Hilson}{Hilson}{{\APACyear {2002}}}}
\APACbibcite{Hilson2002}{\citeauthoryear {Hilson}{Hilson}{{\APACyear {2002}}}}
\bibcite{McMahon2014}{\citeauthoryear {McMahon\ \BBA{} Moreira}{McMahon\ \BBA{} Moreira}{{\APACyear {2014}}}}
\APACbibcite{McMahon2014}{\citeauthoryear {McMahon\ \BBA{} Moreira}{McMahon\ \BBA{} Moreira}{{\APACyear {2014}}}}
\bibcite{McMahon2001}{\citeauthoryear {McMahon\ \BBA{} Remy}{McMahon\ \BBA{} Remy}{{\APACyear {2001}}}}
\APACbibcite{McMahon2001}{\citeauthoryear {McMahon\ \BBA{} Remy}{McMahon\ \BBA{} Remy}{{\APACyear {2001}}}}
\bibcite{Mergler2007}{\citeauthoryear {Mergler\ \BOthers {.}}{Mergler\ \BOthers {.}}{{\APACyear {2007}}}}
\APACbibcite{Mergler2007}{\citeauthoryear {Mergler\ \BOthers {.}}{Mergler\ \BOthers {.}}{{\APACyear {2007}}}}
\bibcite{Minas2011}{\citeauthoryear {{Ministerio de Minas y Energia}}{{Ministerio de Minas y Energia}}{{\APACyear {2011}}}}
\APACbibcite{Minas2011}{\citeauthoryear {{Ministerio de Minas y Energia}}{{Ministerio de Minas y Energia}}{{\APACyear {2011}}}}
\bibcite{Ministerio2012}{\citeauthoryear {{Ministerio de Minas y Energia}}{{Ministerio de Minas y Energia}}{{\APACyear {2012}}}}
\APACbibcite{Ministerio2012}{\citeauthoryear {{Ministerio de Minas y Energia}}{{Ministerio de Minas y Energia}}{{\APACyear {2012}}}}
\bibcite{Mol2001}{\citeauthoryear {Mol, Ramlal, Lietar,{}\ \BBA{} Verloo}{Mol\ \BOthers {.}}{{\APACyear {2001}}}}
\APACbibcite{Mol2001}{\citeauthoryear {Mol, Ramlal, Lietar,{}\ \BBA{} Verloo}{Mol\ \BOthers {.}}{{\APACyear {2001}}}}
\bibcite{Montgomery2000}{\citeauthoryear {Montgomery}{Montgomery}{{\APACyear {2000}}}}
\APACbibcite{Montgomery2000}{\citeauthoryear {Montgomery}{Montgomery}{{\APACyear {2000}}}}
\bibcite{Morel1998}{\citeauthoryear {Morel, Kraepiel,{}\ \BBA{} Amyot}{Morel\ \BOthers {.}}{{\APACyear {1998}}}}
\APACbibcite{Morel1998}{\citeauthoryear {Morel, Kraepiel,{}\ \BBA{} Amyot}{Morel\ \BOthers {.}}{{\APACyear {1998}}}}
\bibcite{Olivero2002}{\citeauthoryear {Olivero\ \BBA{} Johnson}{Olivero\ \BBA{} Johnson}{{\APACyear {2002}}}}
\APACbibcite{Olivero2002}{\citeauthoryear {Olivero\ \BBA{} Johnson}{Olivero\ \BBA{} Johnson}{{\APACyear {2002}}}}
\bibcite{Pfeiffer1988}{\citeauthoryear {Pfeiffer\ \BBA{} de Lacerda}{Pfeiffer\ \BBA{} de Lacerda}{{\APACyear {1988}}}}
\APACbibcite{Pfeiffer1988}{\citeauthoryear {Pfeiffer\ \BBA{} de Lacerda}{Pfeiffer\ \BBA{} de Lacerda}{{\APACyear {1988}}}}
\bibcite{Pfeiffer1993}{\citeauthoryear {Pfeiffer, Lacerda, Salomons,{}\ \BBA{} Malm}{Pfeiffer\ \BOthers {.}}{{\APACyear {1993}}}}
\APACbibcite{Pfeiffer1993}{\citeauthoryear {Pfeiffer, Lacerda, Salomons,{}\ \BBA{} Malm}{Pfeiffer\ \BOthers {.}}{{\APACyear {1993}}}}
\bibcite{PGN2011}{\citeauthoryear {{Procuradoria General de la Nacion}}{{Procuradoria General de la Nacion}}{{\APACyear {2011}}}}
\APACbibcite{PGN2011}{\citeauthoryear {{Procuradoria General de la Nacion}}{{Procuradoria General de la Nacion}}{{\APACyear {2011}}}}
\bibcite{Santos2014}{\citeauthoryear {Santos}{Santos}{{\APACyear {2014}}}}
\APACbibcite{Santos2014}{\citeauthoryear {Santos}{Santos}{{\APACyear {2014}}}}
\bibcite{Simeonova}{\citeauthoryear {Simeonova}{Simeonova}{{\APACyear {2011}}}}
\APACbibcite{Simeonova}{\citeauthoryear {Simeonova}{Simeonova}{{\APACyear {2011}}}}
\bibcite{Swenson2011}{\citeauthoryear {Swenson, Carter, Domec,{}\ \BBA{} Delgado}{Swenson\ \BOthers {.}}{{\APACyear {2011}}}}
\APACbibcite{Swenson2011}{\citeauthoryear {Swenson, Carter, Domec,{}\ \BBA{} Delgado}{Swenson\ \BOthers {.}}{{\APACyear {2011}}}}
\bibcite{UNEP2013}{\citeauthoryear {UNEP}{UNEP}{{\APACyear {2013}}}}
\APACbibcite{UNEP2013}{\citeauthoryear {UNEP}{UNEP}{{\APACyear {2013}}}}
\bibcite{Goltz2014}{\citeauthoryear {von~der Goltz\ \BBA{} Barnwal}{von~der Goltz\ \BBA{} Barnwal}{{\APACyear {2014}}}}
\APACbibcite{Goltz2014}{\citeauthoryear {von~der Goltz\ \BBA{} Barnwal}{von~der Goltz\ \BBA{} Barnwal}{{\APACyear {2014}}}}
\bibcite{WHO2006}{\citeauthoryear {WHO}{WHO}{{\APACyear {2006}}}}
\APACbibcite{WHO2006}{\citeauthoryear {WHO}{WHO}{{\APACyear {2006}}}}
\bibcite{World2009}{\citeauthoryear {{World Bank}}{{World Bank}}{{\APACyear {2009}}}}
\APACbibcite{World2009}{\citeauthoryear {{World Bank}}{{World Bank}}{{\APACyear {2009}}}}
\@writefile{toc}{\contentsline {section}{\numberline {A}Extra Tables}{29}{appendix.A}}
\newlabel{sec:exttab}{{A}{29}{Extra Tables}{appendix.A}{}}
\@writefile{lof}{\contentsline {figure}{\numberline {6}{\ignorespaces }}{30}{figure.6}}
\newlabel{fig:evolSalud}{{6}{30}{}{figure.6}{}}
\@writefile{lot}{\contentsline {table}{\numberline {9}{\ignorespaces Summary statistics for mine permits}}{30}{table.9}}
\newlabel{tab:sumMines}{{9}{30}{Summary statistics for mine permits}{table.9}{}}
