\relax 
\providecommand\hyper@newdestlabel[2]{}
\providecommand\HyperFirstAtBeginDocument{\AtBeginDocument}
\HyperFirstAtBeginDocument{\ifx\hyper@anchor\@undefined
\global\let\oldcontentsline\contentsline
\gdef\contentsline#1#2#3#4{\oldcontentsline{#1}{#2}{#3}}
\global\let\oldnewlabel\newlabel
\gdef\newlabel#1#2{\newlabelxx{#1}#2}
\gdef\newlabelxx#1#2#3#4#5#6{\oldnewlabel{#1}{{#2}{#3}}}
\AtEndDocument{\ifx\hyper@anchor\@undefined
\let\contentsline\oldcontentsline
\let\newlabel\oldnewlabel
\fi}
\fi}
\global\let\hyper@last\relax 
\gdef\HyperFirstAtBeginDocument#1{#1}
\providecommand\HyField@AuxAddToFields[1]{}
\providecommand\HyField@AuxAddToCoFields[2]{}
\citation{McMahon2014}
\citation{Carson2010}
\citation{Harbaugh2002}
\citation{Almond2006}
\citation{Bharadwaj2013}
\citation{Almond2011}
\citation{Black2007}
\citation{Almond2005}
\citation{McMahon2001}
\citation{Aragon2013a}
\citation{Aragon2013}
\citation{Goltz2014}
\citation{Goltz2014}
\select@language{english}
\@writefile{toc}{\select@language{english}}
\@writefile{lof}{\select@language{english}}
\@writefile{lot}{\select@language{english}}
\@writefile{toc}{\contentsline {section}{\numberline {1}Introduction}{1}{section.1}}
\citation{Swenson2011}
\citation{Hilson2002}
\citation{Fernandez-Navarro2012}
\citation{Attfield2008}
\citation{Chakraborti2013}
\citation{Aragon2013a}
\citation{Aragon2013}
\citation{Goltz2014}
\citation{Goltz2014}
\citation{Almond2006}
\citation{Bharadwaj2013}
\citation{Almond2011}
\citation{Black2007}
\@writefile{toc}{\contentsline {section}{\numberline {2}Literature review}{3}{section.2}}
\newlabel{sec:rev}{{2}{3}{Literature review}{section.2}{}}
\citation{Mol2001}
\citation{Pfeiffer1993}
\citation{Veiga1997}
\citation{GUIZA2013}
\citation{Pfeiffer1988}
\citation{Morel1998}
\citation{Mol2001}
\citation{GUIZA2013}
\citation{Olivero2002}
\citation{UNEP2013}
\@writefile{toc}{\contentsline {subsection}{\numberline {2.1}Mercury and amalgamation in gold mining}{4}{subsection.2.1}}
\citation{WHO2013}
\citation{WHO2013}
\citation{Davidson2004}
\citation{Mergler2007}
\citation{Davidson2004}
\citation{Counter2004}
\citation{Clarkson2003}
\citation{Davidson2004}
\citation{EPA2014}
\citation{IbanezLaverde}
\citation{IbanezLaverde}
\@writefile{toc}{\contentsline {subsection}{\numberline {2.2}Health effects of mercury}{5}{subsection.2.2}}
\@writefile{toc}{\contentsline {section}{\numberline {3}Colombian context and data}{5}{section.3}}
\@writefile{toc}{\contentsline {subsection}{\numberline {3.1}Data on mining activity}{6}{subsection.3.1}}
\newlabel{sec:miningdata}{{3.1}{6}{Data on mining activity}{subsection.3.1}{}}
\citation{Ministerio2012}
\citation{Cordy2011}
\citation{World2009}
\citation{Montgomery2000}
\citation{Davidson2004}
\citation{Almond2005}
\citation{WHO2006}
\@writefile{lof}{\contentsline {figure}{\numberline {1}{\ignorespaces }}{7}{figure.1}}
\newlabel{fig:evol_mineria}{{1}{7}{}{figure.1}{}}
\@writefile{toc}{\contentsline {subsection}{\numberline {3.2}Data on newborns}{7}{subsection.3.2}}
