This is BibTeX, Version 0.99dThe top-level auxiliary file: Tables.aux
I found no \citation commands---while reading file Tables.aux
I found no \bibdata command---while reading file Tables.aux
I found no \bibstyle command---while reading file Tables.aux
(There were 3 error messages)
