\relax 
\providecommand\HyperFirstAtBeginDocument{\AtBeginDocument}
\HyperFirstAtBeginDocument{\ifx\hyper@anchor\@undefined
\global\let\oldcontentsline\contentsline
\gdef\contentsline#1#2#3#4{\oldcontentsline{#1}{#2}{#3}}
\global\let\oldnewlabel\newlabel
\gdef\newlabel#1#2{\newlabelxx{#1}#2}
\gdef\newlabelxx#1#2#3#4#5#6{\oldnewlabel{#1}{{#2}{#3}}}
\AtEndDocument{\ifx\hyper@anchor\@undefined
\let\contentsline\oldcontentsline
\let\newlabel\oldnewlabel
\fi}
\fi}
\global\let\hyper@last\relax 
\gdef\HyperFirstAtBeginDocument#1{#1}
\providecommand\HyField@AuxAddToFields[1]{}
\providecommand \oddpage@label [2]{}
\@writefile{toc}{\beamer@endinputifotherversion {3.22pt}}
\@writefile{nav}{\beamer@endinputifotherversion {3.22pt}}
\@writefile{nav}{\headcommand {\slideentry {0}{0}{1}{1/1}{}{0}}}
\@writefile{nav}{\headcommand {\beamer@framepages {1}{1}}}
\@writefile{toc}{\beamer@sectionintoc {1}{Motivation}{2}{0}{1}}
\@writefile{nav}{\headcommand {\sectionentry {1}{Motivation}{2}{Motivation}{0}}}
\@writefile{nav}{\headcommand {\beamer@sectionpages {1}{1}}}
\@writefile{nav}{\headcommand {\beamer@subsectionpages {1}{1}}}
\newlabel{Motiv_map}{{2}{2}{Motivation\relax }{Doc-Start}{}}
\@writefile{snm}{\beamer@slide {Motiv_map}{2}}
\@writefile{nav}{\headcommand {\slideentry {1}{0}{2}{2/2}{}{0}}}
\@writefile{nav}{\headcommand {\beamer@framepages {2}{2}}}
\@writefile{nav}{\headcommand {\slideentry {1}{0}{3}{3/3}{}{0}}}
\@writefile{nav}{\headcommand {\beamer@framepages {3}{3}}}
\@writefile{nav}{\headcommand {\slideentry {1}{0}{4}{4/4}{}{0}}}
\@writefile{nav}{\headcommand {\beamer@framepages {4}{4}}}
\@writefile{nav}{\headcommand {\slideentry {1}{0}{5}{5/5}{}{0}}}
\@writefile{nav}{\headcommand {\beamer@framepages {5}{5}}}
\@writefile{toc}{\beamer@sectionintoc {2}{Brief Literature Review}{6}{0}{2}}
\@writefile{nav}{\headcommand {\sectionentry {2}{Brief Literature Review}{6}{Brief Literature Review}{0}}}
\@writefile{nav}{\headcommand {\beamer@sectionpages {2}{5}}}
\@writefile{nav}{\headcommand {\beamer@subsectionpages {2}{5}}}
\@writefile{nav}{\headcommand {\slideentry {2}{0}{6}{6/6}{}{0}}}
\@writefile{nav}{\headcommand {\beamer@framepages {6}{6}}}
\@writefile{toc}{\beamer@sectionintoc {3}{Data and Research Design}{7}{0}{3}}
\@writefile{nav}{\headcommand {\sectionentry {3}{Data and Research Design}{7}{Data and Research Design}{0}}}
\@writefile{nav}{\headcommand {\beamer@sectionpages {6}{6}}}
\@writefile{nav}{\headcommand {\beamer@subsectionpages {6}{6}}}
\newlabel{dat1<1>}{{7}{7}{Data and Research Design\relax }{Doc-Start}{}}
\@writefile{snm}{\beamer@slide {dat1<1>}{7}}
\newlabel{dat1}{{7}{7}{Data and Research Design\relax }{Doc-Start}{}}
\@writefile{snm}{\beamer@slide {dat1}{7}}
\@writefile{nav}{\headcommand {\slideentry {3}{0}{7}{7/7}{}{0}}}
\@writefile{nav}{\headcommand {\beamer@framepages {7}{7}}}
\newlabel{sumstat1<1>}{{8}{8}{Data and Research Design\relax }{Doc-Start}{}}
\@writefile{snm}{\beamer@slide {sumstat1<1>}{8}}
\newlabel{sumstat1}{{8}{8}{Data and Research Design\relax }{Doc-Start}{}}
\@writefile{snm}{\beamer@slide {sumstat1}{8}}
\@writefile{nav}{\headcommand {\slideentry {3}{0}{8}{8/8}{}{0}}}
\@writefile{nav}{\headcommand {\beamer@framepages {8}{8}}}
\newlabel{dat2<1>}{{9}{9}{Data and Research Design\relax }{Doc-Start}{}}
\@writefile{snm}{\beamer@slide {dat2<1>}{9}}
\newlabel{dat2}{{9}{9}{Data and Research Design\relax }{Doc-Start}{}}
\@writefile{snm}{\beamer@slide {dat2}{9}}
\@writefile{nav}{\headcommand {\slideentry {3}{0}{9}{9/9}{}{0}}}
\@writefile{nav}{\headcommand {\beamer@framepages {9}{9}}}
\newlabel{Ideal_id}{{10}{10}{Data and Research Design\relax }{Doc-Start}{}}
\@writefile{snm}{\beamer@slide {Ideal_id}{10}}
\@writefile{nav}{\headcommand {\slideentry {3}{0}{10}{10/10}{}{0}}}
\@writefile{nav}{\headcommand {\beamer@framepages {10}{10}}}
\newlabel{Motiv_map}{{11}{11}{Data and Research Design\relax }{Doc-Start}{}}
\@writefile{snm}{\beamer@slide {Motiv_map}{11}}
\@writefile{nav}{\headcommand {\slideentry {3}{0}{11}{11/11}{}{0}}}
\@writefile{nav}{\headcommand {\beamer@framepages {11}{11}}}
\newlabel{}{{12}{12}{Data and Research Design\relax }{Doc-Start}{}}
\@writefile{snm}{\beamer@slide {}{12}}
\@writefile{nav}{\headcommand {\slideentry {3}{0}{12}{12/12}{}{0}}}
\@writefile{nav}{\headcommand {\beamer@framepages {12}{12}}}
\newlabel{}{{13}{13}{Data and Research Design\relax }{Doc-Start}{}}
\@writefile{snm}{\beamer@slide {}{13}}
\@writefile{nav}{\headcommand {\slideentry {3}{0}{13}{13/13}{}{0}}}
\@writefile{nav}{\headcommand {\beamer@framepages {13}{13}}}
\newlabel{}{{14}{14}{Data and Research Design\relax }{Doc-Start}{}}
\@writefile{snm}{\beamer@slide {}{14}}
\@writefile{nav}{\headcommand {\slideentry {3}{0}{14}{14/14}{}{0}}}
\@writefile{nav}{\headcommand {\beamer@framepages {14}{14}}}
\newlabel{}{{15}{15}{Data and Research Design\relax }{Doc-Start}{}}
\@writefile{snm}{\beamer@slide {}{15}}
\@writefile{nav}{\headcommand {\slideentry {3}{0}{15}{15/15}{}{0}}}
\@writefile{nav}{\headcommand {\beamer@framepages {15}{15}}}
\@writefile{toc}{\beamer@sectionintoc {4}{Preliminary Results}{16}{0}{4}}
\@writefile{nav}{\headcommand {\sectionentry {4}{Preliminary Results}{16}{Preliminary Results}{0}}}
\@writefile{nav}{\headcommand {\beamer@sectionpages {7}{15}}}
\@writefile{nav}{\headcommand {\beamer@subsectionpages {7}{15}}}
\@writefile{nav}{\headcommand {\slideentry {4}{0}{16}{16/16}{}{0}}}
\@writefile{nav}{\headcommand {\beamer@framepages {16}{16}}}
\@writefile{nav}{\headcommand {\slideentry {4}{0}{17}{17/17}{}{0}}}
\@writefile{nav}{\headcommand {\beamer@framepages {17}{17}}}
\@writefile{nav}{\headcommand {\slideentry {4}{0}{18}{18/18}{}{0}}}
\@writefile{nav}{\headcommand {\beamer@framepages {18}{18}}}
\@writefile{nav}{\headcommand {\slideentry {4}{0}{19}{19/19}{}{0}}}
\@writefile{nav}{\headcommand {\beamer@framepages {19}{19}}}
\@writefile{nav}{\headcommand {\slideentry {4}{0}{20}{20/20}{}{0}}}
\@writefile{nav}{\headcommand {\beamer@framepages {20}{20}}}
\@writefile{nav}{\headcommand {\slideentry {4}{0}{21}{21/21}{}{0}}}
\@writefile{nav}{\headcommand {\beamer@framepages {21}{21}}}
\@writefile{nav}{\headcommand {\slideentry {4}{0}{22}{22/22}{}{0}}}
\@writefile{nav}{\headcommand {\beamer@framepages {22}{22}}}
\@writefile{nav}{\headcommand {\beamer@partpages {1}{22}}}
\@writefile{nav}{\headcommand {\beamer@subsectionpages {16}{22}}}
\@writefile{nav}{\headcommand {\beamer@sectionpages {16}{22}}}
\@writefile{nav}{\headcommand {\beamer@documentpages {22}}}
\@writefile{nav}{\headcommand {\def \inserttotalframenumber {22}}}
