\relax 
\providecommand\hyper@newdestlabel[2]{}
\providecommand\HyperFirstAtBeginDocument{\AtBeginDocument}
\HyperFirstAtBeginDocument{\ifx\hyper@anchor\@undefined
\global\let\oldcontentsline\contentsline
\gdef\contentsline#1#2#3#4{\oldcontentsline{#1}{#2}{#3}}
\global\let\oldnewlabel\newlabel
\gdef\newlabel#1#2{\newlabelxx{#1}#2}
\gdef\newlabelxx#1#2#3#4#5#6{\oldnewlabel{#1}{{#2}{#3}}}
\AtEndDocument{\ifx\hyper@anchor\@undefined
\let\contentsline\oldcontentsline
\let\newlabel\oldnewlabel
\fi}
\fi}
\global\let\hyper@last\relax 
\gdef\HyperFirstAtBeginDocument#1{#1}
\providecommand\HyField@AuxAddToFields[1]{}
\providecommand\HyField@AuxAddToCoFields[2]{}
\providecommand \oddpage@label [2]{}
\@writefile{toc}{\beamer@endinputifotherversion {3.26pt}}
\@writefile{nav}{\beamer@endinputifotherversion {3.26pt}}
\select@language{english}
\@writefile{toc}{\select@language{english}}
\@writefile{lof}{\select@language{english}}
\@writefile{lot}{\select@language{english}}
\@writefile{nav}{\headcommand {\slideentry {0}{0}{1}{1/1}{}{0}}}
\@writefile{nav}{\headcommand {\beamer@framepages {1}{1}}}
\@writefile{toc}{\beamer@sectionintoc {1}{Motivation and context}{2}{0}{1}}
\@writefile{nav}{\headcommand {\sectionentry {1}{Motivation and context}{2}{Motivation and context}{0}}}
\@writefile{nav}{\headcommand {\beamer@sectionpages {1}{1}}}
\@writefile{nav}{\headcommand {\beamer@subsectionpages {1}{1}}}
\@writefile{nav}{\headcommand {\slideentry {1}{0}{2}{2/2}{}{0}}}
\@writefile{nav}{\headcommand {\beamer@framepages {2}{2}}}
\@writefile{nav}{\headcommand {\slideentry {1}{0}{3}{3/6}{}{0}}}
\@writefile{nav}{\headcommand {\beamer@framepages {3}{6}}}
\newlabel{fig:evol_mineria}{{1}{7}{Motivation and context}{Doc-Start}{}}
\@writefile{snm}{\beamer@slide {fig:evol_mineria}{7}}
\@writefile{nav}{\headcommand {\slideentry {1}{0}{4}{7/7}{}{0}}}
\@writefile{nav}{\headcommand {\beamer@framepages {7}{7}}}
\citation{UNEP2013}
\citation{GUIZA2013}
\citation{Olivero2002}
\@writefile{nav}{\headcommand {\slideentry {1}{0}{5}{8/8}{}{0}}}
\@writefile{nav}{\headcommand {\beamer@framepages {8}{8}}}
\@writefile{toc}{\beamer@sectionintoc {2}{This paper}{9}{0}{2}}
\@writefile{nav}{\headcommand {\sectionentry {2}{This paper}{9}{This paper}{0}}}
\@writefile{nav}{\headcommand {\beamer@sectionpages {2}{8}}}
\@writefile{nav}{\headcommand {\beamer@subsectionpages {2}{8}}}
\@writefile{nav}{\headcommand {\slideentry {2}{0}{6}{9/9}{}{0}}}
\@writefile{nav}{\headcommand {\beamer@framepages {9}{9}}}
\citation{Aragon2013a}
\citation{Aragon2013}
\citation{Goltz2014}
\citation{Schlenker2011}
\citation{Luechinger2014}
\citation{Almond2011}
\citation{Schofield2014}
\citation{Aragon2013a}
\citation{Aragon2013}
\citation{Goltz2014}
\citation{Schlenker2011}
\citation{Luechinger2014}
\citation{Almond2011}
\citation{Schofield2014}
\citation{Aragon2013a}
\citation{Aragon2013}
\citation{Goltz2014}
\citation{Schlenker2011}
\citation{Luechinger2014}
\citation{Almond2011}
\citation{Schofield2014}
\citation{Aragon2013a}
\citation{Aragon2013}
\citation{Goltz2014}
\citation{Schlenker2011}
\citation{Luechinger2014}
\citation{Almond2011}
\citation{Schofield2014}
\citation{Aragon2013a}
\citation{Aragon2013}
\citation{Goltz2014}
\citation{Schlenker2011}
\citation{Luechinger2014}
\citation{Almond2011}
\citation{Schofield2014}
\citation{Aragon2013a}
\citation{Aragon2013}
\citation{Goltz2014}
\citation{Schlenker2011}
\citation{Luechinger2014}
\citation{Almond2011}
\citation{Schofield2014}
\citation{Aragon2013a}
\citation{Aragon2013}
\citation{Goltz2014}
\citation{Schlenker2011}
\citation{Luechinger2014}
\citation{Almond2011}
\citation{Schofield2014}
\citation{Aragon2013a}
\citation{Aragon2013}
\citation{Goltz2014}
\citation{Schlenker2011}
\citation{Luechinger2014}
\citation{Almond2011}
\citation{Schofield2014}
\citation{Aragon2013a}
\citation{Aragon2013}
\citation{Goltz2014}
\citation{Schlenker2011}
\citation{Luechinger2014}
\citation{Almond2011}
\citation{Schofield2014}
\@writefile{nav}{\headcommand {\slideentry {2}{0}{7}{10/18}{}{0}}}
\@writefile{nav}{\headcommand {\beamer@framepages {10}{18}}}
\@writefile{toc}{\beamer@sectionintoc {3}{Data}{19}{0}{3}}
\@writefile{nav}{\headcommand {\sectionentry {3}{Data}{19}{Data}{0}}}
\@writefile{nav}{\headcommand {\beamer@sectionpages {9}{18}}}
\@writefile{nav}{\headcommand {\beamer@subsectionpages {9}{18}}}
\@writefile{nav}{\headcommand {\slideentry {3}{0}{8}{19/19}{}{0}}}
\@writefile{nav}{\headcommand {\beamer@framepages {19}{19}}}
\newlabel{dat2<1>}{{9}{20}{Data}{Doc-Start}{}}
\@writefile{snm}{\beamer@slide {dat2<1>}{20}}
\newlabel{dat2}{{9}{20}{Data}{Doc-Start}{}}
\@writefile{snm}{\beamer@slide {dat2}{20}}
\@writefile{nav}{\headcommand {\slideentry {3}{0}{9}{20/20}{}{0}}}
\@writefile{nav}{\headcommand {\beamer@framepages {20}{20}}}
\newlabel{dat1<1>}{{10}{21}{Data}{Doc-Start}{}}
\@writefile{snm}{\beamer@slide {dat1<1>}{21}}
\newlabel{dat1}{{10}{21}{Data}{Doc-Start}{}}
\@writefile{snm}{\beamer@slide {dat1}{21}}
\@writefile{nav}{\headcommand {\slideentry {3}{0}{10}{21/21}{}{0}}}
\@writefile{nav}{\headcommand {\beamer@framepages {21}{21}}}
\@writefile{nav}{\headcommand {\slideentry {3}{0}{11}{22/22}{}{0}}}
\@writefile{nav}{\headcommand {\beamer@framepages {22}{22}}}
\@writefile{toc}{\beamer@sectionintoc {4}{Identification Strategy and results}{23}{0}{4}}
\@writefile{nav}{\headcommand {\sectionentry {4}{Identification Strategy and results}{23}{Identification Strategy and results}{0}}}
\@writefile{nav}{\headcommand {\beamer@sectionpages {19}{22}}}
\@writefile{nav}{\headcommand {\beamer@subsectionpages {19}{22}}}
\@writefile{nav}{\headcommand {\slideentry {4}{0}{12}{23/23}{}{0}}}
\@writefile{nav}{\headcommand {\beamer@framepages {23}{23}}}
\@writefile{nav}{\headcommand {\slideentry {4}{0}{13}{24/24}{}{0}}}
\@writefile{nav}{\headcommand {\beamer@framepages {24}{24}}}
\@writefile{nav}{\headcommand {\slideentry {4}{0}{14}{25/25}{}{0}}}
\@writefile{nav}{\headcommand {\beamer@framepages {25}{25}}}
\@writefile{nav}{\headcommand {\slideentry {4}{0}{15}{26/26}{}{0}}}
\@writefile{nav}{\headcommand {\beamer@framepages {26}{26}}}
\newlabel{fig:evolSalud}{{2}{27}{Identification Strategy and results}{Doc-Start}{}}
\@writefile{snm}{\beamer@slide {fig:evolSalud}{27}}
\@writefile{nav}{\headcommand {\slideentry {4}{0}{16}{27/27}{}{0}}}
\@writefile{nav}{\headcommand {\beamer@framepages {27}{27}}}
\@writefile{nav}{\headcommand {\slideentry {4}{0}{17}{28/28}{}{0}}}
\@writefile{nav}{\headcommand {\beamer@framepages {28}{28}}}
\@writefile{nav}{\headcommand {\slideentry {4}{0}{18}{29/29}{}{0}}}
\@writefile{nav}{\headcommand {\beamer@framepages {29}{29}}}
\@writefile{nav}{\headcommand {\slideentry {4}{0}{19}{30/30}{}{0}}}
\@writefile{nav}{\headcommand {\beamer@framepages {30}{30}}}
\@writefile{nav}{\headcommand {\slideentry {4}{0}{20}{31/31}{}{0}}}
\@writefile{nav}{\headcommand {\beamer@framepages {31}{31}}}
\@writefile{nav}{\headcommand {\slideentry {4}{0}{21}{32/32}{}{0}}}
\@writefile{nav}{\headcommand {\beamer@framepages {32}{32}}}
\@writefile{nav}{\headcommand {\slideentry {4}{0}{22}{33/33}{}{0}}}
\@writefile{nav}{\headcommand {\beamer@framepages {33}{33}}}
\@writefile{nav}{\headcommand {\slideentry {4}{0}{23}{34/34}{}{0}}}
\@writefile{nav}{\headcommand {\beamer@framepages {34}{34}}}
\@writefile{nav}{\headcommand {\slideentry {4}{0}{24}{35/35}{}{0}}}
\@writefile{nav}{\headcommand {\beamer@framepages {35}{35}}}
\@writefile{nav}{\headcommand {\slideentry {4}{0}{25}{36/36}{}{0}}}
\@writefile{nav}{\headcommand {\beamer@framepages {36}{36}}}
\citation{ElColombiano2014}
\@writefile{nav}{\headcommand {\slideentry {4}{0}{26}{37/37}{}{0}}}
\@writefile{nav}{\headcommand {\beamer@framepages {37}{37}}}
\@writefile{nav}{\headcommand {\slideentry {4}{0}{27}{38/38}{}{0}}}
\@writefile{nav}{\headcommand {\beamer@framepages {38}{38}}}
\@writefile{toc}{\beamer@sectionintoc {5}{Robustness Checks}{39}{0}{5}}
\@writefile{nav}{\headcommand {\sectionentry {5}{Robustness Checks}{39}{Robustness Checks}{0}}}
\@writefile{nav}{\headcommand {\beamer@sectionpages {23}{38}}}
\@writefile{nav}{\headcommand {\beamer@subsectionpages {23}{38}}}
\@writefile{nav}{\headcommand {\slideentry {5}{0}{28}{39/39}{}{0}}}
\@writefile{nav}{\headcommand {\beamer@framepages {39}{39}}}
\@writefile{nav}{\headcommand {\slideentry {5}{0}{29}{40/40}{}{0}}}
\@writefile{nav}{\headcommand {\beamer@framepages {40}{40}}}
\@writefile{toc}{\beamer@sectionintoc {6}{Closing remarks}{41}{0}{6}}
\@writefile{nav}{\headcommand {\sectionentry {6}{Closing remarks}{41}{Closing remarks}{0}}}
\@writefile{nav}{\headcommand {\beamer@sectionpages {39}{40}}}
\@writefile{nav}{\headcommand {\beamer@subsectionpages {39}{40}}}
\@writefile{nav}{\headcommand {\slideentry {6}{0}{30}{41/41}{}{0}}}
\@writefile{nav}{\headcommand {\beamer@framepages {41}{41}}}
\@writefile{nav}{\headcommand {\slideentry {6}{0}{31}{42/42}{}{0}}}
\@writefile{nav}{\headcommand {\beamer@framepages {42}{42}}}
\@writefile{nav}{\headcommand {\slideentry {6}{0}{32}{43/43}{}{0}}}
\@writefile{nav}{\headcommand {\beamer@framepages {43}{43}}}
\newlabel{otheroutcomes<1>}{{33}{44}{Closing remarks}{Doc-Start}{}}
\@writefile{snm}{\beamer@slide {otheroutcomes<1>}{44}}
\newlabel{otheroutcomes}{{33}{44}{Closing remarks}{Doc-Start}{}}
\@writefile{snm}{\beamer@slide {otheroutcomes}{44}}
\@writefile{nav}{\headcommand {\slideentry {6}{0}{33}{44/44}{}{0}}}
\@writefile{nav}{\headcommand {\beamer@framepages {44}{44}}}
\newlabel{price<1>}{{34}{45}{Closing remarks}{Doc-Start}{}}
\@writefile{snm}{\beamer@slide {price<1>}{45}}
\newlabel{price}{{34}{45}{Closing remarks}{Doc-Start}{}}
\@writefile{snm}{\beamer@slide {price}{45}}
\@writefile{nav}{\headcommand {\slideentry {6}{0}{34}{45/45}{}{0}}}
\@writefile{nav}{\headcommand {\beamer@framepages {45}{45}}}
\newlabel{fertility<1>}{{35}{46}{Closing remarks}{Doc-Start}{}}
\@writefile{snm}{\beamer@slide {fertility<1>}{46}}
\newlabel{fertility}{{35}{46}{Closing remarks}{Doc-Start}{}}
\@writefile{snm}{\beamer@slide {fertility}{46}}
\@writefile{nav}{\headcommand {\slideentry {6}{0}{35}{46/46}{}{0}}}
\@writefile{nav}{\headcommand {\beamer@framepages {46}{46}}}
\newlabel{illegal<1>}{{36}{47}{Closing remarks}{Doc-Start}{}}
\@writefile{snm}{\beamer@slide {illegal<1>}{47}}
\newlabel{illegal}{{36}{47}{Closing remarks}{Doc-Start}{}}
\@writefile{snm}{\beamer@slide {illegal}{47}}
\@writefile{nav}{\headcommand {\slideentry {6}{0}{36}{47/47}{}{0}}}
\@writefile{nav}{\headcommand {\beamer@framepages {47}{47}}}
\newlabel{upvsdown<1>}{{37}{48}{Closing remarks}{Doc-Start}{}}
\@writefile{snm}{\beamer@slide {upvsdown<1>}{48}}
\newlabel{upvsdown}{{37}{48}{Closing remarks}{Doc-Start}{}}
\@writefile{snm}{\beamer@slide {upvsdown}{48}}
\@writefile{nav}{\headcommand {\slideentry {6}{0}{37}{48/48}{}{0}}}
\@writefile{nav}{\headcommand {\beamer@framepages {48}{48}}}
\newlabel{sumstat1<1>}{{38}{49}{Closing remarks}{Doc-Start}{}}
\@writefile{snm}{\beamer@slide {sumstat1<1>}{49}}
\newlabel{sumstat1}{{38}{49}{Closing remarks}{Doc-Start}{}}
\@writefile{snm}{\beamer@slide {sumstat1}{49}}
\@writefile{nav}{\headcommand {\slideentry {6}{0}{38}{49/49}{}{0}}}
\@writefile{nav}{\headcommand {\beamer@framepages {49}{49}}}
\newlabel{sumstat2<1>}{{39}{50}{Closing remarks}{Doc-Start}{}}
\@writefile{snm}{\beamer@slide {sumstat2<1>}{50}}
\newlabel{sumstat2}{{39}{50}{Closing remarks}{Doc-Start}{}}
\@writefile{snm}{\beamer@slide {sumstat2}{50}}
\newlabel{tab:sumMines}{{2}{50}{Closing remarks}{Doc-Start}{}}
\@writefile{snm}{\beamer@slide {tab:sumMines}{50}}
\@writefile{nav}{\headcommand {\slideentry {6}{0}{39}{50/50}{}{0}}}
\@writefile{nav}{\headcommand {\beamer@framepages {50}{50}}}
\newlabel{fig:evol_mineria}{{3}{51}{Closing remarks}{Doc-Start}{}}
\@writefile{snm}{\beamer@slide {fig:evol_mineria}{51}}
\@writefile{nav}{\headcommand {\slideentry {6}{0}{40}{51/51}{}{0}}}
\@writefile{nav}{\headcommand {\beamer@framepages {51}{51}}}
\@writefile{nav}{\headcommand {\slideentry {6}{0}{41}{52/52}{}{0}}}
\@writefile{nav}{\headcommand {\beamer@framepages {52}{52}}}
\bibstyle{apacite}
\bibdata{bibmin}
\bibcite{Almond2011}{\citeauthoryear {Almond\ \BBA{} Mazumder}{Almond\ \BBA{} Mazumder}{{\APACyear {2011}}}}
\APACbibcite{Almond2011}{\citeauthoryear {Almond\ \BBA{} Mazumder}{Almond\ \BBA{} Mazumder}{{\APACyear {2011}}}}
\bibcite{Aragon2013a}{\citeauthoryear {Aragon\ \BBA{} Rud}{Aragon\ \BBA{} Rud}{{\APACyear {2013}}{\APACexlab {{\BCnt {1}}}}}}
\APACbibcite{Aragon2013a}{\citeauthoryear {Aragon\ \BBA{} Rud}{Aragon\ \BBA{} Rud}{{\APACyear {2013}}{\APACexlab {{\BCnt {1}}}}}}
\bibcite{Aragon2013}{\citeauthoryear {Aragon\ \BBA{} Rud}{Aragon\ \BBA{} Rud}{{\APACyear {2013}}{\APACexlab {{\BCnt {2}}}}}}
\APACbibcite{Aragon2013}{\citeauthoryear {Aragon\ \BBA{} Rud}{Aragon\ \BBA{} Rud}{{\APACyear {2013}}{\APACexlab {{\BCnt {2}}}}}}
\bibcite{ElColombiano2014}{\citeauthoryear {{El Colombiano}}{{El Colombiano}}{{\APACyear {2014}}}}
\APACbibcite{ElColombiano2014}{\citeauthoryear {{El Colombiano}}{{El Colombiano}}{{\APACyear {2014}}}}
\bibcite{GUIZA2013}{\citeauthoryear {Guiza\ \BBA{} Aristizabal}{Guiza\ \BBA{} Aristizabal}{{\APACyear {2013}}}}
\APACbibcite{GUIZA2013}{\citeauthoryear {Guiza\ \BBA{} Aristizabal}{Guiza\ \BBA{} Aristizabal}{{\APACyear {2013}}}}
\bibcite{Luechinger2014}{\citeauthoryear {Luechinger}{Luechinger}{{\APACyear {2014}}}}
\APACbibcite{Luechinger2014}{\citeauthoryear {Luechinger}{Luechinger}{{\APACyear {2014}}}}
\bibcite{Olivero2002}{\citeauthoryear {Olivero\ \BBA{} Johnson}{Olivero\ \BBA{} Johnson}{{\APACyear {2002}}}}
\APACbibcite{Olivero2002}{\citeauthoryear {Olivero\ \BBA{} Johnson}{Olivero\ \BBA{} Johnson}{{\APACyear {2002}}}}
\bibcite{Schlenker2011}{\citeauthoryear {Schlenker\ \BBA{} Walker}{Schlenker\ \BBA{} Walker}{{\APACyear {2011}}}}
\APACbibcite{Schlenker2011}{\citeauthoryear {Schlenker\ \BBA{} Walker}{Schlenker\ \BBA{} Walker}{{\APACyear {2011}}}}
\bibcite{Schofield2014}{\citeauthoryear {Schofield}{Schofield}{{\APACyear {2014}}}}
\APACbibcite{Schofield2014}{\citeauthoryear {Schofield}{Schofield}{{\APACyear {2014}}}}
\bibcite{UNEP2013}{\citeauthoryear {UNEP}{UNEP}{{\APACyear {2013}}}}
\APACbibcite{UNEP2013}{\citeauthoryear {UNEP}{UNEP}{{\APACyear {2013}}}}
\bibcite{Goltz2014}{\citeauthoryear {von~der Goltz\ \BBA{} Barnwal}{von~der Goltz\ \BBA{} Barnwal}{{\APACyear {2014}}}}
\APACbibcite{Goltz2014}{\citeauthoryear {von~der Goltz\ \BBA{} Barnwal}{von~der Goltz\ \BBA{} Barnwal}{{\APACyear {2014}}}}
\@writefile{nav}{\headcommand {\sectionentry {7}{}{53}{}{0}}}
\@writefile{nav}{\headcommand {\beamer@sectionpages {41}{52}}}
\@writefile{nav}{\headcommand {\beamer@subsectionpages {41}{52}}}
\@writefile{toc}{\contentsline {section}{}}
\@writefile{nav}{\headcommand {\slideentry {7}{0}{42}{53/53}{}{0}}}
\@writefile{nav}{\headcommand {\beamer@framepages {53}{53}}}
\@writefile{nav}{\headcommand {\slideentry {7}{0}{42}{53/54}{}{0}}}
\@writefile{nav}{\headcommand {\beamer@framepages {53}{54}}}
\@writefile{nav}{\headcommand {\slideentry {7}{0}{42}{53/55}{}{0}}}
\@writefile{nav}{\headcommand {\beamer@framepages {53}{55}}}
\@writefile{nav}{\headcommand {\slideentry {7}{0}{42}{53/56}{}{0}}}
\@writefile{nav}{\headcommand {\beamer@framepages {53}{56}}}
\@writefile{nav}{\headcommand {\slideentry {7}{0}{42}{53/57}{}{0}}}
\@writefile{nav}{\headcommand {\beamer@framepages {53}{57}}}
\@writefile{nav}{\headcommand {\beamer@partpages {1}{57}}}
\@writefile{nav}{\headcommand {\beamer@subsectionpages {41}{57}}}
\@writefile{nav}{\headcommand {\beamer@sectionpages {41}{57}}}
\@writefile{nav}{\headcommand {\beamer@documentpages {57}}}
\@writefile{nav}{\headcommand {\def \inserttotalframenumber {46}}}
