\relax 
\providecommand\hyper@newdestlabel[2]{}
\providecommand\HyperFirstAtBeginDocument{\AtBeginDocument}
\HyperFirstAtBeginDocument{\ifx\hyper@anchor\@undefined
\global\let\oldcontentsline\contentsline
\gdef\contentsline#1#2#3#4{\oldcontentsline{#1}{#2}{#3}}
\global\let\oldnewlabel\newlabel
\gdef\newlabel#1#2{\newlabelxx{#1}#2}
\gdef\newlabelxx#1#2#3#4#5#6{\oldnewlabel{#1}{{#2}{#3}}}
\AtEndDocument{\ifx\hyper@anchor\@undefined
\let\contentsline\oldcontentsline
\let\newlabel\oldnewlabel
\fi}
\fi}
\global\let\hyper@last\relax 
\gdef\HyperFirstAtBeginDocument#1{#1}
\providecommand\HyField@AuxAddToFields[1]{}
\providecommand\HyField@AuxAddToCoFields[2]{}
\citation{McMahon2014}
\citation{Carson2010}
\citation{Harbaugh2002}
\citation{Almond2006}
\citation{Bharadwaj2013}
\citation{Almond2011}
\citation{Black2007}
\select@language{english}
\@writefile{toc}{\select@language{english}}
\@writefile{lof}{\select@language{english}}
\@writefile{lot}{\select@language{english}}
\citation{Almond2005}
\citation{McMahon2001}
\citation{Aragon2013a}
\citation{Aragon2013}
\citation{Goltz2014}
\citation{Goltz2014}
\bibstyle{apacite}
\bibdata{bibmin}
\bibcite{Almond2006}{\citeauthoryear {Almond}{Almond}{{\APACyear {2006}}}}
\APACbibcite{Almond2006}{\citeauthoryear {Almond}{Almond}{{\APACyear {2006}}}}
\bibcite{Almond2005}{\citeauthoryear {Almond, Chay,{}\ \BBA{} Lee}{Almond\ \BOthers {.}}{{\APACyear {2005}}}}
\APACbibcite{Almond2005}{\citeauthoryear {Almond, Chay,{}\ \BBA{} Lee}{Almond\ \BOthers {.}}{{\APACyear {2005}}}}
\@writefile{toc}{\contentsline {section}{References}{2}{section*.1}}
\bibcite{Almond2011}{\citeauthoryear {Almond\ \BBA{} Mazumder}{Almond\ \BBA{} Mazumder}{{\APACyear {2011}}}}
\APACbibcite{Almond2011}{\citeauthoryear {Almond\ \BBA{} Mazumder}{Almond\ \BBA{} Mazumder}{{\APACyear {2011}}}}
\bibcite{Aragon2013a}{\citeauthoryear {Aragon\ \BBA{} Rud}{Aragon\ \BBA{} Rud}{{\APACyear {2013}}{\APACexlab {{\BCnt {1}}}}}}
\APACbibcite{Aragon2013a}{\citeauthoryear {Aragon\ \BBA{} Rud}{Aragon\ \BBA{} Rud}{{\APACyear {2013}}{\APACexlab {{\BCnt {1}}}}}}
\bibcite{Aragon2013}{\citeauthoryear {Aragon\ \BBA{} Rud}{Aragon\ \BBA{} Rud}{{\APACyear {2013}}{\APACexlab {{\BCnt {2}}}}}}
\APACbibcite{Aragon2013}{\citeauthoryear {Aragon\ \BBA{} Rud}{Aragon\ \BBA{} Rud}{{\APACyear {2013}}{\APACexlab {{\BCnt {2}}}}}}
\bibcite{Bharadwaj2013}{\citeauthoryear {Bharadwaj, L{\o }ken,{}\ \BBA{} Neilson}{Bharadwaj\ \BOthers {.}}{{\APACyear {2013}}}}
\APACbibcite{Bharadwaj2013}{\citeauthoryear {Bharadwaj, L{\o }ken,{}\ \BBA{} Neilson}{Bharadwaj\ \BOthers {.}}{{\APACyear {2013}}}}
\bibcite{Black2007}{\citeauthoryear {Black, Devereux,{}\ \BBA{} Salvanes}{Black\ \BOthers {.}}{{\APACyear {2007}}}}
\APACbibcite{Black2007}{\citeauthoryear {Black, Devereux,{}\ \BBA{} Salvanes}{Black\ \BOthers {.}}{{\APACyear {2007}}}}
\bibcite{Carson2010}{\citeauthoryear {Carson}{Carson}{{\APACyear {2010}}}}
\APACbibcite{Carson2010}{\citeauthoryear {Carson}{Carson}{{\APACyear {2010}}}}
\bibcite{Harbaugh2002}{\citeauthoryear {Harbaugh, Levinson,{}\ \BBA{} Wilson}{Harbaugh\ \BOthers {.}}{{\APACyear {2002}}}}
\APACbibcite{Harbaugh2002}{\citeauthoryear {Harbaugh, Levinson,{}\ \BBA{} Wilson}{Harbaugh\ \BOthers {.}}{{\APACyear {2002}}}}
\bibcite{McMahon2014}{\citeauthoryear {McMahon\ \BBA{} Moreira}{McMahon\ \BBA{} Moreira}{{\APACyear {2014}}}}
\APACbibcite{McMahon2014}{\citeauthoryear {McMahon\ \BBA{} Moreira}{McMahon\ \BBA{} Moreira}{{\APACyear {2014}}}}
\bibcite{McMahon2001}{\citeauthoryear {McMahon\ \BBA{} Remy}{McMahon\ \BBA{} Remy}{{\APACyear {2001}}}}
\APACbibcite{McMahon2001}{\citeauthoryear {McMahon\ \BBA{} Remy}{McMahon\ \BBA{} Remy}{{\APACyear {2001}}}}
\bibcite{Goltz2014}{\citeauthoryear {von~der Goltz\ \BBA{} Barnwal}{von~der Goltz\ \BBA{} Barnwal}{{\APACyear {2014}}}}
\APACbibcite{Goltz2014}{\citeauthoryear {von~der Goltz\ \BBA{} Barnwal}{von~der Goltz\ \BBA{} Barnwal}{{\APACyear {2014}}}}
