\relax 
\providecommand\hyper@newdestlabel[2]{}
\providecommand\HyperFirstAtBeginDocument{\AtBeginDocument}
\HyperFirstAtBeginDocument{\ifx\hyper@anchor\@undefined
\global\let\oldcontentsline\contentsline
\gdef\contentsline#1#2#3#4{\oldcontentsline{#1}{#2}{#3}}
\global\let\oldnewlabel\newlabel
\gdef\newlabel#1#2{\newlabelxx{#1}#2}
\gdef\newlabelxx#1#2#3#4#5#6{\oldnewlabel{#1}{{#2}{#3}}}
\AtEndDocument{\ifx\hyper@anchor\@undefined
\let\contentsline\oldcontentsline
\let\newlabel\oldnewlabel
\fi}
\fi}
\global\let\hyper@last\relax 
\gdef\HyperFirstAtBeginDocument#1{#1}
\providecommand\HyField@AuxAddToFields[1]{}
\providecommand\HyField@AuxAddToCoFields[2]{}
\@writefile{toc}{\beamer@endinputifotherversion {3.26pt}}
\@writefile{nav}{\beamer@endinputifotherversion {3.26pt}}
\select@language{english}
\@writefile{toc}{\select@language{english}}
\@writefile{lof}{\select@language{english}}
\@writefile{lot}{\select@language{english}}
\@writefile{nav}{\headcommand {\slideentry {0}{0}{1}{1/1}{}{0}}}
\@writefile{nav}{\headcommand {\beamer@framepages {1}{1}}}
\@writefile{toc}{\beamer@sectionintoc {1}{Motivation}{2}{0}{1}}
\@writefile{nav}{\headcommand {\sectionentry {1}{Motivation}{2}{Motivation}{0}}}
\@writefile{nav}{\headcommand {\beamer@sectionpages {1}{1}}}
\@writefile{nav}{\headcommand {\beamer@subsectionpages {1}{1}}}
\@writefile{nav}{\headcommand {\slideentry {1}{0}{2}{2/2}{}{0}}}
\@writefile{nav}{\headcommand {\beamer@framepages {2}{2}}}
\newlabel{back1<1>}{{3}{3}{Motivation}{Doc-Start}{}}
\@writefile{snm}{\beamer@slide {back1<1>}{3}}
\newlabel{back1}{{3}{3}{Motivation}{Doc-Start}{}}
\@writefile{snm}{\beamer@slide {back1}{3}}
\@writefile{nav}{\headcommand {\slideentry {1}{0}{3}{3/3}{}{0}}}
\@writefile{nav}{\headcommand {\beamer@framepages {3}{3}}}
\@writefile{nav}{\headcommand {\slideentry {1}{0}{4}{4/4}{}{0}}}
\@writefile{nav}{\headcommand {\beamer@framepages {4}{4}}}
\@writefile{toc}{\beamer@sectionintoc {2}{Mining Sector in Colombia}{5}{0}{2}}
\@writefile{nav}{\headcommand {\sectionentry {2}{Mining Sector in Colombia}{5}{Mining Sector in Colombia}{0}}}
\@writefile{nav}{\headcommand {\beamer@sectionpages {2}{4}}}
\@writefile{nav}{\headcommand {\beamer@subsectionpages {2}{4}}}
\@writefile{nav}{\headcommand {\slideentry {2}{0}{5}{5/5}{}{0}}}
\@writefile{nav}{\headcommand {\beamer@framepages {5}{5}}}
\citation{Cordy2011}
\newlabel{main<1>}{{6}{6}{Mining Sector in Colombia}{Doc-Start}{}}
\@writefile{snm}{\beamer@slide {main<1>}{6}}
\newlabel{main}{{6}{6}{Mining Sector in Colombia}{Doc-Start}{}}
\@writefile{snm}{\beamer@slide {main}{6}}
\@writefile{nav}{\headcommand {\slideentry {2}{0}{6}{6/6}{}{0}}}
\@writefile{nav}{\headcommand {\beamer@framepages {6}{6}}}
\@writefile{toc}{\beamer@sectionintoc {3}{Literature Review}{7}{0}{3}}
\@writefile{nav}{\headcommand {\sectionentry {3}{Literature Review}{7}{Literature Review}{0}}}
\@writefile{nav}{\headcommand {\beamer@sectionpages {5}{6}}}
\@writefile{nav}{\headcommand {\beamer@subsectionpages {5}{6}}}
\@writefile{nav}{\headcommand {\slideentry {3}{0}{7}{7/7}{}{0}}}
\@writefile{nav}{\headcommand {\beamer@framepages {7}{7}}}
\citation{Mol2001}
\@writefile{nav}{\headcommand {\slideentry {3}{0}{8}{8/8}{}{0}}}
\@writefile{nav}{\headcommand {\beamer@framepages {8}{8}}}
\citation{GUIZA2013}
\citation{Olivero2002}
\@writefile{nav}{\headcommand {\slideentry {3}{0}{9}{9/9}{}{0}}}
\@writefile{nav}{\headcommand {\beamer@framepages {9}{9}}}
\@writefile{nav}{\headcommand {\slideentry {3}{0}{10}{10/10}{}{0}}}
\@writefile{nav}{\headcommand {\beamer@framepages {10}{10}}}
\citation{Davidson2004}
\citation{Mergler2007}
\citation{Davidson2004}
\citation{Counter2004}
\citation{Clarkson2003}
\@writefile{nav}{\headcommand {\slideentry {3}{0}{11}{11/11}{}{0}}}
\@writefile{nav}{\headcommand {\beamer@framepages {11}{11}}}
\@writefile{toc}{\beamer@sectionintoc {4}{Data and Methodology}{12}{0}{4}}
\@writefile{nav}{\headcommand {\sectionentry {4}{Data and Methodology}{12}{Data and Methodology}{0}}}
\@writefile{nav}{\headcommand {\beamer@sectionpages {7}{11}}}
\@writefile{nav}{\headcommand {\beamer@subsectionpages {7}{11}}}
\@writefile{nav}{\headcommand {\slideentry {4}{0}{12}{12/12}{}{0}}}
\@writefile{nav}{\headcommand {\beamer@framepages {12}{12}}}
\@writefile{nav}{\headcommand {\slideentry {4}{0}{13}{13/13}{}{0}}}
\@writefile{nav}{\headcommand {\beamer@framepages {13}{13}}}
\@writefile{nav}{\headcommand {\slideentry {4}{0}{14}{14/14}{}{0}}}
\@writefile{nav}{\headcommand {\beamer@framepages {14}{14}}}
\@writefile{nav}{\headcommand {\slideentry {4}{0}{15}{15/15}{}{0}}}
\@writefile{nav}{\headcommand {\beamer@framepages {15}{15}}}
\newlabel{fig:2}{{16}{16}{Data and Methodology}{Doc-Start}{}}
\@writefile{snm}{\beamer@slide {fig:2}{16}}
\@writefile{nav}{\headcommand {\slideentry {4}{0}{16}{16/16}{}{0}}}
\@writefile{nav}{\headcommand {\beamer@framepages {16}{16}}}
\citation{Davidson2004}
\@writefile{nav}{\headcommand {\slideentry {4}{0}{17}{17/17}{}{0}}}
\@writefile{nav}{\headcommand {\beamer@framepages {17}{17}}}
\@writefile{nav}{\headcommand {\slideentry {4}{0}{18}{18/18}{}{0}}}
\@writefile{nav}{\headcommand {\beamer@framepages {18}{18}}}
\@writefile{toc}{\beamer@sectionintoc {5}{Discussion}{19}{0}{5}}
\@writefile{nav}{\headcommand {\sectionentry {5}{Discussion}{19}{Discussion}{0}}}
\@writefile{nav}{\headcommand {\beamer@sectionpages {12}{18}}}
\@writefile{nav}{\headcommand {\beamer@subsectionpages {12}{18}}}
\@writefile{nav}{\headcommand {\slideentry {5}{0}{19}{19/19}{}{0}}}
\@writefile{nav}{\headcommand {\beamer@framepages {19}{19}}}
\citation{Olivero2002}
\@writefile{nav}{\headcommand {\slideentry {5}{0}{20}{20/20}{}{0}}}
\@writefile{nav}{\headcommand {\beamer@framepages {20}{20}}}
\@writefile{nav}{\headcommand {\slideentry {5}{0}{21}{21/21}{}{0}}}
\@writefile{nav}{\headcommand {\beamer@framepages {21}{21}}}
\bibstyle{apacite}
\bibdata{bibmin}
\bibcite{Aragon2013a}{\citeauthoryear {Aragon\ \BBA{} Rud}{Aragon\ \BBA{} Rud}{{\APACyear {2013}}{\APACexlab {{\BCnt {1}}}}}}
\APACbibcite{Aragon2013a}{\citeauthoryear {Aragon\ \BBA{} Rud}{Aragon\ \BBA{} Rud}{{\APACyear {2013}}{\APACexlab {{\BCnt {1}}}}}}
\bibcite{Aragon2013}{\citeauthoryear {Aragon\ \BBA{} Rud}{Aragon\ \BBA{} Rud}{{\APACyear {2013}}{\APACexlab {{\BCnt {2}}}}}}
\APACbibcite{Aragon2013}{\citeauthoryear {Aragon\ \BBA{} Rud}{Aragon\ \BBA{} Rud}{{\APACyear {2013}}{\APACexlab {{\BCnt {2}}}}}}
\bibcite{Attfield2008}{\citeauthoryear {Attfield\ \BBA{} Kuempel}{Attfield\ \BBA{} Kuempel}{{\APACyear {2008}}}}
\APACbibcite{Attfield2008}{\citeauthoryear {Attfield\ \BBA{} Kuempel}{Attfield\ \BBA{} Kuempel}{{\APACyear {2008}}}}
\bibcite{Chakraborti2013}{\citeauthoryear {Chakraborti\ \BOthers {.}}{Chakraborti\ \BOthers {.}}{{\APACyear {2013}}}}
\APACbibcite{Chakraborti2013}{\citeauthoryear {Chakraborti\ \BOthers {.}}{Chakraborti\ \BOthers {.}}{{\APACyear {2013}}}}
\bibcite{Clarkson2003}{\citeauthoryear {Clarkson, Magos,{}\ \BBA{} Myers}{Clarkson\ \BOthers {.}}{{\APACyear {2003}}}}
\APACbibcite{Clarkson2003}{\citeauthoryear {Clarkson, Magos,{}\ \BBA{} Myers}{Clarkson\ \BOthers {.}}{{\APACyear {2003}}}}
\bibcite{Cordy2011}{\citeauthoryear {Cordy\ \BOthers {.}}{Cordy\ \BOthers {.}}{{\APACyear {2011}}}}
\APACbibcite{Cordy2011}{\citeauthoryear {Cordy\ \BOthers {.}}{Cordy\ \BOthers {.}}{{\APACyear {2011}}}}
\bibcite{Counter2004}{\citeauthoryear {Counter\ \BBA{} Buchanan}{Counter\ \BBA{} Buchanan}{{\APACyear {2004}}}}
\APACbibcite{Counter2004}{\citeauthoryear {Counter\ \BBA{} Buchanan}{Counter\ \BBA{} Buchanan}{{\APACyear {2004}}}}
\bibcite{Davidson2004}{\citeauthoryear {Davidson, Myers,{}\ \BBA{} Weiss}{Davidson\ \BOthers {.}}{{\APACyear {2004}}}}
\APACbibcite{Davidson2004}{\citeauthoryear {Davidson, Myers,{}\ \BBA{} Weiss}{Davidson\ \BOthers {.}}{{\APACyear {2004}}}}
\bibcite{Fernandez-Navarro2012}{\citeauthoryear {Fernandez-Navarro, Garcia-Perez, Ramis, Boldo,{}\ \BBA{} Lopez-Abente}{Fernandez-Navarro\ \BOthers {.}}{{\APACyear {2012}}}}
\APACbibcite{Fernandez-Navarro2012}{\citeauthoryear {Fernandez-Navarro, Garcia-Perez, Ramis, Boldo,{}\ \BBA{} Lopez-Abente}{Fernandez-Navarro\ \BOthers {.}}{{\APACyear {2012}}}}
\bibcite{GUIZA2013}{\citeauthoryear {Guiza\ \BBA{} Aristizabal}{Guiza\ \BBA{} Aristizabal}{{\APACyear {2013}}}}
\APACbibcite{GUIZA2013}{\citeauthoryear {Guiza\ \BBA{} Aristizabal}{Guiza\ \BBA{} Aristizabal}{{\APACyear {2013}}}}
\bibcite{Hilson2002}{\citeauthoryear {Hilson}{Hilson}{{\APACyear {2002}}}}
\APACbibcite{Hilson2002}{\citeauthoryear {Hilson}{Hilson}{{\APACyear {2002}}}}
\bibcite{Mergler2007}{\citeauthoryear {Mergler\ \BOthers {.}}{Mergler\ \BOthers {.}}{{\APACyear {2007}}}}
\APACbibcite{Mergler2007}{\citeauthoryear {Mergler\ \BOthers {.}}{Mergler\ \BOthers {.}}{{\APACyear {2007}}}}
\bibcite{Mol2001}{\citeauthoryear {Mol, Ramlal, Lietar,{}\ \BBA{} Verloo}{Mol\ \BOthers {.}}{{\APACyear {2001}}}}
\APACbibcite{Mol2001}{\citeauthoryear {Mol, Ramlal, Lietar,{}\ \BBA{} Verloo}{Mol\ \BOthers {.}}{{\APACyear {2001}}}}
\bibcite{Olivero2002}{\citeauthoryear {Olivero\ \BBA{} Johnson}{Olivero\ \BBA{} Johnson}{{\APACyear {2002}}}}
\APACbibcite{Olivero2002}{\citeauthoryear {Olivero\ \BBA{} Johnson}{Olivero\ \BBA{} Johnson}{{\APACyear {2002}}}}
\bibcite{Swenson2011}{\citeauthoryear {Swenson, Carter, Domec,{}\ \BBA{} Delgado}{Swenson\ \BOthers {.}}{{\APACyear {2011}}}}
\APACbibcite{Swenson2011}{\citeauthoryear {Swenson, Carter, Domec,{}\ \BBA{} Delgado}{Swenson\ \BOthers {.}}{{\APACyear {2011}}}}
\@writefile{nav}{\headcommand {\partentry {Appendix}{1}}}
\@writefile{nav}{\headcommand {\beamer@partpages {1}{21}}}
\@writefile{nav}{\headcommand {\beamer@sectionpages {19}{21}}}
\@writefile{nav}{\headcommand {\beamer@subsectionpages {19}{21}}}
\@writefile{nav}{\headcommand {\beamer@appendixpages {22}}}
\@writefile{nav}{\headcommand {\sectionentry {6}{}{22}{}{1}}}
\@writefile{nav}{\headcommand {\beamer@sectionpages {22}{21}}}
\@writefile{nav}{\headcommand {\beamer@subsectionpages {22}{21}}}
\@writefile{toc}{\contentsline {section}{}}
\@writefile{nav}{\headcommand {\slideentry {6}{0}{22}{22/22}{}{1}}}
\@writefile{nav}{\headcommand {\beamer@framepages {22}{22}}}
\@writefile{nav}{\headcommand {\slideentry {6}{0}{22}{22/23}{}{1}}}
\@writefile{nav}{\headcommand {\beamer@framepages {22}{23}}}
\@writefile{nav}{\headcommand {\slideentry {6}{0}{22}{22/24}{}{1}}}
\@writefile{nav}{\headcommand {\beamer@framepages {22}{24}}}
\@writefile{nav}{\headcommand {\slideentry {6}{0}{22}{22/25}{}{1}}}
\@writefile{nav}{\headcommand {\beamer@framepages {22}{25}}}
\@writefile{nav}{\headcommand {\slideentry {6}{0}{22}{22/26}{}{1}}}
\@writefile{nav}{\headcommand {\beamer@framepages {22}{26}}}
\@writefile{nav}{\headcommand {\slideentry {6}{0}{22}{22/27}{}{1}}}
\@writefile{nav}{\headcommand {\beamer@framepages {22}{27}}}
\newlabel{supplemental1<1>}{{28}{28}{Discussion}{Doc-Start}{}}
\@writefile{snm}{\beamer@slide {supplemental1<1>}{28}}
\newlabel{supplemental1}{{28}{28}{Discussion}{Doc-Start}{}}
\@writefile{snm}{\beamer@slide {supplemental1}{28}}
\@writefile{nav}{\headcommand {\slideentry {6}{0}{23}{28/28}{}{1}}}
\@writefile{nav}{\headcommand {\beamer@framepages {28}{28}}}
\newlabel{supplemental2<1>}{{29}{29}{Discussion}{Doc-Start}{}}
\@writefile{snm}{\beamer@slide {supplemental2<1>}{29}}
\newlabel{supplemental2}{{29}{29}{Discussion}{Doc-Start}{}}
\@writefile{snm}{\beamer@slide {supplemental2}{29}}
\@writefile{nav}{\headcommand {\slideentry {6}{0}{24}{29/29}{}{1}}}
\@writefile{nav}{\headcommand {\beamer@framepages {29}{29}}}
\citation{Aragon2013a}
\citation{Aragon2013}
\citation{Swenson2011}
\citation{Hilson2002}
\citation{Fernandez-Navarro2012}
\citation{Attfield2008}
\citation{Chakraborti2013}
\newlabel{supplemental3<1>}{{30}{30}{Discussion}{Doc-Start}{}}
\@writefile{snm}{\beamer@slide {supplemental3<1>}{30}}
\newlabel{supplemental3}{{30}{30}{Discussion}{Doc-Start}{}}
\@writefile{snm}{\beamer@slide {supplemental3}{30}}
\@writefile{nav}{\headcommand {\slideentry {6}{0}{25}{30/30}{}{1}}}
\@writefile{nav}{\headcommand {\beamer@framepages {30}{30}}}
\newlabel{fig1<1>}{{31}{31}{Discussion}{Doc-Start}{}}
\@writefile{snm}{\beamer@slide {fig1<1>}{31}}
\newlabel{fig1}{{31}{31}{Discussion}{Doc-Start}{}}
\@writefile{snm}{\beamer@slide {fig1}{31}}
\newlabel{fig:1}{{31}{31}{Discussion}{Doc-Start}{}}
\@writefile{snm}{\beamer@slide {fig:1}{31}}
\@writefile{nav}{\headcommand {\slideentry {6}{0}{26}{31/31}{}{1}}}
\@writefile{nav}{\headcommand {\beamer@framepages {31}{31}}}
\@writefile{nav}{\headcommand {\beamer@partpages {22}{31}}}
\@writefile{nav}{\headcommand {\beamer@subsectionpages {22}{31}}}
\@writefile{nav}{\headcommand {\beamer@sectionpages {22}{31}}}
\@writefile{nav}{\headcommand {\beamer@documentpages {31}}}
\@writefile{nav}{\headcommand {\def \inserttotalframenumber {31}}}
