\beamer@endinputifotherversion {3.26pt}
\select@language {english}
\beamer@sectionintoc {1}{Motivation}{2}{0}{1}
\beamer@sectionintoc {2}{Mining Sector in Colombia}{5}{0}{2}
\beamer@sectionintoc {3}{Literature Review}{7}{0}{3}
\beamer@sectionintoc {4}{Data and Methodology}{12}{0}{4}
\beamer@sectionintoc {5}{Discussion}{19}{0}{5}
\contentsline {section}{}
