\relax 
\providecommand\HyperFirstAtBeginDocument{\AtBeginDocument}
\HyperFirstAtBeginDocument{\ifx\hyper@anchor\@undefined
\global\let\oldcontentsline\contentsline
\gdef\contentsline#1#2#3#4{\oldcontentsline{#1}{#2}{#3}}
\global\let\oldnewlabel\newlabel
\gdef\newlabel#1#2{\newlabelxx{#1}#2}
\gdef\newlabelxx#1#2#3#4#5#6{\oldnewlabel{#1}{{#2}{#3}}}
\AtEndDocument{\ifx\hyper@anchor\@undefined
\let\contentsline\oldcontentsline
\let\newlabel\oldnewlabel
\fi}
\fi}
\global\let\hyper@last\relax 
\gdef\HyperFirstAtBeginDocument#1{#1}
\providecommand\HyField@AuxAddToFields[1]{}
\@writefile{toc}{\beamer@endinputifotherversion {3.22pt}}
\@writefile{nav}{\beamer@endinputifotherversion {3.22pt}}
\select@language{english}
\@writefile{toc}{\select@language{english}}
\@writefile{lof}{\select@language{english}}
\@writefile{lot}{\select@language{english}}
\@writefile{nav}{\headcommand {\slideentry {0}{0}{1}{1/1}{}{0}}}
\@writefile{nav}{\headcommand {\beamer@framepages {1}{1}}}
\@writefile{toc}{\beamer@sectionintoc {1}{Motivation}{2}{0}{1}}
\@writefile{nav}{\headcommand {\sectionentry {1}{Motivation}{2}{Motivation}{0}}}
\@writefile{nav}{\headcommand {\beamer@sectionpages {1}{1}}}
\@writefile{nav}{\headcommand {\beamer@subsectionpages {1}{1}}}
\@writefile{nav}{\headcommand {\slideentry {1}{0}{2}{2/2}{}{0}}}
\@writefile{nav}{\headcommand {\beamer@framepages {2}{2}}}
\@writefile{nav}{\headcommand {\slideentry {1}{0}{3}{3/3}{}{0}}}
\@writefile{nav}{\headcommand {\beamer@framepages {3}{3}}}
\newlabel{fig:1}{{4}{4}{Motivation\relax }{Doc-Start}{}}
\@writefile{snm}{\beamer@slide {fig:1}{4}}
\@writefile{nav}{\headcommand {\slideentry {1}{0}{4}{4/4}{}{0}}}
\@writefile{nav}{\headcommand {\beamer@framepages {4}{4}}}
\@writefile{nav}{\headcommand {\slideentry {1}{0}{5}{5/5}{}{0}}}
\@writefile{nav}{\headcommand {\beamer@framepages {5}{5}}}
\@writefile{toc}{\beamer@sectionintoc {2}{Mining Sector in Colombia}{6}{0}{2}}
\@writefile{nav}{\headcommand {\sectionentry {2}{Mining Sector in Colombia}{6}{Mining Sector in Colombia}{0}}}
\@writefile{nav}{\headcommand {\beamer@sectionpages {2}{5}}}
\@writefile{nav}{\headcommand {\beamer@subsectionpages {2}{5}}}
\@writefile{nav}{\headcommand {\slideentry {2}{0}{6}{6/6}{}{0}}}
\@writefile{nav}{\headcommand {\beamer@framepages {6}{6}}}
\citation{Cordy2011}
\citation{Congreso2013}
\@writefile{nav}{\headcommand {\slideentry {2}{0}{7}{7/7}{}{0}}}
\@writefile{nav}{\headcommand {\beamer@framepages {7}{7}}}
\@writefile{toc}{\beamer@sectionintoc {3}{Literature Review}{8}{0}{3}}
\@writefile{nav}{\headcommand {\sectionentry {3}{Literature Review}{8}{Literature Review}{0}}}
\@writefile{nav}{\headcommand {\beamer@sectionpages {6}{7}}}
\@writefile{nav}{\headcommand {\beamer@subsectionpages {6}{7}}}
\@writefile{nav}{\headcommand {\slideentry {3}{0}{8}{8/8}{}{0}}}
\@writefile{nav}{\headcommand {\beamer@framepages {8}{8}}}
\citation{Aragon2013a}
\citation{Hilson2002}
\@writefile{nav}{\headcommand {\slideentry {3}{0}{9}{9/9}{}{0}}}
\@writefile{nav}{\headcommand {\beamer@framepages {9}{9}}}
\citation{Fernandez-Navarro2012}
\citation{Attfield2008}
\citation{Chakraborti2013}
\citation{Aragon2013}
\@writefile{nav}{\headcommand {\slideentry {3}{0}{10}{10/10}{}{0}}}
\@writefile{nav}{\headcommand {\beamer@framepages {10}{10}}}
\citation{GUIZA2013}
\citation{Olivero2002}
\@writefile{nav}{\headcommand {\slideentry {3}{0}{11}{11/11}{}{0}}}
\@writefile{nav}{\headcommand {\beamer@framepages {11}{11}}}
\@writefile{toc}{\beamer@sectionintoc {4}{Data and Methodology}{12}{0}{4}}
\@writefile{nav}{\headcommand {\sectionentry {4}{Data and Methodology}{12}{Data and Methodology}{0}}}
\@writefile{nav}{\headcommand {\beamer@sectionpages {8}{11}}}
\@writefile{nav}{\headcommand {\beamer@subsectionpages {8}{11}}}
\@writefile{nav}{\headcommand {\slideentry {4}{0}{12}{12/12}{}{0}}}
\@writefile{nav}{\headcommand {\beamer@framepages {12}{12}}}
\@writefile{nav}{\headcommand {\slideentry {4}{0}{13}{13/13}{}{0}}}
\@writefile{nav}{\headcommand {\beamer@framepages {13}{13}}}
\@writefile{nav}{\headcommand {\slideentry {4}{0}{14}{14/14}{}{0}}}
\@writefile{nav}{\headcommand {\beamer@framepages {14}{14}}}
\@writefile{nav}{\headcommand {\slideentry {4}{0}{15}{15/15}{}{0}}}
\@writefile{nav}{\headcommand {\beamer@framepages {15}{15}}}
\newlabel{fig:2}{{16}{16}{Data and Methodology\relax }{Doc-Start}{}}
\@writefile{snm}{\beamer@slide {fig:2}{16}}
\@writefile{nav}{\headcommand {\slideentry {4}{0}{16}{16/16}{}{0}}}
\@writefile{nav}{\headcommand {\beamer@framepages {16}{16}}}
\citation{Davidson2004}
\@writefile{nav}{\headcommand {\slideentry {4}{0}{17}{17/17}{}{0}}}
\@writefile{nav}{\headcommand {\beamer@framepages {17}{17}}}
\@writefile{nav}{\headcommand {\slideentry {4}{0}{18}{18/18}{}{0}}}
\@writefile{nav}{\headcommand {\beamer@framepages {18}{18}}}
\@writefile{toc}{\beamer@sectionintoc {5}{Discussion}{19}{0}{5}}
\@writefile{nav}{\headcommand {\sectionentry {5}{Discussion}{19}{Discussion}{0}}}
\@writefile{nav}{\headcommand {\beamer@sectionpages {12}{18}}}
\@writefile{nav}{\headcommand {\beamer@subsectionpages {12}{18}}}
\@writefile{nav}{\headcommand {\slideentry {5}{0}{19}{19/19}{}{0}}}
\@writefile{nav}{\headcommand {\beamer@framepages {19}{19}}}
\citation{Olivero2002}
\@writefile{nav}{\headcommand {\slideentry {5}{0}{20}{20/20}{}{0}}}
\@writefile{nav}{\headcommand {\beamer@framepages {20}{20}}}
\@writefile{toc}{\beamer@sectionintoc {6}{Bibliography}{21}{0}{6}}
\@writefile{nav}{\headcommand {\sectionentry {6}{Bibliography}{21}{Bibliography}{0}}}
\@writefile{nav}{\headcommand {\beamer@sectionpages {19}{20}}}
\@writefile{nav}{\headcommand {\beamer@subsectionpages {19}{20}}}
\@writefile{nav}{\headcommand {\slideentry {6}{0}{21}{21/21}{}{0}}}
\@writefile{nav}{\headcommand {\beamer@framepages {21}{21}}}
\bibstyle{apacite}
\bibdata{bibmin}
\bibcite{Aragon2013a}{\citeauthoryear {Aragon\ \BBA{} Rud}{Aragon\ \BBA{} Rud}{{\APACyear {2013}}{\APACexlab {{\BCnt {1}}}}}}
\APACbibcite{Aragon2013a}{\citeauthoryear {Aragon\ \BBA{} Rud}{Aragon\ \BBA{} Rud}{{\APACyear {2013}}{\APACexlab {{\BCnt {1}}}}}}
\bibcite{Aragon2013}{\citeauthoryear {Aragon\ \BBA{} Rud}{Aragon\ \BBA{} Rud}{{\APACyear {2013}}{\APACexlab {{\BCnt {2}}}}}}
\APACbibcite{Aragon2013}{\citeauthoryear {Aragon\ \BBA{} Rud}{Aragon\ \BBA{} Rud}{{\APACyear {2013}}{\APACexlab {{\BCnt {2}}}}}}
\bibcite{Attfield2008}{\citeauthoryear {Attfield\ \BBA{} Kuempel}{Attfield\ \BBA{} Kuempel}{{\APACyear {2008}}}}
\APACbibcite{Attfield2008}{\citeauthoryear {Attfield\ \BBA{} Kuempel}{Attfield\ \BBA{} Kuempel}{{\APACyear {2008}}}}
\bibcite{Chakraborti2013}{\citeauthoryear {Chakraborti\ \BOthers {.}}{Chakraborti\ \BOthers {.}}{{\APACyear {2013}}}}
\APACbibcite{Chakraborti2013}{\citeauthoryear {Chakraborti\ \BOthers {.}}{Chakraborti\ \BOthers {.}}{{\APACyear {2013}}}}
\bibcite{Congreso2013}{\citeauthoryear {{Congreso de la Republica}}{{Congreso de la Republica}}{{\APACyear {2013}}}}
\APACbibcite{Congreso2013}{\citeauthoryear {{Congreso de la Republica}}{{Congreso de la Republica}}{{\APACyear {2013}}}}
\bibcite{Cordy2011}{\citeauthoryear {Cordy\ \BOthers {.}}{Cordy\ \BOthers {.}}{{\APACyear {2011}}}}
\APACbibcite{Cordy2011}{\citeauthoryear {Cordy\ \BOthers {.}}{Cordy\ \BOthers {.}}{{\APACyear {2011}}}}
\bibcite{Davidson2004}{\citeauthoryear {Davidson, Myers,{}\ \BBA{} Weiss}{Davidson\ \BOthers {.}}{{\APACyear {2004}}}}
\APACbibcite{Davidson2004}{\citeauthoryear {Davidson, Myers,{}\ \BBA{} Weiss}{Davidson\ \BOthers {.}}{{\APACyear {2004}}}}
\bibcite{Fernandez-Navarro2012}{\citeauthoryear {Fernandez-Navarro, Garcia-Perez, Ramis, Boldo,{}\ \BBA{} Lopez-Abente}{Fernandez-Navarro\ \BOthers {.}}{{\APACyear {2012}}}}
\APACbibcite{Fernandez-Navarro2012}{\citeauthoryear {Fernandez-Navarro, Garcia-Perez, Ramis, Boldo,{}\ \BBA{} Lopez-Abente}{Fernandez-Navarro\ \BOthers {.}}{{\APACyear {2012}}}}
\bibcite{Hilson2002}{\citeauthoryear {Hilson}{Hilson}{{\APACyear {2002}}}}
\APACbibcite{Hilson2002}{\citeauthoryear {Hilson}{Hilson}{{\APACyear {2002}}}}
\bibcite{Olivero2002}{\citeauthoryear {Olivero\ \BBA{} Johnson}{Olivero\ \BBA{} Johnson}{{\APACyear {2002}}}}
\APACbibcite{Olivero2002}{\citeauthoryear {Olivero\ \BBA{} Johnson}{Olivero\ \BBA{} Johnson}{{\APACyear {2002}}}}
\@writefile{nav}{\headcommand {\sectionentry {7}{}{22}{}{0}}}
\@writefile{nav}{\headcommand {\beamer@sectionpages {21}{21}}}
\@writefile{nav}{\headcommand {\beamer@subsectionpages {21}{21}}}
\@writefile{toc}{\contentsline {section}{}}
\@writefile{nav}{\headcommand {\slideentry {7}{0}{22}{22/22}{}{0}}}
\@writefile{nav}{\headcommand {\beamer@framepages {22}{22}}}
\@writefile{nav}{\headcommand {\slideentry {7}{0}{22}{22/23}{}{0}}}
\@writefile{nav}{\headcommand {\beamer@framepages {22}{23}}}
\@writefile{nav}{\headcommand {\slideentry {7}{0}{22}{22/24}{}{0}}}
\@writefile{nav}{\headcommand {\beamer@framepages {22}{24}}}
\@writefile{nav}{\headcommand {\beamer@partpages {1}{24}}}
\@writefile{nav}{\headcommand {\beamer@subsectionpages {21}{24}}}
\@writefile{nav}{\headcommand {\beamer@sectionpages {21}{24}}}
\@writefile{nav}{\headcommand {\beamer@documentpages {24}}}
\@writefile{nav}{\headcommand {\def \inserttotalframenumber {24}}}
