\BOOKMARK [1][-]{section.1}{Introduction}{}% 1
\BOOKMARK [1][-]{section.2}{Reviewer A}{}% 2
\BOOKMARK [1][-]{section.3}{Reviewer B}{}% 3
\BOOKMARK [1][-]{section.4}{Other changes and comments}{}% 4
\BOOKMARK [1][-]{section.5}{Final remarks}{}% 5
