\relax 
\providecommand\hyper@newdestlabel[2]{}
\providecommand\HyperFirstAtBeginDocument{\AtBeginDocument}
\HyperFirstAtBeginDocument{\ifx\hyper@anchor\@undefined
\global\let\oldcontentsline\contentsline
\gdef\contentsline#1#2#3#4{\oldcontentsline{#1}{#2}{#3}}
\global\let\oldnewlabel\newlabel
\gdef\newlabel#1#2{\newlabelxx{#1}#2}
\gdef\newlabelxx#1#2#3#4#5#6{\oldnewlabel{#1}{{#2}{#3}}}
\AtEndDocument{\ifx\hyper@anchor\@undefined
\let\contentsline\oldcontentsline
\let\newlabel\oldnewlabel
\fi}
\fi}
\global\let\hyper@last\relax 
\gdef\HyperFirstAtBeginDocument#1{#1}
\providecommand\HyField@AuxAddToFields[1]{}
\providecommand\HyField@AuxAddToCoFields[2]{}
\citation{World2009}
\citation{McMahon2001}
\citation{Aragon2013}
\citation{Cordy2011}
\citation{GUIZA2013}
\citation{Davidson2004}
\select@language{english}
\@writefile{toc}{\select@language{english}}
\@writefile{lof}{\select@language{english}}
\@writefile{lot}{\select@language{english}}
\@writefile{toc}{\contentsline {section}{\numberline {1}Research Problem}{1}{section.1}}
\citation{Aragon2013a}
\citation{Aragon2013}
\citation{Swenson2011}
\citation{Hilson2002}
\citation{Fernandez-Navarro2012}
\citation{Attfield2008}
\citation{Chakraborti2013}
\citation{Mol2001}
\citation{Pfeiffer1993}
\citation{Veiga1997}
\citation{GUIZA2013}
\citation{Pfeiffer1988}
\citation{Morel1998}
\citation{Mol2001}
\citation{GUIZA2013}
\citation{Olivero2002}
\citation{Ashe2012}
\citation{Mol2001}
\citation{Mol2004}
\citation{CortesMaramba2006}
\citation{Leiva2013}
\citation{LusilaoMakiese2013}
\citation{Male2013}
\citation{Bastos2006}
\citation{Webb2004}
\citation{Ikingura1996}
\citation{Straaten2000}
\citation{Davidson2004}
\citation{Mergler2007}
\citation{Davidson2004}
\citation{Counter2004}
\citation{Clarkson2003}
\@writefile{toc}{\contentsline {subsection}{\numberline {1.1}Literature review}{3}{subsection.1.1}}
\@writefile{toc}{\contentsline {section}{\numberline {2}Research Objectives}{6}{section.2}}
\@writefile{toc}{\contentsline {section}{\numberline {3}Research Methods}{6}{section.3}}
\citation{Davidson2004}
\@writefile{lof}{\contentsline {figure}{\numberline {1}{\ignorespaces Location of the gold mines (left) and diffusion of pollution through rivers (right)}}{7}{figure.1}}
\@writefile{lof}{\contentsline {figure}{\numberline {2}{\ignorespaces Location of population (left) and exposure (right)}}{7}{figure.2}}
\citation{Schoeman2009}
\@writefile{lot}{\contentsline {table}{\numberline {1}{\ignorespaces }}{8}{table.1}}
\citation{Ministerio2012}
\citation{Cordy2011}
\citation{World2009}
\@writefile{toc}{\contentsline {section}{\numberline {4}Expected Results and Dissemination}{9}{section.4}}
\@writefile{toc}{\contentsline {section}{\numberline {5}Institution and Personnel}{10}{section.5}}
\@writefile{toc}{\contentsline {section}{\numberline {6}Timetable}{10}{section.6}}
\@writefile{toc}{\contentsline {section}{\numberline {7}Budget}{10}{section.7}}
\@writefile{toc}{\contentsline {subsection}{\numberline {7.1}Direct Research Costs}{10}{subsection.7.1}}
\bibstyle{apacite}
\bibdata{bibmin}
\bibcite{Aragon2013a}{\citeauthoryear {Aragon\ \BBA{} Rud}{Aragon\ \BBA{} Rud}{{\APACyear {2013}}{\APACexlab {{\BCnt {1}}}}}}
\APACbibcite{Aragon2013a}{\citeauthoryear {Aragon\ \BBA{} Rud}{Aragon\ \BBA{} Rud}{{\APACyear {2013}}{\APACexlab {{\BCnt {1}}}}}}
\bibcite{Aragon2013}{\citeauthoryear {Aragon\ \BBA{} Rud}{Aragon\ \BBA{} Rud}{{\APACyear {2013}}{\APACexlab {{\BCnt {2}}}}}}
\APACbibcite{Aragon2013}{\citeauthoryear {Aragon\ \BBA{} Rud}{Aragon\ \BBA{} Rud}{{\APACyear {2013}}{\APACexlab {{\BCnt {2}}}}}}
\bibcite{Ashe2012}{\citeauthoryear {Ashe}{Ashe}{{\APACyear {2012}}}}
\APACbibcite{Ashe2012}{\citeauthoryear {Ashe}{Ashe}{{\APACyear {2012}}}}
\bibcite{Attfield2008}{\citeauthoryear {Attfield\ \BBA{} Kuempel}{Attfield\ \BBA{} Kuempel}{{\APACyear {2008}}}}
\APACbibcite{Attfield2008}{\citeauthoryear {Attfield\ \BBA{} Kuempel}{Attfield\ \BBA{} Kuempel}{{\APACyear {2008}}}}
\bibcite{Bastos2006}{\citeauthoryear {Bastos\ \BOthers {.}}{Bastos\ \BOthers {.}}{{\APACyear {2006}}}}
\APACbibcite{Bastos2006}{\citeauthoryear {Bastos\ \BOthers {.}}{Bastos\ \BOthers {.}}{{\APACyear {2006}}}}
\bibcite{Chakraborti2013}{\citeauthoryear {Chakraborti\ \BOthers {.}}{Chakraborti\ \BOthers {.}}{{\APACyear {2013}}}}
\APACbibcite{Chakraborti2013}{\citeauthoryear {Chakraborti\ \BOthers {.}}{Chakraborti\ \BOthers {.}}{{\APACyear {2013}}}}
\@writefile{toc}{\contentsline {subsection}{\numberline {7.2}Remuneration}{11}{subsection.7.2}}
\@writefile{toc}{\contentsline {section}{References}{11}{section*.1}}
\bibcite{Clarkson2003}{\citeauthoryear {Clarkson, Magos,{}\ \BBA{} Myers}{Clarkson\ \BOthers {.}}{{\APACyear {2003}}}}
\APACbibcite{Clarkson2003}{\citeauthoryear {Clarkson, Magos,{}\ \BBA{} Myers}{Clarkson\ \BOthers {.}}{{\APACyear {2003}}}}
\bibcite{Cordy2011}{\citeauthoryear {Cordy\ \BOthers {.}}{Cordy\ \BOthers {.}}{{\APACyear {2011}}}}
\APACbibcite{Cordy2011}{\citeauthoryear {Cordy\ \BOthers {.}}{Cordy\ \BOthers {.}}{{\APACyear {2011}}}}
\bibcite{CortesMaramba2006}{\citeauthoryear {Cortes-Maramba\ \BOthers {.}}{Cortes-Maramba\ \BOthers {.}}{{\APACyear {2006}}}}
\APACbibcite{CortesMaramba2006}{\citeauthoryear {Cortes-Maramba\ \BOthers {.}}{Cortes-Maramba\ \BOthers {.}}{{\APACyear {2006}}}}
\bibcite{Counter2004}{\citeauthoryear {Counter\ \BBA{} Buchanan}{Counter\ \BBA{} Buchanan}{{\APACyear {2004}}}}
\APACbibcite{Counter2004}{\citeauthoryear {Counter\ \BBA{} Buchanan}{Counter\ \BBA{} Buchanan}{{\APACyear {2004}}}}
\bibcite{Veiga1997}{\citeauthoryear {da Veiga}{da Veiga}{{\APACyear {1997}}}}
\APACbibcite{Veiga1997}{\citeauthoryear {da Veiga}{da Veiga}{{\APACyear {1997}}}}
\bibcite{Davidson2004}{\citeauthoryear {Davidson, Myers,{}\ \BBA{} Weiss}{Davidson\ \BOthers {.}}{{\APACyear {2004}}}}
\APACbibcite{Davidson2004}{\citeauthoryear {Davidson, Myers,{}\ \BBA{} Weiss}{Davidson\ \BOthers {.}}{{\APACyear {2004}}}}
\bibcite{Fernandez-Navarro2012}{\citeauthoryear {Fernandez-Navarro, Garcia-Perez, Ramis, Boldo,{}\ \BBA{} Lopez-Abente}{Fernandez-Navarro\ \BOthers {.}}{{\APACyear {2012}}}}
\APACbibcite{Fernandez-Navarro2012}{\citeauthoryear {Fernandez-Navarro, Garcia-Perez, Ramis, Boldo,{}\ \BBA{} Lopez-Abente}{Fernandez-Navarro\ \BOthers {.}}{{\APACyear {2012}}}}
\bibcite{GUIZA2013}{\citeauthoryear {Guiza\ \BBA{} Aristizabal}{Guiza\ \BBA{} Aristizabal}{{\APACyear {2013}}}}
\APACbibcite{GUIZA2013}{\citeauthoryear {Guiza\ \BBA{} Aristizabal}{Guiza\ \BBA{} Aristizabal}{{\APACyear {2013}}}}
\bibcite{Hilson2002}{\citeauthoryear {Hilson}{Hilson}{{\APACyear {2002}}}}
\APACbibcite{Hilson2002}{\citeauthoryear {Hilson}{Hilson}{{\APACyear {2002}}}}
\bibcite{Ikingura1996}{\citeauthoryear {Ikingura\ \BBA{} Akagi}{Ikingura\ \BBA{} Akagi}{{\APACyear {1996}}}}
\APACbibcite{Ikingura1996}{\citeauthoryear {Ikingura\ \BBA{} Akagi}{Ikingura\ \BBA{} Akagi}{{\APACyear {1996}}}}
\bibcite{Leiva2013}{\citeauthoryear {Leiva\ \BBA{} Morales}{Leiva\ \BBA{} Morales}{{\APACyear {2013}}}}
\APACbibcite{Leiva2013}{\citeauthoryear {Leiva\ \BBA{} Morales}{Leiva\ \BBA{} Morales}{{\APACyear {2013}}}}
\bibcite{LusilaoMakiese2013}{\citeauthoryear {Lusilao-Makiese, Cukrowska, Tessier, Amouroux,{}\ \BBA{} Weiersbye}{Lusilao-Makiese\ \BOthers {.}}{{\APACyear {2013}}}}
\APACbibcite{LusilaoMakiese2013}{\citeauthoryear {Lusilao-Makiese, Cukrowska, Tessier, Amouroux,{}\ \BBA{} Weiersbye}{Lusilao-Makiese\ \BOthers {.}}{{\APACyear {2013}}}}
\bibcite{Male2013}{\citeauthoryear {Male, Reichelt-Brushett, Pocock,{}\ \BBA{} Nanlohy}{Male\ \BOthers {.}}{{\APACyear {2013}}}}
\APACbibcite{Male2013}{\citeauthoryear {Male, Reichelt-Brushett, Pocock,{}\ \BBA{} Nanlohy}{Male\ \BOthers {.}}{{\APACyear {2013}}}}
\bibcite{McMahon2001}{\citeauthoryear {McMahon\ \BBA{} Remy}{McMahon\ \BBA{} Remy}{{\APACyear {2001}}}}
\APACbibcite{McMahon2001}{\citeauthoryear {McMahon\ \BBA{} Remy}{McMahon\ \BBA{} Remy}{{\APACyear {2001}}}}
\bibcite{Mergler2007}{\citeauthoryear {Mergler\ \BOthers {.}}{Mergler\ \BOthers {.}}{{\APACyear {2007}}}}
\APACbibcite{Mergler2007}{\citeauthoryear {Mergler\ \BOthers {.}}{Mergler\ \BOthers {.}}{{\APACyear {2007}}}}
\bibcite{Ministerio2012}{\citeauthoryear {{Ministerio de Minas y Energia}}{{Ministerio de Minas y Energia}}{{\APACyear {2012}}}}
\APACbibcite{Ministerio2012}{\citeauthoryear {{Ministerio de Minas y Energia}}{{Ministerio de Minas y Energia}}{{\APACyear {2012}}}}
\bibcite{Mol2004}{\citeauthoryear {Mol\ \BBA{} Ouboter}{Mol\ \BBA{} Ouboter}{{\APACyear {2004}}}}
\APACbibcite{Mol2004}{\citeauthoryear {Mol\ \BBA{} Ouboter}{Mol\ \BBA{} Ouboter}{{\APACyear {2004}}}}
\bibcite{Mol2001}{\citeauthoryear {Mol, Ramlal, Lietar,{}\ \BBA{} Verloo}{Mol\ \BOthers {.}}{{\APACyear {2001}}}}
\APACbibcite{Mol2001}{\citeauthoryear {Mol, Ramlal, Lietar,{}\ \BBA{} Verloo}{Mol\ \BOthers {.}}{{\APACyear {2001}}}}
\bibcite{Morel1998}{\citeauthoryear {Morel, Kraepiel,{}\ \BBA{} Amyot}{Morel\ \BOthers {.}}{{\APACyear {1998}}}}
\APACbibcite{Morel1998}{\citeauthoryear {Morel, Kraepiel,{}\ \BBA{} Amyot}{Morel\ \BOthers {.}}{{\APACyear {1998}}}}
\bibcite{Olivero2002}{\citeauthoryear {Olivero\ \BBA{} Johnson}{Olivero\ \BBA{} Johnson}{{\APACyear {2002}}}}
\APACbibcite{Olivero2002}{\citeauthoryear {Olivero\ \BBA{} Johnson}{Olivero\ \BBA{} Johnson}{{\APACyear {2002}}}}
\bibcite{Pfeiffer1988}{\citeauthoryear {Pfeiffer\ \BBA{} de Lacerda}{Pfeiffer\ \BBA{} de Lacerda}{{\APACyear {1988}}}}
\APACbibcite{Pfeiffer1988}{\citeauthoryear {Pfeiffer\ \BBA{} de Lacerda}{Pfeiffer\ \BBA{} de Lacerda}{{\APACyear {1988}}}}
\bibcite{Pfeiffer1993}{\citeauthoryear {Pfeiffer, Lacerda, Salomons,{}\ \BBA{} Malm}{Pfeiffer\ \BOthers {.}}{{\APACyear {1993}}}}
\APACbibcite{Pfeiffer1993}{\citeauthoryear {Pfeiffer, Lacerda, Salomons,{}\ \BBA{} Malm}{Pfeiffer\ \BOthers {.}}{{\APACyear {1993}}}}
\bibcite{Swenson2011}{\citeauthoryear {Swenson, Carter, Domec,{}\ \BBA{} Delgado}{Swenson\ \BOthers {.}}{{\APACyear {2011}}}}
\APACbibcite{Swenson2011}{\citeauthoryear {Swenson, Carter, Domec,{}\ \BBA{} Delgado}{Swenson\ \BOthers {.}}{{\APACyear {2011}}}}
\bibcite{Straaten2000}{\citeauthoryear {van Straaten}{van Straaten}{{\APACyear {2000}}}}
\APACbibcite{Straaten2000}{\citeauthoryear {van Straaten}{van Straaten}{{\APACyear {2000}}}}
\bibcite{Webb2004}{\citeauthoryear {Webb\ \BOthers {.}}{Webb\ \BOthers {.}}{{\APACyear {2004}}}}
\APACbibcite{Webb2004}{\citeauthoryear {Webb\ \BOthers {.}}{Webb\ \BOthers {.}}{{\APACyear {2004}}}}
\bibcite{World2009}{\citeauthoryear {{World Bank}}{{World Bank}}{{\APACyear {2009}}}}
\APACbibcite{World2009}{\citeauthoryear {{World Bank}}{{World Bank}}{{\APACyear {2009}}}}
