\relax 
\providecommand\hyper@newdestlabel[2]{}
\providecommand\HyperFirstAtBeginDocument{\AtBeginDocument}
\HyperFirstAtBeginDocument{\ifx\hyper@anchor\@undefined
\global\let\oldcontentsline\contentsline
\gdef\contentsline#1#2#3#4{\oldcontentsline{#1}{#2}{#3}}
\global\let\oldnewlabel\newlabel
\gdef\newlabel#1#2{\newlabelxx{#1}#2}
\gdef\newlabelxx#1#2#3#4#5#6{\oldnewlabel{#1}{{#2}{#3}}}
\AtEndDocument{\ifx\hyper@anchor\@undefined
\let\contentsline\oldcontentsline
\let\newlabel\oldnewlabel
\fi}
\fi}
\global\let\hyper@last\relax 
\gdef\HyperFirstAtBeginDocument#1{#1}
\providecommand\HyField@AuxAddToFields[1]{}
\providecommand\HyField@AuxAddToCoFields[2]{}
\providecommand \oddpage@label [2]{}
\@writefile{toc}{\beamer@endinputifotherversion {3.33pt}}
\@writefile{nav}{\beamer@endinputifotherversion {3.33pt}}
\select@language{english}
\@writefile{toc}{\select@language{english}}
\@writefile{lof}{\select@language{english}}
\@writefile{lot}{\select@language{english}}
\@writefile{nav}{\headcommand {\slideentry {0}{0}{1}{1/1}{}{0}}}
\@writefile{nav}{\headcommand {\beamer@framepages {1}{1}}}
\@writefile{toc}{\beamer@sectionintoc {1}{Motivation and context}{2}{0}{1}}
\@writefile{nav}{\headcommand {\sectionentry {1}{Motivation and context}{2}{Motivation and context}{0}}}
\@writefile{nav}{\headcommand {\beamer@sectionpages {1}{1}}}
\@writefile{nav}{\headcommand {\beamer@subsectionpages {1}{1}}}
\newlabel{fig:evol_mineria}{{1}{2}{Motivation and context}{Doc-Start}{}}
\@writefile{snm}{\beamer@slide {fig:evol_mineria}{2}}
\@writefile{nav}{\headcommand {\slideentry {1}{0}{2}{2/2}{}{0}}}
\@writefile{nav}{\headcommand {\beamer@framepages {2}{2}}}
\citation{UNEP2013}
\citation{GUIZA2013}
\citation{Olivero2002}
\citation{UNEP2013}
\citation{GUIZA2013}
\citation{Olivero2002}
\citation{UNEP2013}
\citation{GUIZA2013}
\citation{Olivero2002}
\citation{UNEP2013}
\citation{GUIZA2013}
\citation{Olivero2002}
\citation{UNEP2013}
\citation{GUIZA2013}
\citation{Olivero2002}
\citation{UNEP2013}
\citation{GUIZA2013}
\citation{Olivero2002}
\citation{UNEP2013}
\citation{GUIZA2013}
\citation{Olivero2002}
\citation{UNEP2013}
\citation{GUIZA2013}
\citation{Olivero2002}
\@writefile{nav}{\headcommand {\slideentry {1}{0}{3}{3/10}{}{0}}}
\@writefile{nav}{\headcommand {\beamer@framepages {3}{10}}}
\citation{Aragon2013a}
\citation{Aragon2013}
\citation{Goltz2014}
\@writefile{toc}{\beamer@sectionintoc {2}{This paper}{11}{0}{2}}
\@writefile{nav}{\headcommand {\sectionentry {2}{This paper}{11}{This paper}{0}}}
\@writefile{nav}{\headcommand {\beamer@sectionpages {2}{10}}}
\@writefile{nav}{\headcommand {\beamer@subsectionpages {2}{10}}}
\citation{Aragon2013a}
\citation{Aragon2013}
\citation{Goltz2014}
\citation{Aragon2013a}
\citation{Aragon2013}
\citation{Goltz2014}
\citation{Aragon2013a}
\citation{Aragon2013}
\citation{Goltz2014}
\citation{Aragon2013a}
\citation{Aragon2013}
\citation{Goltz2014}
\citation{Aragon2013a}
\citation{Aragon2013}
\citation{Goltz2014}
\citation{Aragon2013a}
\citation{Aragon2013}
\citation{Goltz2014}
\citation{Aragon2013a}
\citation{Aragon2013}
\citation{Goltz2014}
\citation{Aragon2013a}
\citation{Aragon2013}
\citation{Goltz2014}
\@writefile{nav}{\headcommand {\slideentry {2}{0}{4}{11/19}{}{0}}}
\@writefile{nav}{\headcommand {\beamer@framepages {11}{19}}}
\@writefile{toc}{\beamer@sectionintoc {3}{Data}{20}{0}{3}}
\@writefile{nav}{\headcommand {\sectionentry {3}{Data}{20}{Data}{0}}}
\@writefile{nav}{\headcommand {\beamer@sectionpages {11}{19}}}
\@writefile{nav}{\headcommand {\beamer@subsectionpages {11}{19}}}
\newlabel{dat2<1>}{{5}{20}{Data}{Doc-Start}{}}
\@writefile{snm}{\beamer@slide {dat2<1>}{20}}
\newlabel{dat2}{{5}{20}{Data}{Doc-Start}{}}
\@writefile{snm}{\beamer@slide {dat2}{20}}
\@writefile{nav}{\headcommand {\slideentry {3}{0}{5}{20/20}{}{0}}}
\@writefile{nav}{\headcommand {\beamer@framepages {20}{20}}}
\newlabel{dat1<1>}{{6}{21}{Data}{Doc-Start}{}}
\@writefile{snm}{\beamer@slide {dat1<1>}{21}}
\newlabel{dat1}{{6}{21}{Data}{Doc-Start}{}}
\@writefile{snm}{\beamer@slide {dat1}{21}}
\@writefile{nav}{\headcommand {\slideentry {3}{0}{6}{21/21}{}{0}}}
\@writefile{nav}{\headcommand {\beamer@framepages {21}{21}}}
\@writefile{nav}{\headcommand {\slideentry {3}{0}{7}{22/22}{}{0}}}
\@writefile{nav}{\headcommand {\beamer@framepages {22}{22}}}
\@writefile{toc}{\beamer@sectionintoc {4}{Identification Strategy and results}{23}{0}{4}}
\@writefile{nav}{\headcommand {\sectionentry {4}{Identification Strategy and results}{23}{Identification Strategy and results}{0}}}
\@writefile{nav}{\headcommand {\beamer@sectionpages {20}{22}}}
\@writefile{nav}{\headcommand {\beamer@subsectionpages {20}{22}}}
\newlabel{empesp<1>}{{8}{23}{Identification Strategy and results}{Doc-Start}{}}
\@writefile{snm}{\beamer@slide {empesp<1>}{23}}
\newlabel{empesp}{{8}{23}{Identification Strategy and results}{Doc-Start}{}}
\@writefile{snm}{\beamer@slide {empesp}{23}}
\@writefile{nav}{\headcommand {\slideentry {4}{0}{8}{23/23}{}{0}}}
\@writefile{nav}{\headcommand {\beamer@framepages {23}{23}}}
\@writefile{nav}{\headcommand {\slideentry {4}{0}{9}{24/24}{}{0}}}
\@writefile{nav}{\headcommand {\beamer@framepages {24}{24}}}
\newlabel{fig:evolSalud}{{2}{25}{Identification Strategy and results}{Doc-Start}{}}
\@writefile{snm}{\beamer@slide {fig:evolSalud}{25}}
\@writefile{nav}{\headcommand {\slideentry {4}{0}{10}{25/25}{}{0}}}
\@writefile{nav}{\headcommand {\beamer@framepages {25}{25}}}
\newlabel{rivpoldesc<1>}{{11}{26}{Identification Strategy and results}{Doc-Start}{}}
\@writefile{snm}{\beamer@slide {rivpoldesc<1>}{26}}
\newlabel{rivpoldesc}{{11}{26}{Identification Strategy and results}{Doc-Start}{}}
\@writefile{snm}{\beamer@slide {rivpoldesc}{26}}
\@writefile{nav}{\headcommand {\slideentry {4}{0}{11}{26/26}{}{0}}}
\@writefile{nav}{\headcommand {\beamer@framepages {26}{26}}}
\@writefile{nav}{\headcommand {\slideentry {4}{0}{12}{27/27}{}{0}}}
\@writefile{nav}{\headcommand {\beamer@framepages {27}{27}}}
\@writefile{nav}{\headcommand {\slideentry {4}{0}{13}{28/28}{}{0}}}
\@writefile{nav}{\headcommand {\beamer@framepages {28}{28}}}
\citation{ElColombiano2014}
\@writefile{nav}{\headcommand {\slideentry {4}{0}{14}{29/29}{}{0}}}
\@writefile{nav}{\headcommand {\beamer@framepages {29}{29}}}
\@writefile{nav}{\headcommand {\slideentry {4}{0}{15}{30/30}{}{0}}}
\@writefile{nav}{\headcommand {\beamer@framepages {30}{30}}}
\@writefile{toc}{\beamer@sectionintoc {5}{Robustness Checks}{31}{0}{5}}
\@writefile{nav}{\headcommand {\sectionentry {5}{Robustness Checks}{31}{Robustness Checks}{0}}}
\@writefile{nav}{\headcommand {\beamer@sectionpages {23}{30}}}
\@writefile{nav}{\headcommand {\beamer@subsectionpages {23}{30}}}
\@writefile{nav}{\headcommand {\slideentry {5}{0}{16}{31/31}{}{0}}}
\@writefile{nav}{\headcommand {\beamer@framepages {31}{31}}}
\newlabel{illegal<1>}{{17}{32}{Robustness Checks}{Doc-Start}{}}
\@writefile{snm}{\beamer@slide {illegal<1>}{32}}
\newlabel{illegal}{{17}{32}{Robustness Checks}{Doc-Start}{}}
\@writefile{snm}{\beamer@slide {illegal}{32}}
\@writefile{nav}{\headcommand {\slideentry {5}{0}{17}{32/32}{}{0}}}
\@writefile{nav}{\headcommand {\beamer@framepages {32}{32}}}
\@writefile{nav}{\headcommand {\slideentry {5}{0}{18}{33/33}{}{0}}}
\@writefile{nav}{\headcommand {\beamer@framepages {33}{33}}}
\@writefile{nav}{\headcommand {\slideentry {5}{0}{19}{34/34}{}{0}}}
\@writefile{nav}{\headcommand {\beamer@framepages {34}{34}}}
\@writefile{nav}{\headcommand {\slideentry {5}{0}{20}{35/35}{}{0}}}
\@writefile{nav}{\headcommand {\beamer@framepages {35}{35}}}
\newlabel{roc<1>}{{21}{36}{Robustness Checks}{Doc-Start}{}}
\@writefile{snm}{\beamer@slide {roc<1>}{36}}
\newlabel{roc}{{21}{36}{Robustness Checks}{Doc-Start}{}}
\@writefile{snm}{\beamer@slide {roc}{36}}
\@writefile{nav}{\headcommand {\slideentry {5}{0}{21}{36/36}{}{0}}}
\@writefile{nav}{\headcommand {\beamer@framepages {36}{36}}}
\@writefile{nav}{\headcommand {\slideentry {5}{0}{22}{37/37}{}{0}}}
\@writefile{nav}{\headcommand {\beamer@framepages {37}{37}}}
\@writefile{toc}{\beamer@sectionintoc {6}{Closing remarks}{38}{0}{6}}
\@writefile{nav}{\headcommand {\sectionentry {6}{Closing remarks}{38}{Closing remarks}{0}}}
\@writefile{nav}{\headcommand {\beamer@sectionpages {31}{37}}}
\@writefile{nav}{\headcommand {\beamer@subsectionpages {31}{37}}}
\@writefile{nav}{\headcommand {\slideentry {6}{0}{23}{38/38}{}{0}}}
\@writefile{nav}{\headcommand {\beamer@framepages {38}{38}}}
\@writefile{nav}{\headcommand {\slideentry {6}{0}{24}{39/39}{}{0}}}
\@writefile{nav}{\headcommand {\beamer@framepages {39}{39}}}
\@writefile{nav}{\headcommand {\slideentry {6}{0}{25}{40/40}{}{0}}}
\@writefile{nav}{\headcommand {\beamer@framepages {40}{40}}}
\@writefile{nav}{\headcommand {\slideentry {6}{0}{26}{41/41}{}{0}}}
\@writefile{nav}{\headcommand {\beamer@framepages {41}{41}}}
\@writefile{nav}{\headcommand {\slideentry {6}{0}{27}{42/42}{}{0}}}
\@writefile{nav}{\headcommand {\beamer@framepages {42}{42}}}
\@writefile{nav}{\headcommand {\slideentry {6}{0}{28}{43/43}{}{0}}}
\@writefile{nav}{\headcommand {\beamer@framepages {43}{43}}}
\newlabel{rivpolgraph<1>}{{29}{44}{Closing remarks}{Doc-Start}{}}
\@writefile{snm}{\beamer@slide {rivpolgraph<1>}{44}}
\newlabel{rivpolgraph}{{29}{44}{Closing remarks}{Doc-Start}{}}
\@writefile{snm}{\beamer@slide {rivpolgraph}{44}}
\@writefile{nav}{\headcommand {\slideentry {6}{0}{29}{44/44}{}{0}}}
\@writefile{nav}{\headcommand {\beamer@framepages {44}{44}}}
\@writefile{nav}{\headcommand {\slideentry {6}{0}{30}{45/45}{}{0}}}
\@writefile{nav}{\headcommand {\beamer@framepages {45}{45}}}
\@writefile{nav}{\headcommand {\slideentry {6}{0}{31}{46/46}{}{0}}}
\@writefile{nav}{\headcommand {\beamer@framepages {46}{46}}}
\@writefile{nav}{\headcommand {\slideentry {6}{0}{32}{47/47}{}{0}}}
\@writefile{nav}{\headcommand {\beamer@framepages {47}{47}}}
\@writefile{nav}{\headcommand {\slideentry {6}{0}{33}{48/48}{}{0}}}
\@writefile{nav}{\headcommand {\beamer@framepages {48}{48}}}
\@writefile{nav}{\headcommand {\slideentry {6}{0}{34}{49/49}{}{0}}}
\@writefile{nav}{\headcommand {\beamer@framepages {49}{49}}}
\newlabel{otheroutcomes<1>}{{35}{50}{Closing remarks}{Doc-Start}{}}
\@writefile{snm}{\beamer@slide {otheroutcomes<1>}{50}}
\newlabel{otheroutcomes}{{35}{50}{Closing remarks}{Doc-Start}{}}
\@writefile{snm}{\beamer@slide {otheroutcomes}{50}}
\@writefile{nav}{\headcommand {\slideentry {6}{0}{35}{50/50}{}{0}}}
\@writefile{nav}{\headcommand {\beamer@framepages {50}{50}}}
\newlabel{price<1>}{{36}{51}{Closing remarks}{Doc-Start}{}}
\@writefile{snm}{\beamer@slide {price<1>}{51}}
\newlabel{price}{{36}{51}{Closing remarks}{Doc-Start}{}}
\@writefile{snm}{\beamer@slide {price}{51}}
\@writefile{nav}{\headcommand {\slideentry {6}{0}{36}{51/51}{}{0}}}
\@writefile{nav}{\headcommand {\beamer@framepages {51}{51}}}
\newlabel{fertility<1>}{{37}{52}{Closing remarks}{Doc-Start}{}}
\@writefile{snm}{\beamer@slide {fertility<1>}{52}}
\newlabel{fertility}{{37}{52}{Closing remarks}{Doc-Start}{}}
\@writefile{snm}{\beamer@slide {fertility}{52}}
\@writefile{nav}{\headcommand {\slideentry {6}{0}{37}{52/52}{}{0}}}
\@writefile{nav}{\headcommand {\beamer@framepages {52}{52}}}
\newlabel{upvsdown<1>}{{38}{53}{Closing remarks}{Doc-Start}{}}
\@writefile{snm}{\beamer@slide {upvsdown<1>}{53}}
\newlabel{upvsdown}{{38}{53}{Closing remarks}{Doc-Start}{}}
\@writefile{snm}{\beamer@slide {upvsdown}{53}}
\@writefile{nav}{\headcommand {\slideentry {6}{0}{38}{53/53}{}{0}}}
\@writefile{nav}{\headcommand {\beamer@framepages {53}{53}}}
\newlabel{sumstat1<1>}{{39}{54}{Closing remarks}{Doc-Start}{}}
\@writefile{snm}{\beamer@slide {sumstat1<1>}{54}}
\newlabel{sumstat1}{{39}{54}{Closing remarks}{Doc-Start}{}}
\@writefile{snm}{\beamer@slide {sumstat1}{54}}
\@writefile{nav}{\headcommand {\slideentry {6}{0}{39}{54/54}{}{0}}}
\@writefile{nav}{\headcommand {\beamer@framepages {54}{54}}}
\newlabel{sumstat2<1>}{{40}{55}{Closing remarks}{Doc-Start}{}}
\@writefile{snm}{\beamer@slide {sumstat2<1>}{55}}
\newlabel{sumstat2}{{40}{55}{Closing remarks}{Doc-Start}{}}
\@writefile{snm}{\beamer@slide {sumstat2}{55}}
\newlabel{tab:sumMines}{{2}{55}{Closing remarks}{Doc-Start}{}}
\@writefile{snm}{\beamer@slide {tab:sumMines}{55}}
\@writefile{nav}{\headcommand {\slideentry {6}{0}{40}{55/55}{}{0}}}
\@writefile{nav}{\headcommand {\beamer@framepages {55}{55}}}
\newlabel{sumstat3<1>}{{41}{56}{Closing remarks}{Doc-Start}{}}
\@writefile{snm}{\beamer@slide {sumstat3<1>}{56}}
\newlabel{sumstat3}{{41}{56}{Closing remarks}{Doc-Start}{}}
\@writefile{snm}{\beamer@slide {sumstat3}{56}}
\@writefile{nav}{\headcommand {\slideentry {6}{0}{41}{56/56}{}{0}}}
\@writefile{nav}{\headcommand {\beamer@framepages {56}{56}}}
\newlabel{fig:evol_mineria}{{3}{57}{Closing remarks}{Doc-Start}{}}
\@writefile{snm}{\beamer@slide {fig:evol_mineria}{57}}
\@writefile{nav}{\headcommand {\slideentry {6}{0}{42}{57/57}{}{0}}}
\@writefile{nav}{\headcommand {\beamer@framepages {57}{57}}}
\@writefile{nav}{\headcommand {\slideentry {6}{0}{43}{58/58}{}{0}}}
\@writefile{nav}{\headcommand {\beamer@framepages {58}{58}}}
\bibstyle{apacite}
\bibdata{bibmin}
\bibcite{Aragon2013a}{\citeauthoryear {Aragon\ \BBA{} Rud}{Aragon\ \BBA{} Rud}{{\APACyear {2013}}{\APACexlab {{\BCnt {1}}}}}}
\APACbibcite{Aragon2013a}{\citeauthoryear {Aragon\ \BBA{} Rud}{Aragon\ \BBA{} Rud}{{\APACyear {2013}}{\APACexlab {{\BCnt {1}}}}}}
\bibcite{Aragon2013}{\citeauthoryear {Aragon\ \BBA{} Rud}{Aragon\ \BBA{} Rud}{{\APACyear {2013}}{\APACexlab {{\BCnt {2}}}}}}
\APACbibcite{Aragon2013}{\citeauthoryear {Aragon\ \BBA{} Rud}{Aragon\ \BBA{} Rud}{{\APACyear {2013}}{\APACexlab {{\BCnt {2}}}}}}
\bibcite{ElColombiano2014}{\citeauthoryear {{El Colombiano}}{{El Colombiano}}{{\APACyear {2014}}}}
\APACbibcite{ElColombiano2014}{\citeauthoryear {{El Colombiano}}{{El Colombiano}}{{\APACyear {2014}}}}
\bibcite{GUIZA2013}{\citeauthoryear {Guiza\ \BBA{} Aristizabal}{Guiza\ \BBA{} Aristizabal}{{\APACyear {2013}}}}
\APACbibcite{GUIZA2013}{\citeauthoryear {Guiza\ \BBA{} Aristizabal}{Guiza\ \BBA{} Aristizabal}{{\APACyear {2013}}}}
\bibcite{Olivero2002}{\citeauthoryear {Olivero\ \BBA{} Johnson}{Olivero\ \BBA{} Johnson}{{\APACyear {2002}}}}
\APACbibcite{Olivero2002}{\citeauthoryear {Olivero\ \BBA{} Johnson}{Olivero\ \BBA{} Johnson}{{\APACyear {2002}}}}
\bibcite{UNEP2013}{\citeauthoryear {UNEP}{UNEP}{{\APACyear {2013}}}}
\APACbibcite{UNEP2013}{\citeauthoryear {UNEP}{UNEP}{{\APACyear {2013}}}}
\bibcite{Goltz2014}{\citeauthoryear {von~der Goltz\ \BBA{} Barnwal}{von~der Goltz\ \BBA{} Barnwal}{{\APACyear {2014}}}}
\APACbibcite{Goltz2014}{\citeauthoryear {von~der Goltz\ \BBA{} Barnwal}{von~der Goltz\ \BBA{} Barnwal}{{\APACyear {2014}}}}
\@writefile{nav}{\headcommand {\sectionentry {7}{}{59}{}{0}}}
\@writefile{nav}{\headcommand {\beamer@sectionpages {38}{58}}}
\@writefile{nav}{\headcommand {\beamer@subsectionpages {38}{58}}}
\@writefile{toc}{\contentsline {section}{}}
\@writefile{nav}{\headcommand {\slideentry {7}{0}{44}{59/59}{}{0}}}
\@writefile{nav}{\headcommand {\beamer@framepages {59}{59}}}
\@writefile{nav}{\headcommand {\slideentry {7}{0}{44}{59/60}{}{0}}}
\@writefile{nav}{\headcommand {\beamer@framepages {59}{60}}}
\@writefile{nav}{\headcommand {\slideentry {7}{0}{44}{59/61}{}{0}}}
\@writefile{nav}{\headcommand {\beamer@framepages {59}{61}}}
\@writefile{nav}{\headcommand {\beamer@partpages {1}{61}}}
\@writefile{nav}{\headcommand {\beamer@subsectionpages {38}{61}}}
\@writefile{nav}{\headcommand {\beamer@sectionpages {38}{61}}}
\@writefile{nav}{\headcommand {\beamer@documentpages {61}}}
\@writefile{nav}{\headcommand {\def \inserttotalframenumber {46}}}
